testbench.vcd
$date
	Wed Mar 07 17:55:02 2018
$end
$version
	Icarus Verilog
$end
$timescale
	1ps
$end
$scope module testbench $end
$var wire 16 ! addr_6 [15:0] $end
$var wire 1 " wren_7 $end
$var wire 1 # wren_5 $end
$var wire 1 $ wren_3 $end
$var wire 1 % wren_2 $end
$var wire 1 & wren_1 $end
$var wire 1 ' wren_0 $end
$var wire 1 ( wr_en $end
$var wire 16 ) which [15:0] $end
$var wire 1 * start_rngAddress $end
$var wire 16 + rng_out_4bit [15:0] $end
$var wire 16 , rng_out [15:0] $end
$var wire 16 - rng_address [15:0] $end
$var wire 1 . reinit $end
$var wire 16 / nextsinks [15:0] $end
$var wire 16 0 nexthop [15:0] $end
$var wire 16 1 mybest [15:0] $end
$var wire 16 2 mem_data_out [15:0] $end
$var wire 16 3 mem_data_in [15:0] $end
$var wire 16 4 mdi_7 [15:0] $end
$var wire 16 5 mdi_5 [15:0] $end
$var wire 16 6 mdi_3 [15:0] $end
$var wire 16 7 mdi_2 [15:0] $end
$var wire 16 8 mdi_1 [15:0] $end
$var wire 16 9 mdi_0 [15:0] $end
$var wire 1 : internalmux_select $end
$var wire 1 ; iamForwarding $end
$var wire 1 < forAggregation3 $end
$var wire 1 = forAggregation2 $end
$var wire 1 > forAggregation1 $end
$var wire 1 ? done_winnerPolicy $end
$var wire 1 @ done_selectMyAction $end
$var wire 1 A done_rngAddress $end
$var wire 1 B done_neighborSinkInOtherCluster $end
$var wire 1 C done_learnCosts $end
$var wire 1 D done_iamSink $end
$var wire 1 E done_iamForwarding $end
$var wire 1 F done_fixSinkList $end
$var wire 1 G done_findMyBest $end
$var wire 1 H done_betterNeighborsInMyCluster $end
$var wire 16 I betterNeighborCount [15:0] $end
$var wire 16 J bestvalue [15:0] $end
$var wire 16 K bestneighborID [15:0] $end
$var wire 16 L besthop [15:0] $end
$var wire 16 M address [15:0] $end
$var wire 16 N addr_7 [15:0] $end
$var wire 16 O addr_6_1 [15:0] $end
$var wire 16 P addr_6_0 [15:0] $end
$var wire 16 Q addr_5 [15:0] $end
$var wire 16 R addr_4 [15:0] $end
$var wire 16 S addr_3 [15:0] $end
$var wire 16 T addr_2 [15:0] $end
$var wire 16 U addr_1 [15:0] $end
$var wire 16 V addr_0 [15:0] $end
$var wire 16 W action [15:0] $end
$var reg 16 X MY_BATTERY_STAT [15:0] $end
$var reg 16 Y MY_CLUSTER_ID [15:0] $end
$var reg 16 Z MY_NODE_ID [15:0] $end
$var reg 16 [ addr_6_buf [15:0] $end
$var reg 3 \ addr_select [2:0] $end
$var reg 1 ] clock $end
$var reg 16 ^ epsilon [15:0] $end
$var reg 16 _ epsilon_step [15:0] $end
$var reg 16 ` fValue [15:0] $end
$var reg 16 a fbatteryStat [15:0] $end
$var reg 16 b fclusterID [15:0] $end
$var reg 16 c fdestinationID [15:0] $end
$var reg 16 d fsourceID [15:0] $end
$var reg 16 e mdi_4 [15:0] $end
$var reg 16 f mdi_6 [15:0] $end
$var reg 1 g nrst $end
$var reg 1 h start $end
$var reg 3 i wr_select [2:0] $end
$var reg 1 j wren_4 $end
$var reg 1 k wren_6 $end
$var integer 32 l i [31:0] $end
$scope module addr_mux $end
$var wire 16 m in6 [15:0] $end
$var wire 16 n out [15:0] $end
$var wire 3 o select [2:0] $end
$var wire 16 p in7 [15:0] $end
$var wire 16 q in5 [15:0] $end
$var wire 16 r in4 [15:0] $end
$var wire 16 s in3 [15:0] $end
$var wire 16 t in2 [15:0] $end
$var wire 16 u in1 [15:0] $end
$var wire 16 v in0 [15:0] $end
$var reg 16 w out_buf [15:0] $end
$upscope $end
$scope module aif1 $end
$var wire 16 x MY_NODE_ID [15:0] $end
$var wire 1 ] clock $end
$var wire 16 y destinationID [15:0] $end
$var wire 1 E done $end
$var wire 1 ; iamForwarding $end
$var wire 1 g nrst $end
$var wire 1 D start $end
$var reg 1 z done_buf $end
$var reg 1 { iamForwarding_buf $end
$var reg 2 | state [1:0] $end
$upscope $end
$scope module ais1 $end
$var wire 16 } address [15:0] $end
$var wire 1 ] clock $end
$var wire 1 D done $end
$var wire 1 > forAggregation $end
$var wire 1 g nrst $end
$var wire 1 & wr_en $end
$var wire 1 C start $end
$var wire 16 ~ data_out [15:0] $end
$var wire 16 !" data_in [15:0] $end
$var reg 16 "" address_count [15:0] $end
$var reg 16 #" amISink [15:0] $end
$var reg 1 $" data_out_buf $end
$var reg 1 %" done_buf $end
$var reg 1 &" forAggregation_buf $end
$var reg 2 '" state [1:0] $end
$var reg 1 (" wr_en_buf $end
$upscope $end
$scope module bnimc1 $end
$var wire 16 )" MY_CLUSTER_ID [15:0] $end
$var wire 16 *" address [15:0] $end
$var wire 16 +" besthop [15:0] $end
$var wire 16 ," bestneighborID [15:0] $end
$var wire 16 -" bestvalue [15:0] $end
$var wire 1 ] clock $end
$var wire 16 ." data_out [15:0] $end
$var wire 1 H done $end
$var wire 16 /" nextsinks [15:0] $end
$var wire 1 g nrst $end
$var wire 1 # wr_en $end
$var wire 1 G start $end
$var wire 16 0" mybest [15:0] $end
$var wire 16 1" data_in [15:0] $end
$var reg 16 2" BATTERY_THRESHOLD [15:0] $end
$var reg 16 3" HCM [15:0] $end
$var reg 16 4" address_count [15:0] $end
$var reg 16 5" batteryStat [15:0] $end
$var reg 16 6" besthop_buf [15:0] $end
$var reg 16 7" bestneighborID_buf [15:0] $end
$var reg 16 8" bestvalue_buf [15:0] $end
$var reg 16 9" betterneighborCount [15:0] $end
$var reg 16 :" betterneighbors [15:0] $end
$var reg 16 ;" clusterID [15:0] $end
$var reg 16 <" data_out_buf [15:0] $end
$var reg 1 =" done_buf $end
$var reg 32 >" fpTemp [31:0] $end
$var reg 16 ?" i [15:0] $end
$var reg 16 @" j [15:0] $end
$var reg 16 A" k [15:0] $end
$var reg 16 B" knownSinkCount [15:0] $end
$var reg 16 C" knownSinks [15:0] $end
$var reg 16 D" neighborCount [15:0] $end
$var reg 16 E" neighborID [15:0] $end
$var reg 16 F" nextsinks_buf [15:0] $end
$var reg 16 G" qValue [15:0] $end
$var reg 4 H" state [3:0] $end
$var reg 1 I" wr_en_buf $end
$upscope $end
$scope module fmb1 $end
$var wire 16 J" MY_BATTERY_STAT [15:0] $end
$var wire 16 K" address [15:0] $end
$var wire 1 ] clock $end
$var wire 1 G done $end
$var wire 16 L" mybest [15:0] $end
$var wire 1 g nrst $end
$var wire 1 B start $end
$var wire 16 M" data_in [15:0] $end
$var reg 16 N" HCM [15:0] $end
$var reg 16 O" address_count [15:0] $end
$var reg 1 P" done_buf $end
$var reg 16 Q" k [15:0] $end
$var reg 32 R" kTemp [31:0] $end
$var reg 16 S" l [15:0] $end
$var reg 16 T" mybest_buf [15:0] $end
$var reg 16 U" neighborCount [15:0] $end
$var reg 16 V" qValue [15:0] $end
$var reg 3 W" state [2:0] $end
$upscope $end
$scope module fsl1 $end
$var wire 16 X" address [15:0] $end
$var wire 1 ] clock $end
$var wire 16 Y" data_out [15:0] $end
$var wire 1 F done $end
$var wire 1 g nrst $end
$var wire 1 E start $end
$var wire 1 % wr_en $end
$var wire 16 Z" data_in [15:0] $end
$var reg 16 [" address_count [15:0] $end
$var reg 16 \" data_out_buf [15:0] $end
$var reg 1 ]" done_buf $end
$var reg 16 ^" i [15:0] $end
$var reg 16 _" j [15:0] $end
$var reg 16 `" k [15:0] $end
$var reg 16 a" knownSinkCount [15:0] $end
$var reg 16 b" knownSinks [15:0] $end
$var reg 16 c" neighborCount [15:0] $end
$var reg 16 d" qValue [15:0] $end
$var reg 16 e" sinkIDCount [15:0] $end
$var reg 16 f" sinkIDs [15:0] $end
$var reg 4 g" state [3:0] $end
$var reg 16 h" worstHops [15:0] $end
$var reg 1 i" wr_en_buf $end
$upscope $end
$scope module lc1 $end
$var wire 16 j" address [15:0] $end
$var wire 1 ] clock $end
$var wire 16 k" data_out [15:0] $end
$var wire 1 C done $end
$var wire 16 l" fValue [15:0] $end
$var wire 16 m" fbatteryStat [15:0] $end
$var wire 16 n" fclusterID [15:0] $end
$var wire 16 o" fsourceID [15:0] $end
$var wire 1 g nrst $end
$var wire 1 . reinit $end
$var wire 1 h start $end
$var wire 1 ' wr_en $end
$var wire 16 p" data_in [15:0] $end
$var reg 16 q" address_count [15:0] $end
$var reg 16 r" cur_knownSink [15:0] $end
$var reg 16 s" cur_nID [15:0] $end
$var reg 16 t" cur_qValue [15:0] $end
$var reg 16 u" data_out_buf [15:0] $end
$var reg 1 v" done_buf $end
$var reg 1 w" found $end
$var reg 16 x" k [15:0] $end
$var reg 16 y" knownSinkCount [15:0] $end
$var reg 16 z" n [15:0] $end
$var reg 16 {" neighborCount [15:0] $end
$var reg 16 |" neighborCount_buf [15:0] $end
$var reg 1 }" reinit_buf $end
$var reg 16 ~" sinkID_address_buf [15:0] $end
$var reg 5 !# state [4:0] $end
$var reg 1 "# wr_en_buf $end
$upscope $end
$scope module mdi_mux $end
$var wire 16 ## in0 [15:0] $end
$var wire 16 $# in1 [15:0] $end
$var wire 16 %# in2 [15:0] $end
$var wire 16 &# in4 [15:0] $end
$var wire 16 '# in5 [15:0] $end
$var wire 16 (# in6 [15:0] $end
$var wire 16 )# out [15:0] $end
$var wire 3 *# select [2:0] $end
$var wire 16 +# in7 [15:0] $end
$var wire 16 ,# in3 [15:0] $end
$var reg 16 -# out_buf [15:0] $end
$upscope $end
$scope module mem1 $end
$var wire 16 .# address [15:0] $end
$var wire 1 ] clock $end
$var wire 16 /# data_in [15:0] $end
$var wire 16 0# data_out [15:0] $end
$var wire 1 ( wr_en $end
$var reg 16 1# data_out_buf [15:0] $end
$upscope $end
$scope module nsioc1 $end
$var wire 16 2# MY_CLUSTER_ID [15:0] $end
$var wire 16 3# address [15:0] $end
$var wire 1 ] clock $end
$var wire 16 4# data_in [15:0] $end
$var wire 16 5# data_out [15:0] $end
$var wire 1 B done $end
$var wire 1 = forAggregation $end
$var wire 1 g nrst $end
$var wire 1 F start $end
$var wire 1 $ wr_en $end
$var reg 16 6# address_count [15:0] $end
$var reg 16 7# clusterID [15:0] $end
$var reg 16 8# data_out_buf [15:0] $end
$var reg 1 9# done_buf $end
$var reg 1 :# forAggregation_buf $end
$var reg 16 ;# i [15:0] $end
$var reg 16 <# j [15:0] $end
$var reg 16 =# knownSinkCount [15:0] $end
$var reg 16 ># knownSinks [15:0] $end
$var reg 16 ?# neighborCount [15:0] $end
$var reg 16 @# neighborID [15:0] $end
$var reg 3 A# state [2:0] $end
$var reg 1 B# wr_en_buf $end
$upscope $end
$scope module rad1 $end
$var wire 1 ] clock $end
$var wire 1 A done_rng_address $end
$var wire 1 g nrst $end
$var wire 16 C# rng_address [15:0] $end
$var wire 16 D# which [15:0] $end
$var wire 1 * start_rng_address $end
$var wire 16 E# betterNeighborCount [15:0] $end
$var reg 1 F# done_rng_address_buf $end
$var reg 16 G# rng_address_buf [15:0] $end
$var reg 3 H# state [2:0] $end
$upscope $end
$scope module rng1 $end
$var wire 16 I# address [15:0] $end
$var wire 1 ] clock $end
$var wire 1 : internalmux_select $end
$var wire 16 J# mem_data_out [15:0] $end
$var wire 1 g nrst $end
$var wire 16 K# rng_out [15:0] $end
$var wire 16 L# rng_out_4bit [15:0] $end
$var reg 16 M# address_count [15:0] $end
$var reg 1 N# feedback $end
$var reg 1 O# internalmux_select_buf $end
$var reg 16 P# rng_out_buf [15:0] $end
$var reg 3 Q# state [2:0] $end
$upscope $end
$scope module sma1 $end
$var wire 16 R# action [15:0] $end
$var wire 16 S# address [15:0] $end
$var wire 1 ] clock $end
$var wire 16 T# data_out [15:0] $end
$var wire 1 @ done $end
$var wire 1 < forAggregation $end
$var wire 16 U# nextsinks [15:0] $end
$var wire 1 g nrst $end
$var wire 16 V# rng_in [15:0] $end
$var wire 1 " wr_en $end
$var wire 1 ? start $end
$var wire 16 W# nexthop [15:0] $end
$var reg 16 X# action_buf [15:0] $end
$var reg 16 Y# address_count [15:0] $end
$var reg 16 Z# data_out_buf [15:0] $end
$var reg 1 [# done_buf $end
$var reg 1 \# forAggregation_buf $end
$var reg 3 ]# state [2:0] $end
$var reg 1 ^# wr_en_buf $end
$upscope $end
$scope module wp1 $end
$var wire 16 _# MY_NODE_ID [15:0] $end
$var wire 16 `# address [15:0] $end
$var wire 16 a# besthop [15:0] $end
$var wire 16 b# bestneighborID [15:0] $end
$var wire 16 c# bestvalue [15:0] $end
$var wire 16 d# betterNeighborCount [15:0] $end
$var wire 1 ] clock $end
$var wire 16 e# data_in [15:0] $end
$var wire 1 A done_rng_address $end
$var wire 1 ? done_winnerPolicy $end
$var wire 16 f# epsilon [15:0] $end
$var wire 16 g# epsilon_step [15:0] $end
$var wire 16 h# mybest [15:0] $end
$var wire 16 i# nexthop [15:0] $end
$var wire 1 g nrst $end
$var wire 16 j# rng_address [15:0] $end
$var wire 16 k# rng_out [15:0] $end
$var wire 16 l# rng_out_4bit [15:0] $end
$var wire 1 * start_rngAddress $end
$var wire 1 H start_winnerPolicy $end
$var wire 16 m# which [15:0] $end
$var reg 26 n# _left [25:0] $end
$var reg 32 o# _left2 [31:0] $end
$var reg 26 p# _right [25:0] $end
$var reg 32 q# _right2 [31:0] $end
$var reg 16 r# address_count [15:0] $end
$var reg 16 s# betterNeighborCount_buf [15:0] $end
$var reg 1 t# done_winnerPolicy_buf $end
$var reg 16 u# epsilon_buf [15:0] $end
$var reg 16 v# epsilon_temp [15:0] $end
$var reg 16 w# explore_constant [15:0] $end
$var reg 32 x# mybest_shifted [31:0] $end
$var reg 16 y# nexthop_buf [15:0] $end
$var reg 10 z# nineninenine [9:0] $end
$var reg 1 {# one $end
$var reg 6 |# onezerozeroone [5:0] $end
$var reg 16 }# rng_address_temp [15:0] $end
$var reg 1 ~# start_rngAddress_buf $end
$var reg 5 !$ state [4:0] $end
$var reg 1 "$ three $end
$var reg 1 #$ two $end
$var reg 16 $$ which_buf [15:0] $end
$upscope $end
$scope module wren_mux $end
$var wire 1 ' in0 $end
$var wire 1 & in1 $end
$var wire 1 % in2 $end
$var wire 1 $ in3 $end
$var wire 1 j in4 $end
$var wire 1 # in5 $end
$var wire 1 k in6 $end
$var wire 1 " in7 $end
$var wire 1 ( out $end
$var wire 3 %$ select [2:0] $end
$var reg 1 &$ out_buf $end
$upscope $end
$upscope $end
$enddefinitions $end
#0
$dumpvars
x&$
bx %$
bx $$
x#$
x"$
bx !$
x~#
bx }#
bx |#
x{#
bx z#
bx y#
bx x#
bx w#
bx v#
bx u#
xt#
bx s#
bx r#
bx q#
bx p#
bx o#
bx n#
bx m#
b0xxxx l#
bx k#
bx j#
bx i#
bx h#
b1 g#
b10 f#
bx e#
bx d#
bx c#
bx b#
bx a#
bx `#
b11 _#
x^#
bx ]#
x\#
x[#
bx Z#
bx Y#
bx X#
bx W#
bx V#
bx U#
bx T#
bx S#
bx R#
bx Q#
bx P#
xO#
xN#
bx M#
b0xxxx L#
bx K#
bx J#
bx I#
bx H#
bx G#
xF#
bx E#
bx D#
bx C#
xB#
bx A#
bx @#
bx ?#
bx >#
bx =#
bx <#
bx ;#
x:#
x9#
bx 8#
bx 7#
bx 6#
bx 5#
bx 4#
bx 3#
b1 2#
bx 1#
bx 0#
bx /#
bx .#
bx -#
bx ,#
bx +#
bx *#
bx )#
b0 (#
bx '#
b0 &#
bx %#
b0x $#
bx ##
x"#
bx !#
bx ~"
x}"
bx |"
bx {"
bx z"
bx y"
bx x"
xw"
xv"
bx u"
bx t"
bx s"
bx r"
bx q"
bx p"
b1 o"
b1 n"
b1 m"
b1010 l"
bx k"
bx j"
xi"
bx h"
bx g"
bx f"
bx e"
bx d"
bx c"
bx b"
bx a"
bx `"
bx _"
bx ^"
x]"
bx \"
bx ["
bx Z"
bx Y"
bx X"
bx W"
bx V"
bx U"
bx T"
bx S"
bx R"
bx Q"
xP"
bx O"
bx N"
bx M"
bx L"
bx K"
b1000000000000000 J"
xI"
bx H"
bx G"
bx F"
bx E"
bx D"
bx C"
bx B"
bx A"
bx @"
bx ?"
bx >"
x="
bx <"
bx ;"
bx :"
bx 9"
bx 8"
bx 7"
bx 6"
bx 5"
bx 4"
bx 3"
bx 2"
bx 1"
bx 0"
bx /"
bx ."
bx -"
bx ,"
bx +"
bx *"
b1 )"
x("
bx '"
x&"
x%"
x$"
bx #"
bx ""
bx !"
b0x ~
bx }
bx |
x{
xz
b11 y
b11 x
bx w
bx v
bx u
bx t
bx s
bx r
bx q
bx p
bx o
bx n
bx m
b10110 l
0k
0j
bx i
1h
1g
b0 f
b0 e
b1 d
b11 c
b1 b
b1 a
b1010 `
b1 _
b10 ^
0]
bx \
bx [
b11 Z
b1 Y
b1000000000000000 X
bx W
bx V
bx U
bx T
bx S
bx R
bx Q
bx P
bx O
bx N
bx M
bx L
bx K
bx J
bx I
xH
xG
xF
xE
xD
xC
xB
xA
x@
x?
x>
x=
x<
x;
x:
bx 9
b0x 8
bx 7
bx 6
bx 5
bx 4
bx 3
bx 2
bx 1
bx 0
bx /
x.
bx -
bx ,
b0xxxx +
x*
bx )
x(
x'
x&
x%
x$
x#
x"
bx !
$end
#5000
0g
#10000
b100 2
b100 !"
b100 1"
b100 M"
b100 Z"
b100 p"
b100 0#
b100 4#
b100 J#
b100 e#
b100 1#
0(
0&$
b11010001010 M
b11010001010 n
b11010001010 .#
b11010001010 w
b0 i
b0 %$
b0 \
b0 o
b0 *#
b11111111110 !
b11111111110 m
b11111111110 [
1N#
b101 +
b101 L#
b101 l#
b0 x"
b0 z"
0.
0}"
0w"
b0 !#
b11010001010 V
b11010001010 v
b11010001010 j"
b11010001010 q"
0'
0"#
0C
0v"
b0 '"
b0 U
b0 u
b0 }
b0 ""
0&
0("
0D
0%"
0>
0&"
b0 |
0E
0z
0;
0{
b0 `"
b0 _"
b0 ^"
b0 g"
b11010001010 T
b11010001010 t
b11010001010 X"
b11010001010 ["
0%
0i"
0F
0]"
b0 <#
b0 ;#
b0 A#
b11010001000 S
b11010001000 s
b11010001000 3#
b11010001000 6#
0$
0B#
0B
09#
0=
0:#
b0 S"
b0 Q"
b0 W"
b1111111111111110 1
b1111111111111110 0"
b1111111111111110 L"
b1111111111111110 h#
b1111111111111110 T"
0G
0P"
b0 A"
b0 @"
b0 ?"
b0 H"
b1000001 /
b1000001 /"
b1000001 U#
b1000001 F"
b0 2"
b1111111111111110 J
b1111111111111110 -"
b1111111111111110 c#
b1111111111111110 8"
b1000001 L
b1000001 +"
b1000001 a#
b1000001 6"
b0 9"
b0 :"
b11010001000 Q
b11010001000 q
b11010001000 *"
b11010001000 4"
0#
0I"
0H
0="
1:
1O#
b11111111110 P
b11111111110 I#
b11111111110 M#
b1 Q#
b101 ,
b101 K#
b101 V#
b101 k#
b101 P#
0A
0F#
b0 H#
b0 -
b0 C#
b0 j#
b0 G#
b100001 |#
b1111111111 z#
b10 u#
b1100100 0
b1100100 W#
b1100100 i#
b1100100 y#
b0 !$
b0 ]#
0<
0\#
0"
0^#
0@
0[#
b11010001010 R
b11010001010 r
b11010001010 K"
b11010001010 O"
0*
0~#
0?
0t#
1]
#20000
0]
#30000
bx !
bx m
bx [
b100 +
b100 L#
b100 l#
0:
0O#
b10 Q#
b100 ,
b100 K#
b100 V#
b100 k#
b100 P#
b1 !#
1]
1g
#40000
0]
#50000
b101 2
b101 !"
b101 1"
b101 M"
b101 Z"
b101 p"
b101 0#
b101 4#
b101 J#
b101 e#
b101 1#
b11010001000 M
b11010001000 n
b11010001000 .#
b11010001000 w
0N#
b1001 +
b1001 L#
b1001 l#
b11010001000 V
b11010001000 v
b11010001000 j"
b11010001000 q"
b10 !#
b100 {"
b1001 ,
b1001 K#
b1001 V#
b1001 k#
b1001 P#
1]
#60000
0]
#70000
1N#
b10 +
b10 L#
b10 l#
b10010 ,
b10010 K#
b10010 V#
b10010 k#
b10010 P#
b11 !#
b101 y"
1]
#80000
0]
#90000
b1 2
b1 !"
b1 1"
b1 M"
b1 Z"
b1 p"
b1 0#
b1 4#
b1 J#
b1 e#
b1 1#
b1001000 M
b1001000 n
b1001000 .#
b1001000 w
b101 +
b101 L#
b101 l#
b100 !#
b1001000 V
b1001000 v
b1001000 j"
b1001000 q"
b100101 ,
b100101 K#
b100101 V#
b100101 k#
b100101 P#
1]
#100000
0]
#110000
0N#
b1011 +
b1011 L#
b1011 l#
b1001011 ,
b1001011 K#
b1001011 V#
b1001011 k#
b1001011 P#
b1001001000 ~"
b101 !#
1w"
b1 s"
1]
#120000
0]
#130000
b10 2
b10 !"
b10 1"
b10 M"
b10 Z"
b10 p"
b10 0#
b10 4#
b10 J#
b10 e#
b10 1#
b1000 M
b1000 n
b1000 .#
b1000 w
1N#
b110 +
b110 L#
b110 l#
b110 !#
b1000 V
b1000 v
b1000 j"
b1000 q"
b10010110 ,
b10010110 K#
b10010110 V#
b10010110 k#
b10010110 P#
1]
#140000
0]
#150000
b1010 2
b1010 !"
b1010 1"
b1010 M"
b1010 Z"
b1010 p"
b1010 0#
b1010 4#
b1010 J#
b1010 e#
b1010 1#
0N#
b1101 +
b1101 L#
b1101 l#
b1001001000 M
b1001001000 n
b1001001000 .#
b1001001000 w
b100101101 ,
b100101101 K#
b100101101 V#
b100101101 k#
b100101101 P#
b111 !#
b1001001000 V
b1001001000 v
b1001001000 j"
b1001001000 q"
1(
1&$
b10 3
b10 )#
b10 /#
b10 -#
1'
1"#
b10 9
b10 k"
b10 ##
b10 u"
b10 r"
1]
#160000
0]
#170000
b10 2
b10 !"
b10 1"
b10 M"
b10 Z"
b10 p"
b10 0#
b10 4#
b10 J#
b10 e#
b10 1#
0(
0&$
b1010 +
b1010 L#
b1010 l#
b101 !#
0'
0"#
b1001011010 ,
b1001011010 K#
b1001011010 V#
b1001011010 k#
b1001011010 P#
b1 x"
1]
#180000
0]
#190000
b101 2
b101 !"
b101 1"
b101 M"
b101 Z"
b101 p"
b101 0#
b101 4#
b101 J#
b101 e#
b101 1#
1N#
b100 +
b100 L#
b100 l#
b1010 M
b1010 n
b1010 .#
b1010 w
b10010110100 ,
b10010110100 K#
b10010110100 V#
b10010110100 k#
b10010110100 P#
b110 !#
b1010 V
b1010 v
b1010 j"
b1010 q"
1]
#200000
0]
#210000
b10101011 2
b10101011 !"
b10101011 1"
b10101011 M"
b10101011 Z"
b10101011 p"
b10101011 0#
b10101011 4#
b10101011 J#
b10101011 e#
b10101011 1#
b1001001010 M
b1001001010 n
b1001001010 .#
b1001001010 w
0N#
b1001 +
b1001 L#
b1001 l#
b111 !#
b1001001010 V
b1001001010 v
b1001001010 j"
b1001001010 q"
b100101101001 ,
b100101101001 K#
b100101101001 V#
b100101101001 k#
b100101101001 P#
1(
1&$
b101 3
b101 )#
b101 /#
b101 -#
1'
1"#
b101 9
b101 k"
b101 ##
b101 u"
b101 r"
1]
#220000
0]
#230000
b101 2
b101 !"
b101 1"
b101 M"
b101 Z"
b101 p"
b101 0#
b101 4#
b101 J#
b101 e#
b101 1#
b10 +
b10 L#
b10 l#
0(
0&$
b1001011010010 ,
b1001011010010 K#
b1001011010010 V#
b1001011010010 k#
b1001011010010 P#
b101 !#
0'
0"#
b10 x"
1]
#240000
0]
#250000
b1010 2
b1010 !"
b1010 1"
b1010 M"
b1010 Z"
b1010 p"
b1010 0#
b1010 4#
b1010 J#
b1010 e#
b1010 1#
b1100 M
b1100 n
b1100 .#
b1100 w
1N#
b100 +
b100 L#
b100 l#
b110 !#
b1100 V
b1100 v
b1100 j"
b1100 q"
b10010110100100 ,
b10010110100100 K#
b10010110100100 V#
b10010110100100 k#
b10010110100100 P#
1]
#260000
0]
#270000
b11001101 2
b11001101 !"
b11001101 1"
b11001101 M"
b11001101 Z"
b11001101 p"
b11001101 0#
b11001101 4#
b11001101 J#
b11001101 e#
b11001101 1#
b1001 +
b1001 L#
b1001 l#
b1001001100 M
b1001001100 n
b1001001100 .#
b1001001100 w
b100101101001001 ,
b100101101001001 K#
b100101101001001 V#
b100101101001001 k#
b100101101001001 P#
b111 !#
b1001001100 V
b1001001100 v
b1001001100 j"
b1001001100 q"
1(
1&$
b1010 3
b1010 )#
b1010 /#
b1010 -#
1'
1"#
b1010 9
b1010 k"
b1010 ##
b1010 u"
b1010 r"
1]
#280000
0]
#290000
b1010 2
b1010 !"
b1010 1"
b1010 M"
b1010 Z"
b1010 p"
b1010 0#
b1010 4#
b1010 J#
b1010 e#
b1010 1#
0(
0&$
b11 +
b11 L#
b11 l#
b101 !#
0'
0"#
b1001011010010011 ,
b1001011010010011 K#
b1001011010010011 V#
b1001011010010011 k#
b1001011010010011 P#
b11 x"
1]
#300000
0]
#310000
b10101011 2
b10101011 !"
b10101011 1"
b10101011 M"
b10101011 Z"
b10101011 p"
b10101011 0#
b10101011 4#
b10101011 J#
b10101011 e#
b10101011 1#
b111 +
b111 L#
b111 l#
b1110 M
b1110 n
b1110 .#
b1110 w
b10110100100111 ,
b10110100100111 K#
b10110100100111 V#
b10110100100111 k#
b10110100100111 P#
b110 !#
b1110 V
b1110 v
b1110 j"
b1110 q"
1]
#320000
0]
#330000
bx 2
bx !"
bx 1"
bx M"
bx Z"
bx p"
bx 0#
bx 4#
bx J#
bx e#
bx 1#
b1001001110 M
b1001001110 n
b1001001110 .#
b1001001110 w
0N#
b1111 +
b1111 L#
b1111 l#
b111 !#
b1001001110 V
b1001001110 v
b1001001110 j"
b1001001110 q"
b101101001001111 ,
b101101001001111 K#
b101101001001111 V#
b101101001001111 k#
b101101001001111 P#
1(
1&$
b10101011 3
b10101011 )#
b10101011 /#
b10101011 -#
1'
1"#
b10101011 9
b10101011 k"
b10101011 ##
b10101011 u"
b10101011 r"
1]
#340000
0]
#350000
b10101011 2
b10101011 !"
b10101011 1"
b10101011 M"
b10101011 Z"
b10101011 p"
b10101011 0#
b10101011 4#
b10101011 J#
b10101011 e#
b10101011 1#
b1110 +
b1110 L#
b1110 l#
0(
0&$
b1011010010011110 ,
b1011010010011110 K#
b1011010010011110 V#
b1011010010011110 k#
b1011010010011110 P#
b101 !#
0'
0"#
b100 x"
1]
#360000
0]
#370000
b11001101 2
b11001101 !"
b11001101 1"
b11001101 M"
b11001101 Z"
b11001101 p"
b11001101 0#
b11001101 4#
b11001101 J#
b11001101 e#
b11001101 1#
b10000 M
b10000 n
b10000 .#
b10000 w
1N#
b1100 +
b1100 L#
b1100 l#
b110 !#
b10000 V
b10000 v
b10000 j"
b10000 q"
b110100100111100 ,
b110100100111100 K#
b110100100111100 V#
b110100100111100 k#
b110100100111100 P#
1]
#380000
0]
#390000
bx 2
bx !"
bx 1"
bx M"
bx Z"
bx p"
bx 0#
bx 4#
bx J#
bx e#
bx 1#
b1001 +
b1001 L#
b1001 l#
b1001010000 M
b1001010000 n
b1001010000 .#
b1001010000 w
b1101001001111001 ,
b1101001001111001 K#
b1101001001111001 V#
b1101001001111001 k#
b1101001001111001 P#
b111 !#
b1001010000 V
b1001010000 v
b1001010000 j"
b1001010000 q"
1(
1&$
b11001101 3
b11001101 )#
b11001101 /#
b11001101 -#
1'
1"#
b11001101 9
b11001101 k"
b11001101 ##
b11001101 u"
b11001101 r"
1]
#400000
0]
#410000
b11001101 2
b11001101 !"
b11001101 1"
b11001101 M"
b11001101 Z"
b11001101 p"
b11001101 0#
b11001101 4#
b11001101 J#
b11001101 e#
b11001101 1#
0(
0&$
0N#
b11 +
b11 L#
b11 l#
b101 !#
0'
0"#
b1010010011110011 ,
b1010010011110011 K#
b1010010011110011 V#
b1010010011110011 k#
b1010010011110011 P#
b101 x"
1]
#420000
0]
#430000
bx 2
bx !"
bx 1"
bx M"
bx Z"
bx p"
bx 0#
bx 4#
bx J#
bx e#
bx 1#
b110 +
b110 L#
b110 l#
1(
1&$
b11010011000 M
b11010011000 n
b11010011000 .#
b11010011000 w
b101 3
b101 )#
b101 /#
b101 -#
b100100111100110 ,
b100100111100110 K#
b100100111100110 V#
b100100111100110 k#
b100100111100110 P#
b1000 !#
1'
1"#
b11010011000 V
b11010011000 v
b11010011000 j"
b11010011000 q"
b101 9
b101 k"
b101 ##
b101 u"
1]
#440000
0]
#450000
b101001000 M
b101001000 n
b101001000 .#
b101001000 w
b1 3
b1 )#
b1 /#
b1 -#
b1100 +
b1100 L#
b1100 l#
b1001 !#
b101001000 V
b101001000 v
b101001000 j"
b101001000 q"
b1 9
b1 k"
b1 ##
b1 u"
b1001001111001100 ,
b1001001111001100 K#
b1001001111001100 V#
b1001001111001100 k#
b1001001111001100 P#
1]
#460000
0]
#470000
b1000 +
b1000 L#
b1000 l#
0(
0&$
b101000000 2
b101000000 !"
b101000000 1"
b101000000 M"
b101000000 Z"
b101000000 p"
b101000000 0#
b101000000 4#
b101000000 J#
b101000000 e#
b101000000 1#
b10011110011000 ,
b10011110011000 K#
b10011110011000 V#
b10011110011000 k#
b10011110011000 P#
b1010 !#
0'
0"#
b111001000 M
b111001000 n
b111001000 .#
b111001000 w
b111001000 V
b111001000 v
b111001000 j"
b111001000 q"
1]
#480000
0]
#490000
1(
1&$
b101000000 3
b101000000 )#
b101000000 /#
b101000000 -#
b0 +
b0 L#
b0 l#
b1011 !#
1'
1"#
b101000000 9
b101000000 k"
b101000000 ##
b101000000 u"
b100111100110000 ,
b100111100110000 K#
b100111100110000 V#
b100111100110000 k#
b100111100110000 P#
b101000000 t"
1]
#500000
0]
