testbench.vcd
$date
	Mon Mar 05 11:30:46 2018
$end
$version
	Icarus Verilog
$end
$timescale
	1ps
$end
$scope module testbench $end
$var wire 16 ! addr_0 [15:0] $end
$var wire 16 " addr_2 [15:0] $end
$var wire 16 # addr_4 [15:0] $end
$var wire 16 $ addr_5 [15:0] $end
$var wire 16 % addr_6 [15:0] $end
$var wire 16 & addr_7 [15:0] $end
$var wire 16 ' mem_data_in [15:0] $end
$var wire 1 ( wr_en $end
$var wire 16 ) mem_data_out [15:0] $end
$var wire 1 * iamForwarding $end
$var wire 1 + forAggregation2 $end
$var wire 1 , forAggregation1 $end
$var wire 1 - done_neighborSinkInOtherCluster $end
$var wire 1 . done_iamSink $end
$var wire 1 / done_iamForwarding $end
$var wire 16 0 address [15:0] $end
$var wire 16 1 addr_3 [15:0] $end
$var wire 16 2 addr_1 [15:0] $end
$var reg 16 3 MY_CLUSTER_ID [15:0] $end
$var reg 16 4 MY_NODE_ID [15:0] $end
$var reg 3 5 addr_select [2:0] $end
$var reg 1 6 clock $end
$var reg 16 7 destinationID [15:0] $end
$var reg 1 8 done_learnCost $end
$var reg 1 9 nrst $end
$var integer 32 : i [31:0] $end
$scope module addr_mux $end
$var wire 16 ; in0 [15:0] $end
$var wire 16 < in2 [15:0] $end
$var wire 16 = in4 [15:0] $end
$var wire 16 > in5 [15:0] $end
$var wire 16 ? in6 [15:0] $end
$var wire 16 @ in7 [15:0] $end
$var wire 16 A out [15:0] $end
$var wire 3 B select [2:0] $end
$var wire 16 C in3 [15:0] $end
$var wire 16 D in1 [15:0] $end
$var reg 16 E out_buf [15:0] $end
$upscope $end
$scope module aif1 $end
$var wire 16 F MY_NODE_ID [15:0] $end
$var wire 1 6 clock $end
$var wire 16 G destinationID [15:0] $end
$var wire 1 / done $end
$var wire 1 * iamForwarding $end
$var wire 1 9 nrst $end
$var wire 1 . start $end
$var reg 1 H done_buf $end
$var reg 1 I iamForwarding_buf $end
$var reg 2 J state [1:0] $end
$upscope $end
$scope module ais1 $end
$var wire 16 K address [15:0] $end
$var wire 1 6 clock $end
$var wire 16 L data_out [15:0] $end
$var wire 1 . done $end
$var wire 1 , forAggregation $end
$var wire 1 9 nrst $end
$var wire 1 8 start $end
$var wire 1 ( wr_en $end
$var wire 16 M data_in [15:0] $end
$var reg 16 N address_count [15:0] $end
$var reg 16 O amISink [15:0] $end
$var reg 1 P data_out_buf $end
$var reg 1 Q done_buf $end
$var reg 1 R forAggregation_buf $end
$var reg 2 S state [1:0] $end
$var reg 1 T wr_en_buf $end
$upscope $end
$scope module mem1 $end
$var wire 16 U address [15:0] $end
$var wire 1 6 clock $end
$var wire 16 V data_in [15:0] $end
$var wire 16 W data_out [15:0] $end
$var wire 1 ( wr_en $end
$var reg 16 X data_out_buf [15:0] $end
$upscope $end
$scope module nsioc1 $end
$var wire 16 Y MY_CLUSTER_ID [15:0] $end
$var wire 16 Z address [15:0] $end
$var wire 1 6 clock $end
$var wire 16 [ data_in [15:0] $end
$var wire 16 \ data_out [15:0] $end
$var wire 1 - done $end
$var wire 1 + forAggregation $end
$var wire 1 9 nrst $end
$var wire 1 / start $end
$var wire 1 ( wr_en $end
$var reg 16 ] address_count [15:0] $end
$var reg 16 ^ clusterID [15:0] $end
$var reg 16 _ data_out_buf [15:0] $end
$var reg 1 ` done_buf $end
$var reg 1 a forAggregation_buf $end
$var reg 16 b i [15:0] $end
$var reg 16 c j [15:0] $end
$var reg 16 d knownSinkCount [15:0] $end
$var reg 16 e knownSinks [15:0] $end
$var reg 16 f neighborCount [15:0] $end
$var reg 16 g neighborID [15:0] $end
$var reg 3 h state [2:0] $end
$var reg 1 i wr_en_buf $end
$upscope $end
$upscope $end
$enddefinitions $end
#0
$dumpvars
xi
bx h
bx g
bx f
bx e
bx d
bx c
bx b
xa
x`
bx _
bx ^
bx ]
bx \
bx [
bx Z
b1 Y
bx X
bx W
bx V
bx U
xT
bx S
xR
xQ
xP
bx O
bx N
bx M
bx L
bx K
bx J
xI
xH
b11 G
b11 F
bx E
bx D
bx C
bx B
bx A
bz @
bz ?
bz >
bz =
bz <
bz ;
b10110 :
19
18
b11 7
06
bx 5
b11 4
b1 3
bx 2
bx 1
bx 0
x/
x.
x-
x,
x+
x*
bx )
x(
bx '
bz &
bz %
bz $
bz #
bz "
bz !
$end
#5000
09
#10000
b0 )
b0 M
b0 W
b0 [
b0 X
b0 0
b0 A
b0 U
b0 E
b1 5
b1 B
b0 S
b0 2
b0 D
b0 K
b0 N
0(
0T
0.
0Q
0,
0R
b0 J
0/
0H
0*
0I
b0 c
b0 b
b0 h
b11010001000 1
b11010001000 C
b11010001000 Z
b11010001000 ]
0i
0-
0`
0+
0a
16
#20000
06
#30000
b1 S
16
19
#40000
06
#50000
b11 S
b0 O
16
#60000
06
#70000
b1 J
1.
1Q
16
#80000
06
#90000
b10 J
1*
1I
16
#100000
06
#110000
b101 )
b101 M
b101 W
b101 [
b101 X
b11010001000 0
b11010001000 A
b11010001000 U
b11010001000 E
b11 5
b11 B
b1 h
1/
1H
16
#120000
06
#130000
b100 )
b100 M
b100 W
b100 [
b100 X
b11010001010 0
b11010001010 A
b11010001010 U
b11010001010 E
b11010001010 1
b11010001010 C
b11010001010 Z
b11010001010 ]
b10 h
b101 d
16
#140000
06
#150000
b11 )
b11 M
b11 W
b11 [
b11 X
b1001000 0
b1001000 A
b1001000 U
b1001000 E
b1001000 1
b1001000 C
b1001000 Z
b1001000 ]
b11 h
b100 f
16
#160000
06
#170000
b1 )
b1 M
b1 W
b1 [
b1 X
b11001000 0
b11001000 A
b11001000 U
b11001000 E
b11001000 1
b11001000 C
b11001000 Z
b11001000 ]
b100 h
b11 g
16
#180000
06
#190000
b10 )
b10 M
b10 W
b10 [
b10 X
b1000 0
b1000 A
b1000 U
b1000 E
b1000 1
b1000 C
b1000 Z
b1000 ]
b101 h
b1 ^
16
#200000
06
#210000
b101 )
b101 M
b101 W
b101 [
b101 X
b1010 0
b1010 A
b1010 U
b1010 E
b1010 1
b1010 C
b1010 Z
b1010 ]
b1 c
b10 e
16
#220000
06
#230000
b1010 )
b1010 M
b1010 W
b1010 [
b1010 X
b1100 0
b1100 A
b1100 U
b1100 E
b1100 1
b1100 C
b1100 Z
b1100 ]
b10 c
b101 e
16
#240000
06
#250000
b10101011 )
b10101011 M
b10101011 W
b10101011 [
b10101011 X
b1110 0
b1110 A
b1110 U
b1110 E
b1110 1
b1110 C
b1110 Z
b1110 ]
b11 c
b1010 e
16
#260000
06
#270000
b11001101 )
b11001101 M
b11001101 W
b11001101 [
b11001101 X
b10000 0
b10000 A
b10000 U
b10000 E
b10000 1
b10000 C
b10000 Z
b10000 ]
b100 c
b10101011 e
16
#280000
06
#290000
b1 )
b1 M
b1 W
b1 [
b1 X
b1001010 0
b1001010 A
b1001010 U
b1001010 E
b11 h
b1 b
b1001010 1
b1001010 C
b1001010 Z
b1001010 ]
b0 c
b11001101 e
16
#300000
06
#310000
b11001010 0
b11001010 A
b11001010 U
b11001010 E
b11001010 1
b11001010 C
b11001010 Z
b11001010 ]
b100 h
b1 g
16
#320000
06
#330000
b10 )
b10 M
b10 W
b10 [
b10 X
b1000 0
b1000 A
b1000 U
b1000 E
b1000 1
b1000 C
b1000 Z
b1000 ]
b101 h
16
#340000
06
#350000
b101 )
b101 M
b101 W
b101 [
b101 X
b1010 0
b1010 A
b1010 U
b1010 E
b1010 1
b1010 C
b1010 Z
b1010 ]
b1 c
b10 e
16
#360000
06
#370000
b1010 )
b1010 M
b1010 W
b1010 [
b1010 X
b1100 0
b1100 A
b1100 U
b1100 E
b1100 1
b1100 C
b1100 Z
b1100 ]
b10 c
b101 e
16
#380000
06
#390000
b10101011 )
b10101011 M
b10101011 W
b10101011 [
b10101011 X
b1110 0
b1110 A
b1110 U
b1110 E
b1110 1
b1110 C
b1110 Z
b1110 ]
b11 c
b1010 e
16
#400000
06
#410000
b11001101 )
b11001101 M
b11001101 W
b11001101 [
b11001101 X
b10000 0
b10000 A
b10000 U
b10000 E
b10000 1
b10000 C
b10000 Z
b10000 ]
b100 c
b10101011 e
16
#420000
06
#430000
b1010 )
b1010 M
b1010 W
b1010 [
b1010 X
b1001100 0
b1001100 A
b1001100 U
b1001100 E
b11 h
b10 b
b1001100 1
b1001100 C
b1001100 Z
b1001100 ]
b0 c
b11001101 e
16
#440000
06
#450000
b10 )
b10 M
b10 W
b10 [
b10 X
b11001100 0
b11001100 A
b11001100 U
b11001100 E
b11001100 1
b11001100 C
b11001100 Z
b11001100 ]
b100 h
b1010 g
16
#460000
06
#470000
b1000 0
b1000 A
b1000 U
b1000 E
b1000 1
b1000 C
b1000 Z
b1000 ]
b101 h
b10 ^
16
#480000
06
#490000
b101 )
b101 M
b101 W
b101 [
b101 X
b1010 0
b1010 A
b1010 U
b1010 E
b1010 1
b1010 C
b1010 Z
b1010 ]
b1 c
b10 e
16
#500000
06
#510000
b1010 )
b1010 M
b1010 W
b1010 [
b1010 X
b1100 0
b1100 A
b1100 U
b1100 E
b1100 1
b1100 C
b1100 Z
b1100 ]
b10 c
b101 e
16
#520000
06
#530000
b0 )
b0 M
b0 W
b0 [
b0 X
b10 0
b10 A
b10 U
b10 E
x(
1i
b0x '
b0x L
b0x V
b0x \
b1 _
b110 h
b10 1
b10 C
b10 Z
b10 ]
b11 c
1+
1a
b1010 e
16
#540000
06
#550000
b111 h
0(
0i
16
#560000
06
#570000
1-
1`
16
