testbench.vcd
$date
	Tue Feb 27 13:06:17 2018
$end
$version
	Icarus Verilog
$end
$timescale
	1ps
$end
$scope module testbench $end
$var wire 16 ! addr_0 [15:0] $end
$var wire 16 " addr_2 [15:0] $end
$var wire 16 # addr_4 [15:0] $end
$var wire 16 $ addr_5 [15:0] $end
$var wire 16 % addr_6 [15:0] $end
$var wire 16 & addr_7 [15:0] $end
$var wire 1 ' forAggregation $end
$var wire 16 ( mem_data_out [15:0] $end
$var wire 1 ) iamForwarding $end
$var wire 1 * done_neighborSinkInOtherCluster $end
$var wire 1 + done_iamSink $end
$var wire 1 , done_iamForwarding $end
$var wire 16 - address [15:0] $end
$var wire 16 . addr_3 [15:0] $end
$var wire 16 / addr_1 [15:0] $end
$var reg 16 0 MY_CLUSTER_ID [15:0] $end
$var reg 16 1 MY_NODE_ID [15:0] $end
$var reg 3 2 addr_select [2:0] $end
$var reg 1 3 clock $end
$var reg 16 4 destinationID [15:0] $end
$var reg 1 5 done_learnCost $end
$var reg 16 6 mem_data_in [15:0] $end
$var reg 1 7 reset $end
$var reg 1 8 wr_en $end
$var integer 32 9 i [31:0] $end
$scope module addr_mux $end
$var wire 16 : in0 [15:0] $end
$var wire 16 ; in2 [15:0] $end
$var wire 16 < in4 [15:0] $end
$var wire 16 = in5 [15:0] $end
$var wire 16 > in6 [15:0] $end
$var wire 16 ? in7 [15:0] $end
$var wire 16 @ out [15:0] $end
$var wire 3 A select [2:0] $end
$var wire 16 B in3 [15:0] $end
$var wire 16 C in1 [15:0] $end
$var reg 16 D out_buf [15:0] $end
$upscope $end
$scope module aif1 $end
$var wire 16 E MY_NODE_ID [15:0] $end
$var wire 1 3 clock $end
$var wire 16 F destinationID [15:0] $end
$var wire 1 , done $end
$var wire 1 ) iamForwarding $end
$var wire 1 7 reset $end
$var wire 1 + start $end
$var reg 1 G done_buf $end
$var reg 1 H iamForwarding_buf $end
$upscope $end
$scope module ais1 $end
$var wire 16 I MY_NODE_ID [15:0] $end
$var wire 16 J address [15:0] $end
$var wire 1 3 clock $end
$var wire 1 + done $end
$var wire 1 ' forAggregation $end
$var wire 1 7 reset $end
$var wire 1 5 start $end
$var wire 16 K data_in [15:0] $end
$var reg 16 L address_count [15:0] $end
$var reg 1 M done_buf $end
$var reg 1 N forAggregation_buf $end
$upscope $end
$scope module mem1 $end
$var wire 16 O address [15:0] $end
$var wire 1 3 clock $end
$var wire 16 P data_in [15:0] $end
$var wire 16 Q data_out [15:0] $end
$var wire 1 8 wr_en $end
$var reg 16 R data_out_buf [15:0] $end
$upscope $end
$scope module nsioc1 $end
$var wire 16 S MY_CLUSTER_ID [15:0] $end
$var wire 16 T address [15:0] $end
$var wire 1 3 clock $end
$var wire 16 U data_in [15:0] $end
$var wire 1 * done $end
$var wire 1 ' forAggregation $end
$var wire 1 7 reset $end
$var wire 1 , start $end
$var reg 16 V address_count [15:0] $end
$var reg 16 W clusterID [15:0] $end
$var reg 1 X done_buf $end
$var reg 1 Y forAggregation_buf $end
$var reg 16 Z i [15:0] $end
$var reg 16 [ j [15:0] $end
$var reg 16 \ knownSinks [15:0] $end
$var reg 16 ] neighborID [15:0] $end
$var reg 2 ^ state [1:0] $end
$upscope $end
$upscope $end
$enddefinitions $end
#0
$dumpvars
b0 ^
bx ]
bx \
b0 [
b0 Z
0Y
0X
bx W
b1001000 V
b10 U
b1001000 T
b1 S
b10 R
b10 Q
bx P
b1000 O
0N
0M
b1000 L
b10 K
b1000 J
b11 I
0H
0G
b11 F
b11 E
b1000 D
b1000 C
b1001000 B
b1 A
b1000 @
bz ?
bz >
bz =
bz <
bz ;
bz :
b10110 9
x8
x7
bx 6
15
b11 4
03
b1 2
b11 1
b1 0
b1000 /
b1001000 .
b1000 -
0,
0+
0*
0)
b10 (
0'
bz &
bz %
bz $
bz #
bz "
bz !
$end
#10000
b101 (
b101 K
b101 Q
b101 U
b101 R
b1010 -
b1010 @
b1010 O
b1010 D
b1010 /
b1010 C
b1010 J
b1010 L
13
#20000
03
#30000
b1010 (
b1010 K
b1010 Q
b1010 U
b1010 R
b1100 -
b1100 @
b1100 O
b1100 D
b1100 /
b1100 C
b1100 J
b1100 L
13
#40000
03
#50000
b10101011 (
b10101011 K
b10101011 Q
b10101011 U
b10101011 R
b1110 -
b1110 @
b1110 O
b1110 D
b1110 /
b1110 C
b1110 J
b1110 L
13
#60000
03
#70000
b11001101 (
b11001101 K
b11001101 Q
b11001101 U
b11001101 R
b10000 -
b10000 @
b10000 O
b10000 D
b10000 /
b10000 C
b10000 J
b10000 L
13
#80000
03
#90000
b11101111 (
b11101111 K
b11101111 Q
b11101111 U
b11101111 R
b10010 -
b10010 @
b10010 O
b10010 D
b10010 /
b10010 C
b10010 J
b10010 L
13
#100000
03
#110000
b10011 (
b10011 K
b10011 Q
b10011 U
b10011 R
b10100 -
b10100 @
b10100 O
b10100 D
b10100 /
b10100 C
b10100 J
b10100 L
13
#120000
03
#130000
b1111000 (
b1111000 K
b1111000 Q
b1111000 U
b1111000 R
b10110 -
b10110 @
b10110 O
b10110 D
b10110 /
b10110 C
b10110 J
b10110 L
13
#140000
03
#150000
b1000010 (
b1000010 K
b1000010 Q
b1000010 U
b1000010 R
b11000 -
b11000 @
b11000 O
b11000 D
b11000 /
b11000 C
b11000 J
b11000 L
13
#160000
03
#170000
b100011100 (
b100011100 K
b100011100 Q
b100011100 U
b100011100 R
b11010 -
b11010 @
b11010 O
b11010 D
b11010 /
b11010 C
b11010 J
b11010 L
13
#180000
03
#190000
b100010001 (
b100010001 K
b100010001 Q
b100010001 U
b100010001 R
b11100 -
b11100 @
b11100 O
b11100 D
b11100 /
b11100 C
b11100 J
b11100 L
13
#200000
03
#210000
b100111 (
b100111 K
b100111 Q
b100111 U
b100111 R
b11110 -
b11110 @
b11110 O
b11110 D
b11110 /
b11110 C
b11110 J
b11110 L
13
#220000
03
#230000
b110110 (
b110110 K
b110110 Q
b110110 U
b110110 R
b100000 -
b100000 @
b100000 O
b100000 D
b100000 /
b100000 C
b100000 J
b100000 L
13
#240000
03
#250000
b100101 (
b100101 K
b100101 Q
b100101 U
b100101 R
b100010 -
b100010 @
b100010 O
b100010 D
b100010 /
b100010 C
b100010 J
b100010 L
13
#260000
03
#270000
b111111 (
b111111 K
b111111 Q
b111111 U
b111111 R
b100100 -
b100100 @
b100100 O
b100100 D
b100100 /
b100100 C
b100100 J
b100100 L
13
#280000
03
#290000
b10101100 (
b10101100 K
b10101100 Q
b10101100 U
b10101100 R
b100110 -
b100110 @
b100110 O
b100110 D
b100110 /
b100110 C
b100110 J
b100110 L
13
#300000
03
#310000
bx (
bx K
bx Q
bx U
bx R
b1001000 -
b1001000 @
b1001000 O
b1001000 D
b11 2
b11 A
1,
1G
1)
1H
1+
1M
13
#320000
03
#330000
b11001000 -
b11001000 @
b11001000 O
b11001000 D
b11001000 .
b11001000 B
b11001000 T
b11001000 V
b1 ^
13
#340000
03
#350000
b10 (
b10 K
b10 Q
b10 U
b10 R
b1000 -
b1000 @
b1000 O
b1000 D
b1000 .
b1000 B
b1000 T
b1000 V
b10 ^
13
#360000
03
#370000
b101 (
b101 K
b101 Q
b101 U
b101 R
b1010 -
b1010 @
b1010 O
b1010 D
b1010 .
b1010 B
b1010 T
b1010 V
b1 [
b10 \
13
#380000
03
#390000
b1010 (
b1010 K
b1010 Q
b1010 U
b1010 R
b1100 -
b1100 @
b1100 O
b1100 D
b1100 .
b1100 B
b1100 T
b1100 V
b10 [
b101 \
13
#400000
03
#410000
b10101011 (
b10101011 K
b10101011 Q
b10101011 U
b10101011 R
b1110 -
b1110 @
b1110 O
b1110 D
b1110 .
b1110 B
b1110 T
b1110 V
b11 [
b1010 \
13
#420000
03
#430000
b11001101 (
b11001101 K
b11001101 Q
b11001101 U
b11001101 R
b10000 -
b10000 @
b10000 O
b10000 D
b10000 .
b10000 B
b10000 T
b10000 V
b100 [
b10101011 \
13
#440000
03
#450000
b11101111 (
b11101111 K
b11101111 Q
b11101111 U
b11101111 R
b10010 -
b10010 @
b10010 O
b10010 D
b10010 .
b10010 B
b10010 T
b10010 V
b101 [
b11001101 \
13
#460000
03
#470000
b10011 (
b10011 K
b10011 Q
b10011 U
b10011 R
b10100 -
b10100 @
b10100 O
b10100 D
b10100 .
b10100 B
b10100 T
b10100 V
b110 [
b11101111 \
13
#480000
03
#490000
b1111000 (
b1111000 K
b1111000 Q
b1111000 U
b1111000 R
b10110 -
b10110 @
b10110 O
b10110 D
b10110 .
b10110 B
b10110 T
b10110 V
b111 [
b10011 \
13
#500000
03
#510000
b1000010 (
b1000010 K
b1000010 Q
b1000010 U
b1000010 R
b11000 -
b11000 @
b11000 O
b11000 D
b11000 .
b11000 B
b11000 T
b11000 V
b1000 [
b1111000 \
13
#520000
03
#530000
b100011100 (
b100011100 K
b100011100 Q
b100011100 U
b100011100 R
b11010 -
b11010 @
b11010 O
b11010 D
b11010 .
b11010 B
b11010 T
b11010 V
b1001 [
b1000010 \
13
#540000
03
#550000
b100010001 (
b100010001 K
b100010001 Q
b100010001 U
b100010001 R
b11100 -
b11100 @
b11100 O
b11100 D
b11100 .
b11100 B
b11100 T
b11100 V
b1010 [
b100011100 \
13
#560000
03
#570000
b100111 (
b100111 K
b100111 Q
b100111 U
b100111 R
b11110 -
b11110 @
b11110 O
b11110 D
b11110 .
b11110 B
b11110 T
b11110 V
b1011 [
b100010001 \
13
#580000
03
#590000
b110110 (
b110110 K
b110110 Q
b110110 U
b110110 R
b100000 -
b100000 @
b100000 O
b100000 D
b100000 .
b100000 B
b100000 T
b100000 V
b1100 [
b100111 \
13
#600000
03
#610000
b100101 (
b100101 K
b100101 Q
b100101 U
b100101 R
b100010 -
b100010 @
b100010 O
b100010 D
b100010 .
b100010 B
b100010 T
b100010 V
b1101 [
b110110 \
13
#620000
03
#630000
b111111 (
b111111 K
b111111 Q
b111111 U
b111111 R
b100100 -
b100100 @
b100100 O
b100100 D
b100100 .
b100100 B
b100100 T
b100100 V
b1110 [
b100101 \
13
#640000
03
#650000
b10101100 (
b10101100 K
b10101100 Q
b10101100 U
b10101100 R
b100110 -
b100110 @
b100110 O
b100110 D
b100110 .
b100110 B
b100110 T
b100110 V
b1111 [
b111111 \
13
#660000
03
#670000
bx (
bx K
bx Q
bx U
bx R
b1001010 -
b1001010 @
b1001010 O
b1001010 D
b0 ^
b1 Z
b1001010 .
b1001010 B
b1001010 T
b1001010 V
b0 [
b10101100 \
13
#680000
03
#690000
b11001010 -
b11001010 @
b11001010 O
b11001010 D
b11001010 .
b11001010 B
b11001010 T
b11001010 V
b1 ^
13
#700000
03
#710000
b10 (
b10 K
b10 Q
b10 U
b10 R
b1000 -
b1000 @
b1000 O
b1000 D
b1000 .
b1000 B
b1000 T
b1000 V
b10 ^
13
#720000
03
#730000
b101 (
b101 K
b101 Q
b101 U
b101 R
b1010 -
b1010 @
b1010 O
b1010 D
b1010 .
b1010 B
b1010 T
b1010 V
b1 [
b10 \
13
#740000
03
#750000
b1010 (
b1010 K
b1010 Q
b1010 U
b1010 R
b1100 -
b1100 @
b1100 O
b1100 D
b1100 .
b1100 B
b1100 T
b1100 V
b10 [
b101 \
13
#760000
03
#770000
b10101011 (
b10101011 K
b10101011 Q
b10101011 U
b10101011 R
b1110 -
b1110 @
b1110 O
b1110 D
b1110 .
b1110 B
b1110 T
b1110 V
b11 [
b1010 \
13
#780000
03
#790000
b11001101 (
b11001101 K
b11001101 Q
b11001101 U
b11001101 R
b10000 -
b10000 @
b10000 O
b10000 D
b10000 .
b10000 B
b10000 T
b10000 V
b100 [
b10101011 \
13
#800000
03
#810000
b11101111 (
b11101111 K
b11101111 Q
b11101111 U
b11101111 R
b10010 -
b10010 @
b10010 O
b10010 D
b10010 .
b10010 B
b10010 T
b10010 V
b101 [
b11001101 \
13
#820000
03
#830000
b10011 (
b10011 K
b10011 Q
b10011 U
b10011 R
b10100 -
b10100 @
b10100 O
b10100 D
b10100 .
b10100 B
b10100 T
b10100 V
b110 [
b11101111 \
13
#840000
03
#850000
b1111000 (
b1111000 K
b1111000 Q
b1111000 U
b1111000 R
b10110 -
b10110 @
b10110 O
b10110 D
b10110 .
b10110 B
b10110 T
b10110 V
b111 [
b10011 \
13
#860000
03
#870000
b1000010 (
b1000010 K
b1000010 Q
b1000010 U
b1000010 R
b11000 -
b11000 @
b11000 O
b11000 D
b11000 .
b11000 B
b11000 T
b11000 V
b1000 [
b1111000 \
13
#880000
03
#890000
b100011100 (
b100011100 K
b100011100 Q
b100011100 U
b100011100 R
b11010 -
b11010 @
b11010 O
b11010 D
b11010 .
b11010 B
b11010 T
b11010 V
b1001 [
b1000010 \
13
#900000
03
#910000
b100010001 (
b100010001 K
b100010001 Q
b100010001 U
b100010001 R
b11100 -
b11100 @
b11100 O
b11100 D
b11100 .
b11100 B
b11100 T
b11100 V
b1010 [
b100011100 \
13
#920000
03
#930000
b100111 (
b100111 K
b100111 Q
b100111 U
b100111 R
b11110 -
b11110 @
b11110 O
b11110 D
b11110 .
b11110 B
b11110 T
b11110 V
b1011 [
b100010001 \
13
#940000
03
#950000
b110110 (
b110110 K
b110110 Q
b110110 U
b110110 R
b100000 -
b100000 @
b100000 O
b100000 D
b100000 .
b100000 B
b100000 T
b100000 V
b1100 [
b100111 \
13
#960000
03
#970000
b100101 (
b100101 K
b100101 Q
b100101 U
b100101 R
b100010 -
b100010 @
b100010 O
b100010 D
b100010 .
b100010 B
b100010 T
b100010 V
b1101 [
b110110 \
13
#980000
03
#990000
b111111 (
b111111 K
b111111 Q
b111111 U
b111111 R
b100100 -
b100100 @
b100100 O
b100100 D
b100100 .
b100100 B
b100100 T
b100100 V
b1110 [
b100101 \
13
#1000000
03
#1010000
b10101100 (
b10101100 K
b10101100 Q
b10101100 U
b10101100 R
b100110 -
b100110 @
b100110 O
b100110 D
b100110 .
b100110 B
b100110 T
b100110 V
b1111 [
b111111 \
13
#1020000
03
#1030000
bx (
bx K
bx Q
bx U
bx R
b1001100 -
b1001100 @
b1001100 O
b1001100 D
b0 ^
b10 Z
b1001100 .
b1001100 B
b1001100 T
b1001100 V
b0 [
b10101100 \
13
#1040000
03
#1050000
b11001100 -
b11001100 @
b11001100 O
b11001100 D
b11001100 .
b11001100 B
b11001100 T
b11001100 V
b1 ^
13
#1060000
03
#1070000
b10 (
b10 K
b10 Q
b10 U
b10 R
b1000 -
b1000 @
b1000 O
b1000 D
b1000 .
b1000 B
b1000 T
b1000 V
b10 ^
13
#1080000
03
#1090000
b101 (
b101 K
b101 Q
b101 U
b101 R
b1010 -
b1010 @
b1010 O
b1010 D
b1010 .
b1010 B
b1010 T
b1010 V
b1 [
b10 \
13
#1100000
03
#1110000
b1010 (
b1010 K
b1010 Q
b1010 U
b1010 R
b1100 -
b1100 @
b1100 O
b1100 D
b1100 .
b1100 B
b1100 T
b1100 V
b10 [
b101 \
13
#1120000
03
#1130000
b10101011 (
b10101011 K
b10101011 Q
b10101011 U
b10101011 R
b1110 -
b1110 @
b1110 O
b1110 D
b1110 .
b1110 B
b1110 T
b1110 V
b11 [
b1010 \
13
#1140000
03
#1150000
b11001101 (
b11001101 K
b11001101 Q
b11001101 U
b11001101 R
b10000 -
b10000 @
b10000 O
b10000 D
b10000 .
b10000 B
b10000 T
b10000 V
b100 [
b10101011 \
13
#1160000
03
#1170000
b11101111 (
b11101111 K
b11101111 Q
b11101111 U
b11101111 R
b10010 -
b10010 @
b10010 O
b10010 D
b10010 .
b10010 B
b10010 T
b10010 V
b101 [
b11001101 \
13
#1180000
03
#1190000
b10011 (
b10011 K
b10011 Q
b10011 U
b10011 R
b10100 -
b10100 @
b10100 O
b10100 D
b10100 .
b10100 B
b10100 T
b10100 V
b110 [
b11101111 \
13
#1200000
03
#1210000
b1111000 (
b1111000 K
b1111000 Q
b1111000 U
b1111000 R
b10110 -
b10110 @
b10110 O
b10110 D
b10110 .
b10110 B
b10110 T
b10110 V
b111 [
b10011 \
13
#1220000
03
#1230000
b1000010 (
b1000010 K
b1000010 Q
b1000010 U
b1000010 R
b11000 -
b11000 @
b11000 O
b11000 D
b11000 .
b11000 B
b11000 T
b11000 V
b1000 [
b1111000 \
13
#1240000
03
#1250000
b100011100 (
b100011100 K
b100011100 Q
b100011100 U
b100011100 R
b11010 -
b11010 @
b11010 O
b11010 D
b11010 .
b11010 B
b11010 T
b11010 V
b1001 [
b1000010 \
13
#1260000
03
#1270000
b100010001 (
b100010001 K
b100010001 Q
b100010001 U
b100010001 R
b11100 -
b11100 @
b11100 O
b11100 D
b11100 .
b11100 B
b11100 T
b11100 V
b1010 [
b100011100 \
13
#1280000
03
#1290000
b100111 (
b100111 K
b100111 Q
b100111 U
b100111 R
b11110 -
b11110 @
b11110 O
b11110 D
b11110 .
b11110 B
b11110 T
b11110 V
b1011 [
b100010001 \
13
#1300000
03
#1310000
b110110 (
b110110 K
b110110 Q
b110110 U
b110110 R
b100000 -
b100000 @
b100000 O
b100000 D
b100000 .
b100000 B
b100000 T
b100000 V
b1100 [
b100111 \
13
#1320000
03
#1330000
b100101 (
b100101 K
b100101 Q
b100101 U
b100101 R
b100010 -
b100010 @
b100010 O
b100010 D
b100010 .
b100010 B
b100010 T
b100010 V
b1101 [
b110110 \
13
#1340000
03
#1350000
b111111 (
b111111 K
b111111 Q
b111111 U
b111111 R
b100100 -
b100100 @
b100100 O
b100100 D
b100100 .
b100100 B
b100100 T
b100100 V
b1110 [
b100101 \
13
#1360000
03
#1370000
b10101100 (
b10101100 K
b10101100 Q
b10101100 U
b10101100 R
b100110 -
b100110 @
b100110 O
b100110 D
b100110 .
b100110 B
b100110 T
b100110 V
b1111 [
b111111 \
13
#1380000
03
#1390000
bx (
bx K
bx Q
bx U
bx R
b1001110 -
b1001110 @
b1001110 O
b1001110 D
b0 ^
b11 Z
b1001110 .
b1001110 B
b1001110 T
b1001110 V
b0 [
b10101100 \
13
#1400000
03
#1410000
b11001110 -
b11001110 @
b11001110 O
b11001110 D
b11001110 .
b11001110 B
b11001110 T
b11001110 V
b1 ^
13
#1420000
03
#1430000
b10 (
b10 K
b10 Q
b10 U
b10 R
b1000 -
b1000 @
b1000 O
b1000 D
b1000 .
b1000 B
b1000 T
b1000 V
b10 ^
13
#1440000
03
#1450000
b101 (
b101 K
b101 Q
b101 U
b101 R
b1010 -
b1010 @
b1010 O
b1010 D
b1010 .
b1010 B
b1010 T
b1010 V
b1 [
b10 \
13
#1460000
03
#1470000
b1010 (
b1010 K
b1010 Q
b1010 U
b1010 R
b1100 -
b1100 @
b1100 O
b1100 D
b1100 .
b1100 B
b1100 T
b1100 V
b10 [
b101 \
13
#1480000
03
#1490000
b10101011 (
b10101011 K
b10101011 Q
b10101011 U
b10101011 R
b1110 -
b1110 @
b1110 O
b1110 D
b1110 .
b1110 B
b1110 T
b1110 V
b11 [
b1010 \
13
#1500000
03
#1510000
b11001101 (
b11001101 K
b11001101 Q
b11001101 U
b11001101 R
b10000 -
b10000 @
b10000 O
b10000 D
b10000 .
b10000 B
b10000 T
b10000 V
b100 [
b10101011 \
13
#1520000
03
#1530000
b11101111 (
b11101111 K
b11101111 Q
b11101111 U
b11101111 R
b10010 -
b10010 @
b10010 O
b10010 D
b10010 .
b10010 B
b10010 T
b10010 V
b101 [
b11001101 \
13
#1540000
03
#1550000
b10011 (
b10011 K
b10011 Q
b10011 U
b10011 R
b10100 -
b10100 @
b10100 O
b10100 D
b10100 .
b10100 B
b10100 T
b10100 V
b110 [
b11101111 \
13
#1560000
03
#1570000
b1111000 (
b1111000 K
b1111000 Q
b1111000 U
b1111000 R
b10110 -
b10110 @
b10110 O
b10110 D
b10110 .
b10110 B
b10110 T
b10110 V
b111 [
b10011 \
13
#1580000
03
#1590000
b1000010 (
b1000010 K
b1000010 Q
b1000010 U
b1000010 R
b11000 -
b11000 @
b11000 O
b11000 D
b11000 .
b11000 B
b11000 T
b11000 V
b1000 [
b1111000 \
13
#1600000
03
#1610000
b100011100 (
b100011100 K
b100011100 Q
b100011100 U
b100011100 R
b11010 -
b11010 @
b11010 O
b11010 D
b11010 .
b11010 B
b11010 T
b11010 V
b1001 [
b1000010 \
13
#1620000
03
#1630000
b100010001 (
b100010001 K
b100010001 Q
b100010001 U
b100010001 R
b11100 -
b11100 @
b11100 O
b11100 D
b11100 .
b11100 B
b11100 T
b11100 V
b1010 [
b100011100 \
13
#1640000
03
#1650000
b100111 (
b100111 K
b100111 Q
b100111 U
b100111 R
b11110 -
b11110 @
b11110 O
b11110 D
b11110 .
b11110 B
b11110 T
b11110 V
b1011 [
b100010001 \
13
#1660000
03
#1670000
b110110 (
b110110 K
b110110 Q
b110110 U
b110110 R
b100000 -
b100000 @
b100000 O
b100000 D
b100000 .
b100000 B
b100000 T
b100000 V
b1100 [
b100111 \
13
#1680000
03
#1690000
b100101 (
b100101 K
b100101 Q
b100101 U
b100101 R
b100010 -
b100010 @
b100010 O
b100010 D
b100010 .
b100010 B
b100010 T
b100010 V
b1101 [
b110110 \
13
#1700000
03
#1710000
b111111 (
b111111 K
b111111 Q
b111111 U
b111111 R
b100100 -
b100100 @
b100100 O
b100100 D
b100100 .
b100100 B
b100100 T
b100100 V
b1110 [
b100101 \
13
#1720000
03
#1730000
b10101100 (
b10101100 K
b10101100 Q
b10101100 U
b10101100 R
b100110 -
b100110 @
b100110 O
b100110 D
b100110 .
b100110 B
b100110 T
b100110 V
b1111 [
b111111 \
13
#1740000
03
#1750000
bx (
bx K
bx Q
bx U
bx R
b1010000 -
b1010000 @
b1010000 O
b1010000 D
b0 ^
b100 Z
b1010000 .
b1010000 B
b1010000 T
b1010000 V
b0 [
b10101100 \
13
#1760000
03
#1770000
b11010000 -
b11010000 @
b11010000 O
b11010000 D
b11010000 .
b11010000 B
b11010000 T
b11010000 V
b1 ^
13
#1780000
03
#1790000
b10 (
b10 K
b10 Q
b10 U
b10 R
b1000 -
b1000 @
b1000 O
b1000 D
b1000 .
b1000 B
b1000 T
b1000 V
b10 ^
13
#1800000
03
#1810000
b101 (
b101 K
b101 Q
b101 U
b101 R
b1010 -
b1010 @
b1010 O
b1010 D
b1010 .
b1010 B
b1010 T
b1010 V
b1 [
b10 \
13
#1820000
03
#1830000
b1010 (
b1010 K
b1010 Q
b1010 U
b1010 R
b1100 -
b1100 @
b1100 O
b1100 D
b1100 .
b1100 B
b1100 T
b1100 V
b10 [
b101 \
13
#1840000
03
#1850000
b10101011 (
b10101011 K
b10101011 Q
b10101011 U
b10101011 R
b1110 -
b1110 @
b1110 O
b1110 D
b1110 .
b1110 B
b1110 T
b1110 V
b11 [
b1010 \
13
#1860000
03
#1870000
b11001101 (
b11001101 K
b11001101 Q
b11001101 U
b11001101 R
b10000 -
b10000 @
b10000 O
b10000 D
b10000 .
b10000 B
b10000 T
b10000 V
b100 [
b10101011 \
13
#1880000
03
#1890000
b11101111 (
b11101111 K
b11101111 Q
b11101111 U
b11101111 R
b10010 -
b10010 @
b10010 O
b10010 D
b10010 .
b10010 B
b10010 T
b10010 V
b101 [
b11001101 \
13
#1900000
03
#1910000
b10011 (
b10011 K
b10011 Q
b10011 U
b10011 R
b10100 -
b10100 @
b10100 O
b10100 D
b10100 .
b10100 B
b10100 T
b10100 V
b110 [
b11101111 \
13
#1920000
03
#1930000
b1111000 (
b1111000 K
b1111000 Q
b1111000 U
b1111000 R
b10110 -
b10110 @
b10110 O
b10110 D
b10110 .
b10110 B
b10110 T
b10110 V
b111 [
b10011 \
13
#1940000
03
#1950000
b1000010 (
b1000010 K
b1000010 Q
b1000010 U
b1000010 R
b11000 -
b11000 @
b11000 O
b11000 D
b11000 .
b11000 B
b11000 T
b11000 V
b1000 [
b1111000 \
13
#1960000
03
#1970000
b100011100 (
b100011100 K
b100011100 Q
b100011100 U
b100011100 R
b11010 -
b11010 @
b11010 O
b11010 D
b11010 .
b11010 B
b11010 T
b11010 V
b1001 [
b1000010 \
13
#1980000
03
#1990000
b100010001 (
b100010001 K
b100010001 Q
b100010001 U
b100010001 R
b11100 -
b11100 @
b11100 O
b11100 D
b11100 .
b11100 B
b11100 T
b11100 V
b1010 [
b100011100 \
13
#2000000
03
#2010000
b100111 (
b100111 K
b100111 Q
b100111 U
b100111 R
b11110 -
b11110 @
b11110 O
b11110 D
b11110 .
b11110 B
b11110 T
b11110 V
b1011 [
b100010001 \
13
#2020000
03
#2030000
b110110 (
b110110 K
b110110 Q
b110110 U
b110110 R
b100000 -
b100000 @
b100000 O
b100000 D
b100000 .
b100000 B
b100000 T
b100000 V
b1100 [
b100111 \
13
#2040000
03
#2050000
b100101 (
b100101 K
b100101 Q
b100101 U
b100101 R
b100010 -
b100010 @
b100010 O
b100010 D
b100010 .
b100010 B
b100010 T
b100010 V
b1101 [
b110110 \
13
#2060000
03
#2070000
b111111 (
b111111 K
b111111 Q
b111111 U
b111111 R
b100100 -
b100100 @
b100100 O
b100100 D
b100100 .
b100100 B
b100100 T
b100100 V
b1110 [
b100101 \
13
#2080000
03
#2090000
b10101100 (
b10101100 K
b10101100 Q
b10101100 U
b10101100 R
b100110 -
b100110 @
b100110 O
b100110 D
b100110 .
b100110 B
b100110 T
b100110 V
b1111 [
b111111 \
13
#2100000
03
#2110000
bx (
bx K
bx Q
bx U
bx R
b1010010 -
b1010010 @
b1010010 O
b1010010 D
b0 ^
b101 Z
b1010010 .
b1010010 B
b1010010 T
b1010010 V
b0 [
b10101100 \
13
#2120000
03
#2130000
b11010010 -
b11010010 @
b11010010 O
b11010010 D
b11010010 .
b11010010 B
b11010010 T
b11010010 V
b1 ^
13
#2140000
03
#2150000
b10 (
b10 K
b10 Q
b10 U
b10 R
b1000 -
b1000 @
b1000 O
b1000 D
b1000 .
b1000 B
b1000 T
b1000 V
b10 ^
13
#2160000
03
#2170000
b101 (
b101 K
b101 Q
b101 U
b101 R
b1010 -
b1010 @
b1010 O
b1010 D
b1010 .
b1010 B
b1010 T
b1010 V
b1 [
b10 \
13
#2180000
03
#2190000
b1010 (
b1010 K
b1010 Q
b1010 U
b1010 R
b1100 -
b1100 @
b1100 O
b1100 D
b1100 .
b1100 B
b1100 T
b1100 V
b10 [
b101 \
13
#2200000
03
#2210000
b10101011 (
b10101011 K
b10101011 Q
b10101011 U
b10101011 R
b1110 -
b1110 @
b1110 O
b1110 D
b1110 .
b1110 B
b1110 T
b1110 V
b11 [
b1010 \
13
#2220000
03
#2230000
b11001101 (
b11001101 K
b11001101 Q
b11001101 U
b11001101 R
b10000 -
b10000 @
b10000 O
b10000 D
b10000 .
b10000 B
b10000 T
b10000 V
b100 [
b10101011 \
13
#2240000
03
#2250000
b11101111 (
b11101111 K
b11101111 Q
b11101111 U
b11101111 R
b10010 -
b10010 @
b10010 O
b10010 D
b10010 .
b10010 B
b10010 T
b10010 V
b101 [
b11001101 \
13
#2260000
03
#2270000
b10011 (
b10011 K
b10011 Q
b10011 U
b10011 R
b10100 -
b10100 @
b10100 O
b10100 D
b10100 .
b10100 B
b10100 T
b10100 V
b110 [
b11101111 \
13
#2280000
03
#2290000
b1111000 (
b1111000 K
b1111000 Q
b1111000 U
b1111000 R
b10110 -
b10110 @
b10110 O
b10110 D
b10110 .
b10110 B
b10110 T
b10110 V
b111 [
b10011 \
13
#2300000
03
#2310000
b1000010 (
b1000010 K
b1000010 Q
b1000010 U
b1000010 R
b11000 -
b11000 @
b11000 O
b11000 D
b11000 .
b11000 B
b11000 T
b11000 V
b1000 [
b1111000 \
13
#2320000
03
#2330000
b100011100 (
b100011100 K
b100011100 Q
b100011100 U
b100011100 R
b11010 -
b11010 @
b11010 O
b11010 D
b11010 .
b11010 B
b11010 T
b11010 V
b1001 [
b1000010 \
13
#2340000
03
#2350000
b100010001 (
b100010001 K
b100010001 Q
b100010001 U
b100010001 R
b11100 -
b11100 @
b11100 O
b11100 D
b11100 .
b11100 B
b11100 T
b11100 V
b1010 [
b100011100 \
13
#2360000
03
#2370000
b100111 (
b100111 K
b100111 Q
b100111 U
b100111 R
b11110 -
b11110 @
b11110 O
b11110 D
b11110 .
b11110 B
b11110 T
b11110 V
b1011 [
b100010001 \
13
#2380000
03
#2390000
b110110 (
b110110 K
b110110 Q
b110110 U
b110110 R
b100000 -
b100000 @
b100000 O
b100000 D
b100000 .
b100000 B
b100000 T
b100000 V
b1100 [
b100111 \
13
#2400000
03
#2410000
b100101 (
b100101 K
b100101 Q
b100101 U
b100101 R
b100010 -
b100010 @
b100010 O
b100010 D
b100010 .
b100010 B
b100010 T
b100010 V
b1101 [
b110110 \
13
#2420000
03
#2430000
b111111 (
b111111 K
b111111 Q
b111111 U
b111111 R
b100100 -
b100100 @
b100100 O
b100100 D
b100100 .
b100100 B
b100100 T
b100100 V
b1110 [
b100101 \
13
#2440000
03
#2450000
b10101100 (
b10101100 K
b10101100 Q
b10101100 U
b10101100 R
b100110 -
b100110 @
b100110 O
b100110 D
b100110 .
b100110 B
b100110 T
b100110 V
b1111 [
b111111 \
13
#2460000
03
#2470000
bx (
bx K
bx Q
bx U
bx R
b1010100 -
b1010100 @
b1010100 O
b1010100 D
b0 ^
b110 Z
b1010100 .
b1010100 B
b1010100 T
b1010100 V
b0 [
b10101100 \
13
#2480000
03
#2490000
b11010100 -
b11010100 @
b11010100 O
b11010100 D
b11010100 .
b11010100 B
b11010100 T
b11010100 V
b1 ^
13
#2500000
03
#2510000
b10 (
b10 K
b10 Q
b10 U
b10 R
b1000 -
b1000 @
b1000 O
b1000 D
b1000 .
b1000 B
b1000 T
b1000 V
b10 ^
13
#2520000
03
#2530000
b101 (
b101 K
b101 Q
b101 U
b101 R
b1010 -
b1010 @
b1010 O
b1010 D
b1010 .
b1010 B
b1010 T
b1010 V
b1 [
b10 \
13
#2540000
03
