testbench.vcd
$date
	Mon Mar 05 16:22:28 2018
$end
$version
	Icarus Verilog
$end
$timescale
	1ps
$end
$scope module testbench $end
$var wire 16 ! addr_0 [15:0] $end
$var wire 16 " addr_4 [15:0] $end
$var wire 16 # addr_5 [15:0] $end
$var wire 16 $ addr_6 [15:0] $end
$var wire 16 % addr_7 [15:0] $end
$var wire 16 & mdi_0 [15:0] $end
$var wire 16 ' mdi_4 [15:0] $end
$var wire 16 ( mdi_5 [15:0] $end
$var wire 16 ) mdi_6 [15:0] $end
$var wire 16 * mdi_7 [15:0] $end
$var wire 1 + wren_0 $end
$var wire 1 , wren_4 $end
$var wire 1 - wren_5 $end
$var wire 1 . wren_6 $end
$var wire 1 / wren_7 $end
$var wire 1 0 wren_3 $end
$var wire 1 1 wren_2 $end
$var wire 1 2 wren_1 $end
$var wire 1 3 wr_en $end
$var wire 16 4 mem_data_out [15:0] $end
$var wire 16 5 mem_data_in [15:0] $end
$var wire 16 6 mdi_3 [15:0] $end
$var wire 16 7 mdi_2 [15:0] $end
$var wire 16 8 mdi_1 [15:0] $end
$var wire 1 9 iamForwarding $end
$var wire 1 : forAggregation2 $end
$var wire 1 ; forAggregation1 $end
$var wire 1 < done_neighborSinkInOtherCluster $end
$var wire 1 = done_iamSink $end
$var wire 1 > done_iamForwarding $end
$var wire 1 ? done_fixSinkList $end
$var wire 16 @ address [15:0] $end
$var wire 16 A addr_3 [15:0] $end
$var wire 16 B addr_2 [15:0] $end
$var wire 16 C addr_1 [15:0] $end
$var reg 16 D MY_CLUSTER_ID [15:0] $end
$var reg 16 E MY_NODE_ID [15:0] $end
$var reg 3 F addr_select [2:0] $end
$var reg 1 G clock $end
$var reg 16 H destinationID [15:0] $end
$var reg 1 I done_learnCost $end
$var reg 1 J nrst $end
$var integer 32 K i [31:0] $end
$scope module addr_mux $end
$var wire 16 L in0 [15:0] $end
$var wire 16 M in4 [15:0] $end
$var wire 16 N in5 [15:0] $end
$var wire 16 O in6 [15:0] $end
$var wire 16 P in7 [15:0] $end
$var wire 16 Q out [15:0] $end
$var wire 3 R select [2:0] $end
$var wire 16 S in3 [15:0] $end
$var wire 16 T in2 [15:0] $end
$var wire 16 U in1 [15:0] $end
$var reg 16 V out_buf [15:0] $end
$upscope $end
$scope module aif1 $end
$var wire 16 W MY_NODE_ID [15:0] $end
$var wire 1 G clock $end
$var wire 16 X destinationID [15:0] $end
$var wire 1 > done $end
$var wire 1 9 iamForwarding $end
$var wire 1 J nrst $end
$var wire 1 = start $end
$var reg 1 Y done_buf $end
$var reg 1 Z iamForwarding_buf $end
$var reg 2 [ state [1:0] $end
$upscope $end
$scope module ais1 $end
$var wire 16 \ address [15:0] $end
$var wire 1 G clock $end
$var wire 1 = done $end
$var wire 1 ; forAggregation $end
$var wire 1 J nrst $end
$var wire 1 I start $end
$var wire 1 2 wr_en $end
$var wire 16 ] data_out [15:0] $end
$var wire 16 ^ data_in [15:0] $end
$var reg 16 _ address_count [15:0] $end
$var reg 16 ` amISink [15:0] $end
$var reg 1 a data_out_buf $end
$var reg 1 b done_buf $end
$var reg 1 c forAggregation_buf $end
$var reg 2 d state [1:0] $end
$var reg 1 e wr_en_buf $end
$upscope $end
$scope module fsl1 $end
$var wire 16 f address [15:0] $end
$var wire 1 G clock $end
$var wire 16 g data_out [15:0] $end
$var wire 1 ? done $end
$var wire 1 J nrst $end
$var wire 1 > start $end
$var wire 1 1 wr_en $end
$var wire 16 h data_in [15:0] $end
$var reg 16 i address_count [15:0] $end
$var reg 16 j data_out_buf [15:0] $end
$var reg 1 k done_buf $end
$var reg 16 l i [15:0] $end
$var reg 16 m j [15:0] $end
$var reg 16 n k [15:0] $end
$var reg 16 o knownSinkCount [15:0] $end
$var reg 16 p knownSinks [15:0] $end
$var reg 16 q neighborCount [15:0] $end
$var reg 16 r qValue [15:0] $end
$var reg 16 s sinkIDCount [15:0] $end
$var reg 16 t sinkIDs [15:0] $end
$var reg 4 u state [3:0] $end
$var reg 16 v worstHops [15:0] $end
$var reg 1 w wr_en_buf $end
$upscope $end
$scope module mdi_mux $end
$var wire 16 x in0 [15:0] $end
$var wire 16 y in1 [15:0] $end
$var wire 16 z in2 [15:0] $end
$var wire 16 { in4 [15:0] $end
$var wire 16 | in5 [15:0] $end
$var wire 16 } in6 [15:0] $end
$var wire 16 ~ in7 [15:0] $end
$var wire 16 !" out [15:0] $end
$var wire 3 "" select [2:0] $end
$var wire 16 #" in3 [15:0] $end
$var reg 16 $" out_buf [15:0] $end
$upscope $end
$scope module mem1 $end
$var wire 16 %" address [15:0] $end
$var wire 1 G clock $end
$var wire 16 &" data_in [15:0] $end
$var wire 16 '" data_out [15:0] $end
$var wire 1 3 wr_en $end
$var reg 16 (" data_out_buf [15:0] $end
$upscope $end
$scope module nsioc1 $end
$var wire 16 )" MY_CLUSTER_ID [15:0] $end
$var wire 16 *" address [15:0] $end
$var wire 1 G clock $end
$var wire 16 +" data_in [15:0] $end
$var wire 16 ," data_out [15:0] $end
$var wire 1 < done $end
$var wire 1 : forAggregation $end
$var wire 1 J nrst $end
$var wire 1 ? start $end
$var wire 1 0 wr_en $end
$var reg 16 -" address_count [15:0] $end
$var reg 16 ." clusterID [15:0] $end
$var reg 16 /" data_out_buf [15:0] $end
$var reg 1 0" done_buf $end
$var reg 1 1" forAggregation_buf $end
$var reg 16 2" i [15:0] $end
$var reg 16 3" j [15:0] $end
$var reg 16 4" knownSinkCount [15:0] $end
$var reg 16 5" knownSinks [15:0] $end
$var reg 16 6" neighborCount [15:0] $end
$var reg 16 7" neighborID [15:0] $end
$var reg 3 8" state [2:0] $end
$var reg 1 9" wr_en_buf $end
$upscope $end
$scope module wren_mux $end
$var wire 1 + in0 $end
$var wire 1 2 in1 $end
$var wire 1 1 in2 $end
$var wire 1 0 in3 $end
$var wire 1 , in4 $end
$var wire 1 - in5 $end
$var wire 1 . in6 $end
$var wire 1 / in7 $end
$var wire 1 3 out $end
$var wire 3 :" select [2:0] $end
$var reg 1 ;" out_buf $end
$upscope $end
$upscope $end
$enddefinitions $end
#0
$dumpvars
x;"
bx :"
x9"
bx 8"
bx 7"
bx 6"
bx 5"
bx 4"
bx 3"
bx 2"
x1"
x0"
bx /"
bx ."
bx -"
bx ,"
bx +"
bx *"
b1 )"
bx ("
bx '"
bx &"
bx %"
bx $"
bx #"
bx ""
bx !"
bz ~
bz }
bz |
bz {
bx z
b0x y
bz x
xw
bx v
bx u
bx t
bx s
bx r
bx q
bx p
bx o
bx n
bx m
bx l
xk
bx j
bx i
bx h
bx g
bx f
xe
bx d
xc
xb
xa
bx `
bx _
bx ^
b0x ]
bx \
bx [
xZ
xY
b11 X
b11 W
bx V
bx U
bx T
bx S
bx R
bx Q
bz P
bz O
bz N
bz M
bz L
b10110 K
1J
1I
b11 H
0G
bx F
b11 E
b1 D
bx C
bx B
bx A
bx @
x?
x>
x=
x<
x;
x:
x9
b0x 8
bx 7
bx 6
bx 5
bx 4
x3
x2
x1
x0
z/
z.
z-
z,
z+
bz *
bz )
bz (
bz '
bz &
bz %
bz $
bz #
bz "
bz !
$end
#5000
0J
#10000
b0 4
b0 ^
b0 h
b0 '"
b0 +"
b0 ("
b0 @
b0 Q
b0 %"
b0 V
b0x 5
b0x !"
b0x &"
b0x $"
03
0;"
b1 F
b1 R
b1 ""
b1 :"
b0 d
b0 C
b0 U
b0 \
b0 _
02
0e
0=
0b
0;
0c
b0 [
0>
0Y
09
0Z
b0 n
b0 m
b0 l
b0 u
b11010001010 B
b11010001010 T
b11010001010 f
b11010001010 i
01
0w
0?
0k
b0 3"
b0 2"
b0 8"
b11010001000 A
b11010001000 S
b11010001000 *"
b11010001000 -"
00
09"
0<
00"
0:
01"
1G
#20000
0G
#30000
b1 d
1G
1J
#40000
0G
#50000
b11 d
b0 `
1G
#60000
0G
#70000
b1 [
1=
1b
1G
#80000
0G
#90000
b10 [
19
1Z
1G
#100000
0G
#110000
b100 4
b100 ^
b100 h
b100 '"
b100 +"
b100 ("
b11010001010 @
b11010001010 Q
b11010001010 %"
b11010001010 V
bx 5
bx !"
bx &"
bx $"
b10 F
b10 R
b10 ""
b10 :"
b1 u
1>
1Y
1G
#120000
0G
#130000
b101 4
b101 ^
b101 h
b101 '"
b101 +"
b101 ("
b11010001000 @
b11010001000 Q
b11010001000 %"
b11010001000 V
b11010001000 B
b11010001000 T
b11010001000 f
b11010001000 i
b10 u
b100 q
1G
#140000
0G
#150000
b10 4
b10 ^
b10 h
b10 '"
b10 +"
b10 ("
b1000 @
b1000 Q
b1000 %"
b1000 V
b1000 B
b1000 T
b1000 f
b1000 i
b11 u
b101 o
1G
#160000
0G
#170000
b11 4
b11 ^
b11 h
b11 '"
b11 +"
b11 ("
b11010001110 @
b11010001110 Q
b11010001110 %"
b11010001110 V
b11010001110 B
b11010001110 T
b11010001110 f
b11010001110 i
b100 u
b10 p
1G
#180000
0G
#190000
b1010 4
b1010 ^
b1010 h
b1010 '"
b1010 +"
b1010 ("
b1001001000 @
b1001001000 Q
b1001001000 %"
b1001001000 V
b1001001000 B
b1001001000 T
b1001001000 f
b1001001000 i
b101 u
b11 s
1G
#200000
0G
#210000
b10101011 4
b10101011 ^
b10101011 h
b10101011 '"
b10101011 +"
b10101011 ("
b1001001010 @
b1001001010 Q
b1001001010 %"
b1001001010 V
b1001001010 B
b1001001010 T
b1001001010 f
b1001001010 i
b1 n
b1010 t
1G
#220000
0G
#230000
b11001101 4
b11001101 ^
b11001101 h
b11001101 '"
b11001101 +"
b11001101 ("
b1001001100 @
b1001001100 Q
b1001001100 %"
b1001001100 V
b1001001100 B
b1001001100 T
b1001001100 f
b1001001100 i
b10 n
b10101011 t
1G
#240000
0G
#250000
bx 4
bx ^
bx h
bx '"
bx +"
bx ("
13
1;"
b1001001110 @
b1001001110 Q
b1001001110 %"
b1001001110 V
b10 5
b10 !"
b10 &"
b10 $"
11
1w
b1001001110 B
b1001001110 T
b1001001110 f
b1001001110 i
b10 7
b10 g
b10 z
b10 j
b110 u
b11 n
b11001101 t
1G
#260000
0G
#270000
b1011 4
b1011 ^
b1011 h
b1011 '"
b1011 +"
b1011 ("
b101000 @
b101000 Q
b101000 %"
b101000 V
03
0;"
b101000 B
b101000 T
b101000 f
b101000 i
b111 u
01
0w
1G
#280000
0G
#290000
b1010 4
b1010 ^
b1010 h
b1010 '"
b1010 +"
b1010 ("
b111001000 @
b111001000 Q
b111001000 %"
b111001000 V
b111001000 B
b111001000 T
b111001000 f
b111001000 i
b1000 u
b1011 v
1G
#300000
0G
#310000
13
1;"
b10100 5
b10100 !"
b10100 &"
b10100 $"
11
1w
b10100 7
b10100 g
b10100 z
b10100 j
b1001 u
b1010 r
1G
#320000
0G
#330000
b11 4
b11 ^
b11 h
b11 '"
b11 +"
b11 ("
b11010001110 @
b11010001110 Q
b11010001110 %"
b11010001110 V
b100 5
b100 !"
b100 &"
b100 $"
b11010001110 B
b11010001110 T
b11010001110 f
b11010001110 i
b100 7
b100 g
b100 z
b100 j
b1010 u
11
1w
1G
#340000
0G
#350000
b101 4
b101 ^
b101 h
b101 '"
b101 +"
b101 ("
b11010010000 @
b11010010000 Q
b11010010000 %"
b11010010000 V
03
0;"
b11010010000 B
b11010010000 T
b11010010000 f
b11010010000 i
b100 u
b0 n
b1 l
01
0w
1G
#360000
0G
#370000
b10 4
b10 ^
b10 h
b10 '"
b10 +"
b10 ("
b1001011000 @
b1001011000 Q
b1001011000 %"
b1001011000 V
b1001011000 B
b1001011000 T
b1001011000 f
b1001011000 i
b101 u
b101 s
1G
#380000
0G
#390000
b11 4
b11 ^
b11 h
b11 '"
b11 +"
b11 ("
b11010010010 @
b11010010010 Q
b11010010010 %"
b11010010010 V
b11010010010 B
b11010010010 T
b11010010010 f
b11010010010 i
b100 u
b10 l
b10 t
1G
#400000
0G
#410000
b10 4
b10 ^
b10 h
b10 '"
b10 +"
b10 ("
b1001101000 @
b1001101000 Q
b1001101000 %"
b1001101000 V
b1001101000 B
b1001101000 T
b1001101000 f
b1001101000 i
b101 u
b11 s
1G
#420000
0G
#430000
b1 4
b1 ^
b1 h
b1 '"
b1 +"
b1 ("
b11010010100 @
b11010010100 Q
b11010010100 %"
b11010010100 V
b11010010100 B
b11010010100 T
b11010010100 f
b11010010100 i
b100 u
b11 l
1G
#440000
0G
#450000
b10 4
b10 ^
b10 h
b10 '"
b10 +"
b10 ("
b1001111000 @
b1001111000 Q
b1001111000 %"
b1001111000 V
b1001111000 B
b1001111000 T
b1001111000 f
b1001111000 i
b101 u
b1 s
1G
#460000
0G
#470000
b101 4
b101 ^
b101 h
b101 '"
b101 +"
b101 ("
b1010 @
b1010 Q
b1010 %"
b1010 V
b1010 B
b1010 T
b1010 f
b1010 i
b11 u
b1 m
b0 l
1G
#480000
0G
#490000
b100 4
b100 ^
b100 h
b100 '"
b100 +"
b100 ("
b11010001110 @
b11010001110 Q
b11010001110 %"
b11010001110 V
b11010001110 B
b11010001110 T
b11010001110 f
b11010001110 i
b100 u
b101 p
1G
#500000
0G
#510000
b1010 4
b1010 ^
b1010 h
b1010 '"
b1010 +"
b1010 ("
b1001001000 @
b1001001000 Q
b1001001000 %"
b1001001000 V
b1001001000 B
b1001001000 T
b1001001000 f
b1001001000 i
b101 u
b100 s
1G
#520000
0G
#530000
b10101011 4
b10101011 ^
b10101011 h
b10101011 '"
b10101011 +"
b10101011 ("
b1001001010 @
b1001001010 Q
b1001001010 %"
b1001001010 V
b1001001010 B
b1001001010 T
b1001001010 f
b1001001010 i
b1 n
b1010 t
1G
#540000
0G
#550000
b11001101 4
b11001101 ^
b11001101 h
b11001101 '"
b11001101 +"
b11001101 ("
b1001001100 @
b1001001100 Q
b1001001100 %"
b1001001100 V
b1001001100 B
b1001001100 T
b1001001100 f
b1001001100 i
b10 n
b10101011 t
1G
#560000
0G
#570000
b10 4
b10 ^
b10 h
b10 '"
b10 +"
b10 ("
b1001001110 @
b1001001110 Q
b1001001110 %"
b1001001110 V
b1001001110 B
b1001001110 T
b1001001110 f
b1001001110 i
b11 n
b11001101 t
1G
#580000
0G
#590000
bx 4
bx ^
bx h
bx '"
bx +"
bx ("
13
1;"
b1001010000 @
b1001010000 Q
b1001010000 %"
b1001010000 V
b101 5
b101 !"
b101 &"
b101 $"
11
1w
b1001010000 B
b1001010000 T
b1001010000 f
b1001010000 i
b101 7
b101 g
b101 z
b101 j
b110 u
b100 n
b10 t
1G
#600000
0G
#610000
b11 4
b11 ^
b11 h
b11 '"
b11 +"
b11 ("
b101010 @
b101010 Q
b101010 %"
b101010 V
03
0;"
b101010 B
b101010 T
b101010 f
b101010 i
b111 u
01
0w
1G
#620000
0G
#630000
b10100 4
b10100 ^
b10100 h
b10100 '"
b10100 +"
b10100 ("
b111001000 @
b111001000 Q
b111001000 %"
b111001000 V
b111001000 B
b111001000 T
b111001000 f
b111001000 i
b1000 u
b11 v
1G
#640000
0G
#650000
13
1;"
b10110 5
b10110 !"
b10110 &"
b10110 $"
11
1w
b10110 7
b10110 g
b10110 z
b10110 j
b1001 u
b10100 r
1G
#660000
0G
#670000
b100 4
b100 ^
b100 h
b100 '"
b100 +"
b100 ("
b11010001110 @
b11010001110 Q
b11010001110 %"
b11010001110 V
b101 5
b101 !"
b101 &"
b101 $"
b11010001110 B
b11010001110 T
b11010001110 f
b11010001110 i
b101 7
b101 g
b101 z
b101 j
b1010 u
11
1w
1G
#680000
0G
#690000
b101 4
b101 ^
b101 h
b101 '"
b101 +"
b101 ("
b11010010000 @
b11010010000 Q
b11010010000 %"
b11010010000 V
03
0;"
b11010010000 B
b11010010000 T
b11010010000 f
b11010010000 i
b100 u
b0 n
b1 l
01
0w
1G
#700000
0G
#710000
b10 4
b10 ^
b10 h
b10 '"
b10 +"
b10 ("
b1001011000 @
b1001011000 Q
b1001011000 %"
b1001011000 V
b1001011000 B
b1001011000 T
b1001011000 f
b1001011000 i
b101 u
b101 s
1G
#720000
0G
#730000
b101 4
b101 ^
b101 h
b101 '"
b101 +"
b101 ("
b1001011010 @
b1001011010 Q
b1001011010 %"
b1001011010 V
b1001011010 B
b1001011010 T
b1001011010 f
b1001011010 i
b1 n
1G
#740000
0G
#750000
b11 4
b11 ^
b11 h
b11 '"
b11 +"
b11 ("
b11010010010 @
b11010010010 Q
b11010010010 %"
b11010010010 V
b11010010010 B
b11010010010 T
b11010010010 f
b11010010010 i
b100 u
b0 n
b10 l
b101 t
1G
#760000
0G
#770000
b10 4
b10 ^
b10 h
b10 '"
b10 +"
b10 ("
b1001101000 @
b1001101000 Q
b1001101000 %"
b1001101000 V
b1001101000 B
b1001101000 T
b1001101000 f
b1001101000 i
b101 u
b11 s
1G
#780000
0G
#790000
b101 4
b101 ^
b101 h
b101 '"
b101 +"
b101 ("
b1001101010 @
b1001101010 Q
b1001101010 %"
b1001101010 V
b1001101010 B
b1001101010 T
b1001101010 f
b1001101010 i
b1 n
b10 t
1G
#800000
0G
#810000
b1 4
b1 ^
b1 h
b1 '"
b1 +"
b1 ("
b11010010100 @
b11010010100 Q
b11010010100 %"
b11010010100 V
b11010010100 B
b11010010100 T
b11010010100 f
b11010010100 i
b100 u
b0 n
b11 l
b101 t
1G
#820000
0G
#830000
b10 4
b10 ^
b10 h
b10 '"
b10 +"
b10 ("
b1001111000 @
b1001111000 Q
b1001111000 %"
b1001111000 V
b1001111000 B
b1001111000 T
b1001111000 f
b1001111000 i
b101 u
b1 s
1G
#840000
0G
#850000
bx 4
bx ^
bx h
bx '"
bx +"
bx ("
13
1;"
b1001111010 @
b1001111010 Q
b1001111010 %"
b1001111010 V
11
1w
b1001111010 B
b1001111010 T
b1001111010 f
b1001111010 i
b110 u
b1 n
b10 t
1G
#860000
0G
#870000
b11 4
b11 ^
b11 h
b11 '"
b11 +"
b11 ("
b101010 @
b101010 Q
b101010 %"
b101010 V
03
0;"
b101010 B
b101010 T
b101010 f
b101010 i
b111 u
01
0w
1G
#880000
0G
#890000
b111100 4
b111100 ^
b111100 h
b111100 '"
b111100 +"
b111100 ("
b111001110 @
b111001110 Q
b111001110 %"
b111001110 V
b111001110 B
b111001110 T
b111001110 f
b111001110 i
b1000 u
1G
#900000
0G
#910000
13
1;"
b111110 5
b111110 !"
b111110 &"
b111110 $"
11
1w
b111110 7
b111110 g
b111110 z
b111110 j
b1001 u
b111100 r
1G
#920000
0G
#930000
b1 4
b1 ^
b1 h
b1 '"
b1 +"
b1 ("
b11010010100 @
b11010010100 Q
b11010010100 %"
b11010010100 V
b10 5
b10 !"
b10 &"
b10 $"
b11010010100 B
b11010010100 T
b11010010100 f
b11010010100 i
b10 7
b10 g
b10 z
b10 j
b1010 u
11
1w
1G
#940000
0G
#950000
b1010 4
b1010 ^
b1010 h
b1010 '"
b1010 +"
b1010 ("
b1100 @
b1100 Q
b1100 %"
b1100 V
03
0;"
b1100 B
b1100 T
b1100 f
b1100 i
b11 u
b10 m
b0 n
b0 l
01
0w
1G
#960000
0G
#970000
b101 4
b101 ^
b101 h
b101 '"
b101 +"
b101 ("
b11010001110 @
b11010001110 Q
b11010001110 %"
b11010001110 V
b11010001110 B
b11010001110 T
b11010001110 f
b11010001110 i
b100 u
b1010 p
1G
#980000
0G
#990000
b1010 4
b1010 ^
b1010 h
b1010 '"
b1010 +"
b1010 ("
b1001001000 @
b1001001000 Q
b1001001000 %"
b1001001000 V
b1001001000 B
b1001001000 T
b1001001000 f
b1001001000 i
b101 u
b101 s
1G
#1000000
0G
#1010000
b101 4
b101 ^
b101 h
b101 '"
b101 +"
b101 ("
b11010010000 @
b11010010000 Q
b11010010000 %"
b11010010000 V
b11010010000 B
b11010010000 T
b11010010000 f
b11010010000 i
b100 u
b1 l
b1010 t
1G
#1020000
0G
#1030000
b10 4
b10 ^
b10 h
b10 '"
b10 +"
b10 ("
b1001011000 @
b1001011000 Q
b1001011000 %"
b1001011000 V
b1001011000 B
b1001011000 T
b1001011000 f
b1001011000 i
b101 u
1G
#1040000
0G
#1050000
b101 4
b101 ^
b101 h
b101 '"
b101 +"
b101 ("
b1001011010 @
b1001011010 Q
b1001011010 %"
b1001011010 V
b1001011010 B
b1001011010 T
b1001011010 f
b1001011010 i
b1 n
b10 t
1G
#1060000
0G
#1070000
b1010 4
b1010 ^
b1010 h
b1010 '"
b1010 +"
b1010 ("
b1001011100 @
b1001011100 Q
b1001011100 %"
b1001011100 V
b1001011100 B
b1001011100 T
b1001011100 f
b1001011100 i
b10 n
b101 t
1G
#1080000
0G
#1090000
b11 4
b11 ^
b11 h
b11 '"
b11 +"
b11 ("
b11010010010 @
b11010010010 Q
b11010010010 %"
b11010010010 V
b11010010010 B
b11010010010 T
b11010010010 f
b11010010010 i
b100 u
b0 n
b10 l
b1010 t
1G
#1100000
0G
#1110000
b10 4
b10 ^
b10 h
b10 '"
b10 +"
b10 ("
b1001101000 @
b1001101000 Q
b1001101000 %"
b1001101000 V
b1001101000 B
b1001101000 T
b1001101000 f
b1001101000 i
b101 u
b11 s
1G
#1120000
0G
#1130000
b101 4
b101 ^
b101 h
b101 '"
b101 +"
b101 ("
b1001101010 @
b1001101010 Q
b1001101010 %"
b1001101010 V
b1001101010 B
b1001101010 T
b1001101010 f
b1001101010 i
b1 n
b10 t
1G
#1140000
0G
#1150000
b1010 4
b1010 ^
b1010 h
b1010 '"
b1010 +"
b1010 ("
b1001101100 @
b1001101100 Q
b1001101100 %"
b1001101100 V
b1001101100 B
b1001101100 T
b1001101100 f
b1001101100 i
b10 n
b101 t
1G
#1160000
0G
#1170000
b10 4
b10 ^
b10 h
b10 '"
b10 +"
b10 ("
b11010010100 @
b11010010100 Q
b11010010100 %"
b11010010100 V
b11010010100 B
b11010010100 T
b11010010100 f
b11010010100 i
b100 u
b0 n
b11 l
b1010 t
1G
#1180000
0G
#1190000
b1001111000 @
b1001111000 Q
b1001111000 %"
b1001111000 V
b1001111000 B
b1001111000 T
b1001111000 f
b1001111000 i
b101 u
b10 s
1G
#1200000
0G
#1210000
b101 4
b101 ^
b101 h
b101 '"
b101 +"
b101 ("
b1001111010 @
b1001111010 Q
b1001111010 %"
b1001111010 V
b1001111010 B
b1001111010 T
b1001111010 f
b1001111010 i
b1 n
b10 t
1G
#1220000
0G
#1230000
bx 4
bx ^
bx h
bx '"
bx +"
bx ("
13
1;"
b1001111100 @
b1001111100 Q
b1001111100 %"
b1001111100 V
b1010 5
b1010 !"
b1010 &"
b1010 $"
11
1w
b1001111100 B
b1001111100 T
b1001111100 f
b1001111100 i
b1010 7
b1010 g
b1010 z
b1010 j
b110 u
b10 n
b101 t
1G
#1240000
0G
#1250000
b101 4
b101 ^
b101 h
b101 '"
b101 +"
b101 ("
b101100 @
b101100 Q
b101100 %"
b101100 V
03
0;"
b101100 B
b101100 T
b101100 f
b101100 i
b111 u
01
0w
1G
#1260000
0G
#1270000
b111110 4
b111110 ^
b111110 h
b111110 '"
b111110 +"
b111110 ("
b111001110 @
b111001110 Q
b111001110 %"
b111001110 V
b111001110 B
b111001110 T
b111001110 f
b111001110 i
b1000 u
b101 v
1G
#1280000
0G
#1290000
13
1;"
b1000010 5
b1000010 !"
b1000010 &"
b1000010 $"
11
1w
b1000010 7
b1000010 g
b1000010 z
b1000010 j
b1001 u
b111110 r
1G
#1300000
0G
#1310000
b10 4
b10 ^
b10 h
b10 '"
b10 +"
b10 ("
b11010010100 @
b11010010100 Q
b11010010100 %"
b11010010100 V
b11 5
b11 !"
b11 &"
b11 $"
b11010010100 B
b11010010100 T
b11010010100 f
b11010010100 i
b11 7
b11 g
b11 z
b11 j
b1010 u
11
1w
1G
#1320000
0G
#1330000
b10101011 4
b10101011 ^
b10101011 h
b10101011 '"
b10101011 +"
b10101011 ("
b1110 @
b1110 Q
b1110 %"
b1110 V
03
0;"
b1110 B
b1110 T
b1110 f
b1110 i
b11 u
b11 m
b0 n
b0 l
01
0w
1G
#1340000
0G
#1350000
b101 4
b101 ^
b101 h
b101 '"
b101 +"
b101 ("
b11010001110 @
b11010001110 Q
b11010001110 %"
b11010001110 V
b11010001110 B
b11010001110 T
b11010001110 f
b11010001110 i
b100 u
b10101011 p
1G
#1360000
0G
#1370000
b1010 4
b1010 ^
b1010 h
b1010 '"
b1010 +"
b1010 ("
b1001001000 @
b1001001000 Q
b1001001000 %"
b1001001000 V
b1001001000 B
b1001001000 T
b1001001000 f
b1001001000 i
b101 u
b101 s
1G
#1380000
0G
#1390000
b10101011 4
b10101011 ^
b10101011 h
b10101011 '"
b10101011 +"
b10101011 ("
b1001001010 @
b1001001010 Q
b1001001010 %"
b1001001010 V
b1001001010 B
b1001001010 T
b1001001010 f
b1001001010 i
b1 n
b1010 t
1G
#1400000
0G
#1410000
b101 4
b101 ^
b101 h
b101 '"
b101 +"
b101 ("
b11010010000 @
b11010010000 Q
b11010010000 %"
b11010010000 V
b11010010000 B
b11010010000 T
b11010010000 f
b11010010000 i
b100 u
b0 n
b1 l
b10101011 t
1G
#1420000
0G
#1430000
b10 4
b10 ^
b10 h
b10 '"
b10 +"
b10 ("
b1001011000 @
b1001011000 Q
b1001011000 %"
b1001011000 V
b1001011000 B
b1001011000 T
b1001011000 f
b1001011000 i
b101 u
1G
#1440000
0G
#1450000
b101 4
b101 ^
b101 h
b101 '"
b101 +"
b101 ("
b1001011010 @
b1001011010 Q
b1001011010 %"
b1001011010 V
b1001011010 B
b1001011010 T
b1001011010 f
b1001011010 i
b1 n
b10 t
1G
#1460000
0G
#1470000
b1010 4
b1010 ^
b1010 h
b1010 '"
b1010 +"
b1010 ("
b1001011100 @
b1001011100 Q
b1001011100 %"
b1001011100 V
b1001011100 B
b1001011100 T
b1001011100 f
b1001011100 i
b10 n
b101 t
1G
#1480000
0G
#1490000
b10101011 4
b10101011 ^
b10101011 h
b10101011 '"
b10101011 +"
b10101011 ("
b1001011110 @
b1001011110 Q
b1001011110 %"
b1001011110 V
b1001011110 B
b1001011110 T
b1001011110 f
b1001011110 i
b11 n
b1010 t
1G
#1500000
0G
#1510000
b11 4
b11 ^
b11 h
b11 '"
b11 +"
b11 ("
b11010010010 @
b11010010010 Q
b11010010010 %"
b11010010010 V
b11010010010 B
b11010010010 T
b11010010010 f
b11010010010 i
b100 u
b0 n
b10 l
b10101011 t
1G
#1520000
0G
#1530000
b10 4
b10 ^
b10 h
b10 '"
b10 +"
b10 ("
b1001101000 @
b1001101000 Q
b1001101000 %"
b1001101000 V
b1001101000 B
b1001101000 T
b1001101000 f
b1001101000 i
b101 u
b11 s
1G
#1540000
0G
#1550000
b101 4
b101 ^
b101 h
b101 '"
b101 +"
b101 ("
b1001101010 @
b1001101010 Q
b1001101010 %"
b1001101010 V
b1001101010 B
b1001101010 T
b1001101010 f
b1001101010 i
b1 n
b10 t
1G
#1560000
0G
#1570000
b1010 4
b1010 ^
b1010 h
b1010 '"
b1010 +"
b1010 ("
b1001101100 @
b1001101100 Q
b1001101100 %"
b1001101100 V
b1001101100 B
b1001101100 T
b1001101100 f
b1001101100 i
b10 n
b101 t
1G
#1580000
0G
#1590000
bx 4
bx ^
bx h
bx '"
bx +"
bx ("
13
1;"
b1001101110 @
b1001101110 Q
b1001101110 %"
b1001101110 V
b10101011 5
b10101011 !"
b10101011 &"
b10101011 $"
11
1w
b1001101110 B
b1001101110 T
b1001101110 f
b1001101110 i
b10101011 7
b10101011 g
b10101011 z
b10101011 j
b110 u
b11 n
b1010 t
1G
#1600000
0G
#1610000
b111 4
b111 ^
b111 h
b111 '"
b111 +"
b111 ("
b101110 @
b101110 Q
b101110 %"
b101110 V
03
0;"
b101110 B
b101110 T
b101110 f
b101110 i
b111 u
01
0w
1G
#1620000
0G
#1630000
b101000 4
b101000 ^
b101000 h
b101000 '"
b101000 +"
b101000 ("
b111001100 @
b111001100 Q
b111001100 %"
b111001100 V
b111001100 B
b111001100 T
b111001100 f
b111001100 i
b1000 u
b111 v
1G
#1640000
0G
#1650000
13
1;"
b101110 5
b101110 !"
b101110 &"
b101110 $"
11
1w
b101110 7
b101110 g
b101110 z
b101110 j
b1001 u
b101000 r
1G
#1660000
0G
#1670000
b11 4
b11 ^
b11 h
b11 '"
b11 +"
b11 ("
b11010010010 @
b11010010010 Q
b11010010010 %"
b11010010010 V
b100 5
b100 !"
b100 &"
b100 $"
b11010010010 B
b11010010010 T
b11010010010 f
b11010010010 i
b100 7
b100 g
b100 z
b100 j
b1010 u
11
1w
1G
#1680000
0G
#1690000
b11010010100 @
b11010010100 Q
b11010010100 %"
b11010010100 V
03
0;"
b11010010100 B
b11010010100 T
b11010010100 f
b11010010100 i
b100 u
b0 n
b11 l
01
0w
1G
#1700000
0G
#1710000
b10 4
b10 ^
b10 h
b10 '"
b10 +"
b10 ("
b1001111000 @
b1001111000 Q
b1001111000 %"
b1001111000 V
b1001111000 B
b1001111000 T
b1001111000 f
b1001111000 i
b101 u
1G
#1720000
0G
#1730000
b101 4
b101 ^
b101 h
b101 '"
b101 +"
b101 ("
b1001111010 @
b1001111010 Q
b1001111010 %"
b1001111010 V
b1001111010 B
b1001111010 T
b1001111010 f
b1001111010 i
b1 n
b10 t
1G
#1740000
0G
#1750000
b1010 4
b1010 ^
b1010 h
b1010 '"
b1010 +"
b1010 ("
b1001111100 @
b1001111100 Q
b1001111100 %"
b1001111100 V
b1001111100 B
b1001111100 T
b1001111100 f
b1001111100 i
b10 n
b101 t
1G
#1760000
0G
