testbench.vcd
$date
	Tue Mar 06 16:03:39 2018
$end
$version
	Icarus Verilog
$end
$timescale
	1ps
$end
$scope module testbench $end
$var wire 16 ! addr_6 [15:0] $end
$var wire 16 " mdi_4 [15:0] $end
$var wire 16 # mdi_6 [15:0] $end
$var wire 16 $ mdi_7 [15:0] $end
$var wire 16 % mem_data_in [15:0] $end
$var wire 2 & mux_select [1:0] $end
$var wire 1 ' wr_en $end
$var wire 1 ( wren_4 $end
$var wire 1 ) wren_6 $end
$var wire 1 * wren_7 $end
$var wire 1 + wren_5 $end
$var wire 1 , wren_3 $end
$var wire 1 - wren_2 $end
$var wire 1 . wren_1 $end
$var wire 1 / wren_0 $end
$var wire 16 0 which [15:0] $end
$var wire 1 1 start_rngAddress $end
$var wire 16 2 rng_out_4bit [15:0] $end
$var wire 16 3 rng_out [15:0] $end
$var wire 16 4 rng_address [15:0] $end
$var wire 1 5 reinit $end
$var wire 16 6 nextsinks [15:0] $end
$var wire 16 7 nexthop [15:0] $end
$var wire 16 8 mybest [15:0] $end
$var wire 16 9 mem_data_out [15:0] $end
$var wire 16 : mdi_5 [15:0] $end
$var wire 16 ; mdi_3 [15:0] $end
$var wire 16 < mdi_2 [15:0] $end
$var wire 16 = mdi_1 [15:0] $end
$var wire 16 > mdi_0 [15:0] $end
$var wire 1 ? internalmux_select $end
$var wire 1 @ iamForwarding $end
$var wire 1 A forAggregation3 $end
$var wire 1 B forAggregation2 $end
$var wire 1 C forAggregation1 $end
$var wire 1 D done_winnerPolicy $end
$var wire 1 E done_selectMyAction $end
$var wire 1 F done_rngAddress $end
$var wire 1 G done_neighborSinkInOtherCluster $end
$var wire 1 H done_learnCosts $end
$var wire 1 I done_iamSink $end
$var wire 1 J done_iamForwarding $end
$var wire 1 K done_fixSinkList $end
$var wire 1 L done_findMyBest $end
$var wire 1 M done_betterNeighborsInMyCluster $end
$var wire 16 N betterNeighborCount [15:0] $end
$var wire 16 O bestvalue [15:0] $end
$var wire 16 P bestneighborID [15:0] $end
$var wire 16 Q besthop [15:0] $end
$var wire 16 R address [15:0] $end
$var wire 16 S addr_7 [15:0] $end
$var wire 16 T addr_6_1 [15:0] $end
$var wire 16 U addr_6_0 [15:0] $end
$var wire 16 V addr_5 [15:0] $end
$var wire 16 W addr_4 [15:0] $end
$var wire 16 X addr_3 [15:0] $end
$var wire 16 Y addr_2 [15:0] $end
$var wire 16 Z addr_1 [15:0] $end
$var wire 16 [ addr_0 [15:0] $end
$var wire 16 \ action [15:0] $end
$var reg 16 ] MY_BATTERY_STAT [15:0] $end
$var reg 16 ^ MY_CLUSTER_ID [15:0] $end
$var reg 16 _ MY_NODE_ID [15:0] $end
$var reg 16 ` addr_6_buf [15:0] $end
$var reg 3 a addr_select [2:0] $end
$var reg 1 b clock $end
$var reg 16 c epsilon [15:0] $end
$var reg 16 d epsilon_step [15:0] $end
$var reg 16 e fValue [15:0] $end
$var reg 16 f fbatteryStat [15:0] $end
$var reg 16 g fclusterID [15:0] $end
$var reg 16 h fdestinationID [15:0] $end
$var reg 16 i fsourceID [15:0] $end
$var reg 1 j nrst $end
$var reg 1 k start $end
$var integer 32 l i [31:0] $end
$scope module addr_mux $end
$var wire 16 m in6 [15:0] $end
$var wire 16 n out [15:0] $end
$var wire 3 o select [2:0] $end
$var wire 16 p in7 [15:0] $end
$var wire 16 q in5 [15:0] $end
$var wire 16 r in4 [15:0] $end
$var wire 16 s in3 [15:0] $end
$var wire 16 t in2 [15:0] $end
$var wire 16 u in1 [15:0] $end
$var wire 16 v in0 [15:0] $end
$var reg 16 w out_buf [15:0] $end
$upscope $end
$scope module aif1 $end
$var wire 16 x MY_NODE_ID [15:0] $end
$var wire 1 b clock $end
$var wire 16 y destinationID [15:0] $end
$var wire 1 J done $end
$var wire 1 @ iamForwarding $end
$var wire 1 j nrst $end
$var wire 1 I start $end
$var reg 1 z done_buf $end
$var reg 1 { iamForwarding_buf $end
$var reg 2 | state [1:0] $end
$upscope $end
$scope module ais1 $end
$var wire 16 } address [15:0] $end
$var wire 1 b clock $end
$var wire 1 I done $end
$var wire 1 C forAggregation $end
$var wire 1 j nrst $end
$var wire 1 . wr_en $end
$var wire 1 H start $end
$var wire 16 ~ data_out [15:0] $end
$var wire 16 !" data_in [15:0] $end
$var reg 16 "" address_count [15:0] $end
$var reg 16 #" amISink [15:0] $end
$var reg 1 $" data_out_buf $end
$var reg 1 %" done_buf $end
$var reg 1 &" forAggregation_buf $end
$var reg 2 '" state [1:0] $end
$var reg 1 (" wr_en_buf $end
$upscope $end
$scope module bnimc1 $end
$var wire 16 )" MY_CLUSTER_ID [15:0] $end
$var wire 16 *" address [15:0] $end
$var wire 16 +" besthop [15:0] $end
$var wire 16 ," bestneighborID [15:0] $end
$var wire 16 -" bestvalue [15:0] $end
$var wire 1 b clock $end
$var wire 16 ." data_out [15:0] $end
$var wire 1 M done $end
$var wire 16 /" nextsinks [15:0] $end
$var wire 1 j nrst $end
$var wire 1 + wr_en $end
$var wire 1 L start $end
$var wire 16 0" mybest [15:0] $end
$var wire 16 1" data_in [15:0] $end
$var reg 16 2" BATTERY_THRESHOLD [15:0] $end
$var reg 16 3" HCM [15:0] $end
$var reg 16 4" address_count [15:0] $end
$var reg 16 5" batteryStat [15:0] $end
$var reg 16 6" besthop_buf [15:0] $end
$var reg 16 7" bestneighborID_buf [15:0] $end
$var reg 16 8" bestvalue_buf [15:0] $end
$var reg 16 9" betterneighborCount [15:0] $end
$var reg 16 :" betterneighbors [15:0] $end
$var reg 16 ;" clusterID [15:0] $end
$var reg 16 <" data_out_buf [15:0] $end
$var reg 1 =" done_buf $end
$var reg 16 >" i [15:0] $end
$var reg 16 ?" j [15:0] $end
$var reg 16 @" k [15:0] $end
$var reg 16 A" knownSinkCount [15:0] $end
$var reg 16 B" knownSinks [15:0] $end
$var reg 16 C" neighborCount [15:0] $end
$var reg 16 D" neighborID [15:0] $end
$var reg 16 E" nextsinks_buf [15:0] $end
$var reg 16 F" qValue [15:0] $end
$var reg 4 G" state [3:0] $end
$var reg 1 H" wr_en_buf $end
$upscope $end
$scope module fmb1 $end
$var wire 16 I" MY_BATTERY_STAT [15:0] $end
$var wire 16 J" address [15:0] $end
$var wire 1 b clock $end
$var wire 1 L done $end
$var wire 16 K" mybest [15:0] $end
$var wire 1 j nrst $end
$var wire 1 G start $end
$var wire 16 L" data_in [15:0] $end
$var reg 16 M" HCM [15:0] $end
$var reg 16 N" address_count [15:0] $end
$var reg 2 O" count [1:0] $end
$var reg 1 P" done_buf $end
$var reg 16 Q" k [15:0] $end
$var reg 32 R" kTemp [31:0] $end
$var reg 16 S" mybest_buf [15:0] $end
$var reg 16 T" neighborCount [15:0] $end
$var reg 16 U" qValue [15:0] $end
$var reg 2 V" state [1:0] $end
$upscope $end
$scope module fsl1 $end
$var wire 16 W" address [15:0] $end
$var wire 1 b clock $end
$var wire 16 X" data_out [15:0] $end
$var wire 1 K done $end
$var wire 1 j nrst $end
$var wire 1 J start $end
$var wire 1 - wr_en $end
$var wire 16 Y" data_in [15:0] $end
$var reg 16 Z" address_count [15:0] $end
$var reg 16 [" data_out_buf [15:0] $end
$var reg 1 \" done_buf $end
$var reg 16 ]" i [15:0] $end
$var reg 16 ^" j [15:0] $end
$var reg 16 _" k [15:0] $end
$var reg 16 `" knownSinkCount [15:0] $end
$var reg 16 a" knownSinks [15:0] $end
$var reg 16 b" neighborCount [15:0] $end
$var reg 16 c" qValue [15:0] $end
$var reg 16 d" sinkIDCount [15:0] $end
$var reg 16 e" sinkIDs [15:0] $end
$var reg 4 f" state [3:0] $end
$var reg 16 g" worstHops [15:0] $end
$var reg 1 h" wr_en_buf $end
$upscope $end
$scope module lc1 $end
$var wire 16 i" address [15:0] $end
$var wire 1 b clock $end
$var wire 16 j" data_out [15:0] $end
$var wire 1 H done $end
$var wire 16 k" fValue [15:0] $end
$var wire 16 l" fbatteryStat [15:0] $end
$var wire 16 m" fclusterID [15:0] $end
$var wire 16 n" fsourceID [15:0] $end
$var wire 1 j nrst $end
$var wire 1 5 reinit $end
$var wire 1 k start $end
$var wire 1 / wr_en $end
$var wire 16 o" data_in [15:0] $end
$var reg 16 p" address_count [15:0] $end
$var reg 16 q" cur_knownSink [15:0] $end
$var reg 16 r" cur_nID [15:0] $end
$var reg 16 s" cur_qValue [15:0] $end
$var reg 16 t" data_out_buf [15:0] $end
$var reg 1 u" done_buf $end
$var reg 1 v" found $end
$var reg 16 w" k [15:0] $end
$var reg 16 x" knownSinkCount [15:0] $end
$var reg 16 y" n [15:0] $end
$var reg 16 z" neighborCount [15:0] $end
$var reg 16 {" neighborCount_buf [15:0] $end
$var reg 1 |" reinit_buf $end
$var reg 16 }" sinkID_address_buf [15:0] $end
$var reg 5 ~" state [4:0] $end
$var reg 1 !# wr_en_buf $end
$upscope $end
$scope module mdi_mux $end
$var wire 16 "# in0 [15:0] $end
$var wire 16 ## in1 [15:0] $end
$var wire 16 $# in2 [15:0] $end
$var wire 16 %# in4 [15:0] $end
$var wire 16 &# in5 [15:0] $end
$var wire 16 '# in6 [15:0] $end
$var wire 16 (# in7 [15:0] $end
$var wire 16 )# out [15:0] $end
$var wire 3 *# select [2:0] $end
$var wire 16 +# in3 [15:0] $end
$var reg 16 ,# out_buf [15:0] $end
$upscope $end
$scope module mem1 $end
$var wire 16 -# address [15:0] $end
$var wire 1 b clock $end
$var wire 16 .# data_in [15:0] $end
$var wire 16 /# data_out [15:0] $end
$var wire 1 ' wr_en $end
$var reg 16 0# data_out_buf [15:0] $end
$upscope $end
$scope module nsioc1 $end
$var wire 16 1# MY_CLUSTER_ID [15:0] $end
$var wire 16 2# address [15:0] $end
$var wire 1 b clock $end
$var wire 16 3# data_in [15:0] $end
$var wire 16 4# data_out [15:0] $end
$var wire 1 G done $end
$var wire 1 B forAggregation $end
$var wire 1 j nrst $end
$var wire 1 K start $end
$var wire 1 , wr_en $end
$var reg 16 5# address_count [15:0] $end
$var reg 16 6# clusterID [15:0] $end
$var reg 16 7# data_out_buf [15:0] $end
$var reg 1 8# done_buf $end
$var reg 1 9# forAggregation_buf $end
$var reg 16 :# i [15:0] $end
$var reg 16 ;# j [15:0] $end
$var reg 16 <# knownSinkCount [15:0] $end
$var reg 16 =# knownSinks [15:0] $end
$var reg 16 ># neighborCount [15:0] $end
$var reg 16 ?# neighborID [15:0] $end
$var reg 3 @# state [2:0] $end
$var reg 1 A# wr_en_buf $end
$upscope $end
$scope module rad1 $end
$var wire 1 b clock $end
$var wire 1 F done_rng_address $end
$var wire 1 j nrst $end
$var wire 16 B# rng_address [15:0] $end
$var wire 16 C# which [15:0] $end
$var wire 1 1 start_rng_address $end
$var wire 16 D# betterNeighborCount [15:0] $end
$var reg 1 E# done_rng_address_buf $end
$var reg 16 F# rng_address_buf [15:0] $end
$var reg 3 G# state [2:0] $end
$upscope $end
$scope module rng1 $end
$var wire 16 H# address [15:0] $end
$var wire 1 b clock $end
$var wire 1 ? internalmux_select $end
$var wire 16 I# mem_data_out [15:0] $end
$var wire 1 j nrst $end
$var wire 16 J# rng_out [15:0] $end
$var wire 16 K# rng_out_4bit [15:0] $end
$var reg 16 L# address_count [15:0] $end
$var reg 1 M# feedback $end
$var reg 1 N# internalmux_select_buf $end
$var reg 16 O# rng_out_buf [15:0] $end
$var reg 3 P# state [2:0] $end
$upscope $end
$scope module sma1 $end
$var wire 16 Q# action [15:0] $end
$var wire 16 R# address [15:0] $end
$var wire 1 b clock $end
$var wire 16 S# data_out [15:0] $end
$var wire 1 E done $end
$var wire 1 A forAggregation $end
$var wire 16 T# nextsinks [15:0] $end
$var wire 1 j nrst $end
$var wire 16 U# rng_in [15:0] $end
$var wire 1 ' wr_en $end
$var wire 1 D start $end
$var wire 16 V# nexthop [15:0] $end
$var reg 16 W# action_buf [15:0] $end
$var reg 16 X# address_count [15:0] $end
$var reg 16 Y# data_out_buf [15:0] $end
$var reg 1 Z# done_buf $end
$var reg 1 [# forAggregation_buf $end
$var reg 3 \# state [2:0] $end
$var reg 1 ]# wr_en_buf $end
$upscope $end
$scope module wp1 $end
$var wire 16 ^# MY_NODE_ID [15:0] $end
$var wire 16 _# address [15:0] $end
$var wire 16 `# besthop [15:0] $end
$var wire 16 a# bestneighborID [15:0] $end
$var wire 16 b# bestvalue [15:0] $end
$var wire 16 c# betterNeighborCount [15:0] $end
$var wire 1 b clock $end
$var wire 16 d# data_in [15:0] $end
$var wire 1 F done_rng_address $end
$var wire 1 D done_winnerPolicy $end
$var wire 16 e# epsilon [15:0] $end
$var wire 16 f# epsilon_step [15:0] $end
$var wire 2 g# mux_select [1:0] $end
$var wire 16 h# mybest [15:0] $end
$var wire 16 i# nexthop [15:0] $end
$var wire 1 j nrst $end
$var wire 16 j# rng_address [15:0] $end
$var wire 16 k# rng_out [15:0] $end
$var wire 16 l# rng_out_4bit [15:0] $end
$var wire 1 1 start_rngAddress $end
$var wire 1 M start_winnerPolicy $end
$var wire 16 m# which [15:0] $end
$var reg 26 n# _left [25:0] $end
$var reg 32 o# _left2 [31:0] $end
$var reg 26 p# _right [25:0] $end
$var reg 32 q# _right2 [31:0] $end
$var reg 16 r# address_count [15:0] $end
$var reg 16 s# betterNeighborCount_buf [15:0] $end
$var reg 1 t# done_winnerPolicy_buf $end
$var reg 16 u# epsilon_buf [15:0] $end
$var reg 16 v# epsilon_temp [15:0] $end
$var reg 16 w# explore_constant [15:0] $end
$var reg 32 x# mybest_shifted [31:0] $end
$var reg 16 y# nexthop_buf [15:0] $end
$var reg 10 z# nineninenine [9:0] $end
$var reg 1 {# one $end
$var reg 6 |# onezerozeroone [5:0] $end
$var reg 16 }# rng_address_temp [15:0] $end
$var reg 1 ~# start_rngAddress_buf $end
$var reg 5 !$ state [4:0] $end
$var reg 1 "$ three $end
$var reg 1 #$ two $end
$var reg 16 $$ which_buf [15:0] $end
$upscope $end
$scope module wren_mux $end
$var wire 1 / in0 $end
$var wire 1 . in1 $end
$var wire 1 - in2 $end
$var wire 1 , in3 $end
$var wire 1 ( in4 $end
$var wire 1 + in5 $end
$var wire 1 ) in6 $end
$var wire 1 * in7 $end
$var wire 1 ' out $end
$var wire 3 %$ select [2:0] $end
$var reg 1 &$ out_buf $end
$upscope $end
$upscope $end
$enddefinitions $end
#0
$dumpvars
x&$
bx %$
bx $$
x#$
x"$
bx !$
x~#
bx }#
bx |#
x{#
bx z#
bx y#
bx x#
bx w#
bx v#
bx u#
xt#
bx s#
bx r#
bx q#
bx p#
bx o#
bx n#
bx m#
b0xxxx l#
bx k#
bx j#
bx i#
bx h#
bz g#
b1 f#
b10 e#
bx d#
bx c#
bx b#
bx a#
bx `#
bx _#
b11 ^#
x]#
bx \#
x[#
xZ#
bx Y#
bx X#
bx W#
bx V#
bx U#
bx T#
bx S#
bx R#
bx Q#
bx P#
bx O#
xN#
xM#
bx L#
b0xxxx K#
bx J#
bx I#
bx H#
bx G#
bx F#
xE#
bx D#
bx C#
bx B#
xA#
bx @#
bx ?#
bx >#
bx =#
bx <#
bx ;#
bx :#
x9#
x8#
bx 7#
bx 6#
bx 5#
bx 4#
bx 3#
bx 2#
b1 1#
bx 0#
bx /#
bx .#
bx -#
bx ,#
bx +#
bx *#
bx )#
bz (#
bz '#
bx &#
bz %#
bx $#
b0x ##
bx "#
x!#
bx ~"
bx }"
x|"
bx {"
bx z"
bx y"
bx x"
bx w"
xv"
xu"
bx t"
bx s"
bx r"
bx q"
bx p"
bx o"
b1 n"
b1 m"
b1 l"
b1010 k"
bx j"
bx i"
xh"
bx g"
bx f"
bx e"
bx d"
bx c"
bx b"
bx a"
bx `"
bx _"
bx ^"
bx ]"
x\"
bx ["
bx Z"
bx Y"
bx X"
bx W"
bx V"
bx U"
bx T"
bx S"
bx R"
bx Q"
xP"
bx O"
bx N"
bx M"
bx L"
bx K"
bx J"
b1 I"
xH"
bx G"
bx F"
bx E"
bx D"
bx C"
bx B"
bx A"
bx @"
bx ?"
bx >"
x="
bx <"
bx ;"
bx :"
bx 9"
bx 8"
bx 7"
bx 6"
bx 5"
bx 4"
bx 3"
bx 2"
bx 1"
bx 0"
bx /"
bx ."
bx -"
bx ,"
bx +"
bx *"
b1 )"
x("
bx '"
x&"
x%"
x$"
bx #"
bx ""
bx !"
b0x ~
bx }
bx |
x{
xz
b11 y
b11 x
bx w
bx v
bx u
bx t
bx s
bx r
bx q
bx p
bx o
bx n
bx m
b10110 l
1k
1j
b1 i
b11 h
b1 g
b1 f
b1010 e
b1 d
b10 c
0b
bx a
bx `
b11 _
b1 ^
b1 ]
bx \
bx [
bx Z
bx Y
bx X
bx W
bx V
bx U
bx T
bx S
bx R
bx Q
bx P
bx O
bx N
xM
xL
xK
xJ
xI
xH
xG
xF
xE
xD
xC
xB
xA
x@
x?
bx >
b0x =
bx <
bx ;
bx :
bx 9
bx 8
bx 7
bx 6
x5
bx 4
bx 3
b0xxxx 2
x1
bx 0
x/
x.
x-
x,
x+
z*
z)
z(
x'
bz &
bx %
bz $
bz #
bz "
bx !
$end
#5000
0j
#10000
b100 9
b100 !"
b100 1"
b100 L"
b100 Y"
b100 o"
b100 /#
b100 3#
b100 I#
b100 d#
b100 0#
b11010001010 R
b11010001010 n
b11010001010 -#
b11010001010 w
0&$
b0 a
b0 o
b0 *#
b0 %$
b11111111110 !
b11111111110 m
b11111111110 `
1M#
b101 2
b101 K#
b101 l#
b0 w"
b0 y"
05
0|"
0v"
b0 ~"
b11010001010 [
b11010001010 v
b11010001010 i"
b11010001010 p"
0/
0!#
0H
0u"
b0 '"
b0 Z
b0 u
b0 }
b0 ""
0.
0("
0I
0%"
0C
0&"
b0 |
0J
0z
0@
0{
b0 _"
b0 ^"
b0 ]"
b0 f"
b11010001010 Y
b11010001010 t
b11010001010 W"
b11010001010 Z"
0-
0h"
0K
0\"
b0 ;#
b0 :#
b0 @#
b11010001000 X
b11010001000 s
b11010001000 2#
b11010001000 5#
0,
0A#
0G
08#
0B
09#
b0 Q"
b11 O"
b0 V"
b1111111111111110 8
b1111111111111110 0"
b1111111111111110 K"
b1111111111111110 h#
b1111111111111110 S"
0L
0P"
b0 @"
b0 ?"
b0 >"
b0 G"
b1000001 6
b1000001 /"
b1000001 T#
b1000001 E"
b0 2"
b1111111111111110 O
b1111111111111110 -"
b1111111111111110 b#
b1111111111111110 8"
b1000001 Q
b1000001 +"
b1000001 `#
b1000001 6"
b0 9"
b0 :"
b11010001000 V
b11010001000 q
b11010001000 *"
b11010001000 4"
0+
0H"
0M
0="
1?
1N#
b11111111110 U
b11111111110 H#
b11111111110 L#
b1 P#
b101 3
b101 J#
b101 U#
b101 k#
b101 O#
0F
0E#
b0 G#
b0 4
b0 B#
b0 j#
b0 F#
b100001 |#
b1111111111 z#
b10 u#
b1100100 7
b1100100 V#
b1100100 i#
b1100100 y#
b0 !$
b0 \#
0A
0[#
0E
0Z#
b11010001010 W
b11010001010 r
b11010001010 J"
b11010001010 N"
01
0~#
0D
0t#
1b
#20000
0b
#30000
bx !
bx m
bx `
b100 2
b100 K#
b100 l#
0?
0N#
b10 P#
b100 3
b100 J#
b100 U#
b100 k#
b100 O#
b1 ~"
1b
1j
#40000
0b
#50000
b101 9
b101 !"
b101 1"
b101 L"
b101 Y"
b101 o"
b101 /#
b101 3#
b101 I#
b101 d#
b101 0#
b11010001000 R
b11010001000 n
b11010001000 -#
b11010001000 w
0M#
b1001 2
b1001 K#
b1001 l#
b11010001000 [
b11010001000 v
b11010001000 i"
b11010001000 p"
b10 ~"
b100 z"
b1001 3
b1001 J#
b1001 U#
b1001 k#
b1001 O#
1b
#60000
0b
#70000
1M#
b10 2
b10 K#
b10 l#
b10010 3
b10010 J#
b10010 U#
b10010 k#
b10010 O#
b11 ~"
b101 x"
1b
#80000
0b
#90000
b1 9
b1 !"
b1 1"
b1 L"
b1 Y"
b1 o"
b1 /#
b1 3#
b1 I#
b1 d#
b1 0#
b1001000 R
b1001000 n
b1001000 -#
b1001000 w
b101 2
b101 K#
b101 l#
b100 ~"
b1001000 [
b1001000 v
b1001000 i"
b1001000 p"
b100101 3
b100101 J#
b100101 U#
b100101 k#
b100101 O#
1b
#100000
0b
#110000
0M#
b1011 2
b1011 K#
b1011 l#
b1001011 3
b1001011 J#
b1001011 U#
b1001011 k#
b1001011 O#
b1001001000 }"
b101 ~"
1v"
b1 r"
1b
#120000
0b
#130000
b10 9
b10 !"
b10 1"
b10 L"
b10 Y"
b10 o"
b10 /#
b10 3#
b10 I#
b10 d#
b10 0#
b1000 R
b1000 n
b1000 -#
b1000 w
1M#
b110 2
b110 K#
b110 l#
b110 ~"
b1000 [
b1000 v
b1000 i"
b1000 p"
b10010110 3
b10010110 J#
b10010110 U#
b10010110 k#
b10010110 O#
1b
#140000
0b
#150000
b1010 9
b1010 !"
b1010 1"
b1010 L"
b1010 Y"
b1010 o"
b1010 /#
b1010 3#
b1010 I#
b1010 d#
b1010 0#
0M#
b1101 2
b1101 K#
b1101 l#
b1001001000 R
b1001001000 n
b1001001000 -#
b1001001000 w
b100101101 3
b100101101 J#
b100101101 U#
b100101101 k#
b100101101 O#
b111 ~"
b1001001000 [
b1001001000 v
b1001001000 i"
b1001001000 p"
1&$
b10 ,#
1/
1!#
b10 >
b10 j"
b10 "#
b10 t"
b10 q"
1b
#160000
0b
#170000
0&$
b1010 2
b1010 K#
b1010 l#
b101 ~"
0/
0!#
b1001011010 3
b1001011010 J#
b1001011010 U#
b1001011010 k#
b1001011010 O#
b1 w"
1b
#180000
0b
#190000
b101 9
b101 !"
b101 1"
b101 L"
b101 Y"
b101 o"
b101 /#
b101 3#
b101 I#
b101 d#
b101 0#
1M#
b100 2
b100 K#
b100 l#
b1010 R
b1010 n
b1010 -#
b1010 w
b10010110100 3
b10010110100 J#
b10010110100 U#
b10010110100 k#
b10010110100 O#
b110 ~"
b1010 [
b1010 v
b1010 i"
b1010 p"
1b
#200000
0b
#210000
b10101011 9
b10101011 !"
b10101011 1"
b10101011 L"
b10101011 Y"
b10101011 o"
b10101011 /#
b10101011 3#
b10101011 I#
b10101011 d#
b10101011 0#
b1001001010 R
b1001001010 n
b1001001010 -#
b1001001010 w
0M#
b1001 2
b1001 K#
b1001 l#
b111 ~"
b1001001010 [
b1001001010 v
b1001001010 i"
b1001001010 p"
b100101101001 3
b100101101001 J#
b100101101001 U#
b100101101001 k#
b100101101001 O#
1&$
b101 ,#
1/
1!#
b101 >
b101 j"
b101 "#
b101 t"
b101 q"
1b
#220000
0b
#230000
b10 2
b10 K#
b10 l#
0&$
b1001011010010 3
b1001011010010 J#
b1001011010010 U#
b1001011010010 k#
b1001011010010 O#
b101 ~"
0/
0!#
b10 w"
1b
#240000
0b
#250000
b1010 9
b1010 !"
b1010 1"
b1010 L"
b1010 Y"
b1010 o"
b1010 /#
b1010 3#
b1010 I#
b1010 d#
b1010 0#
b1100 R
b1100 n
b1100 -#
b1100 w
1M#
b100 2
b100 K#
b100 l#
b110 ~"
b1100 [
b1100 v
b1100 i"
b1100 p"
b10010110100100 3
b10010110100100 J#
b10010110100100 U#
b10010110100100 k#
b10010110100100 O#
1b
#260000
0b
#270000
b11001101 9
b11001101 !"
b11001101 1"
b11001101 L"
b11001101 Y"
b11001101 o"
b11001101 /#
b11001101 3#
b11001101 I#
b11001101 d#
b11001101 0#
b1001 2
b1001 K#
b1001 l#
b1001001100 R
b1001001100 n
b1001001100 -#
b1001001100 w
b100101101001001 3
b100101101001001 J#
b100101101001001 U#
b100101101001001 k#
b100101101001001 O#
b111 ~"
b1001001100 [
b1001001100 v
b1001001100 i"
b1001001100 p"
1&$
b1010 ,#
1/
1!#
b1010 >
b1010 j"
b1010 "#
b1010 t"
b1010 q"
1b
#280000
0b
#290000
0&$
b11 2
b11 K#
b11 l#
b101 ~"
0/
0!#
b1001011010010011 3
b1001011010010011 J#
b1001011010010011 U#
b1001011010010011 k#
b1001011010010011 O#
b11 w"
1b
#300000
0b
#310000
b10101011 9
b10101011 !"
b10101011 1"
b10101011 L"
b10101011 Y"
b10101011 o"
b10101011 /#
b10101011 3#
b10101011 I#
b10101011 d#
b10101011 0#
b111 2
b111 K#
b111 l#
b1110 R
b1110 n
b1110 -#
b1110 w
b10110100100111 3
b10110100100111 J#
b10110100100111 U#
b10110100100111 k#
b10110100100111 O#
b110 ~"
b1110 [
b1110 v
b1110 i"
b1110 p"
1b
#320000
0b
#330000
bx 9
bx !"
bx 1"
bx L"
bx Y"
bx o"
bx /#
bx 3#
bx I#
bx d#
bx 0#
b1001001110 R
b1001001110 n
b1001001110 -#
b1001001110 w
0M#
b1111 2
b1111 K#
b1111 l#
b111 ~"
b1001001110 [
b1001001110 v
b1001001110 i"
b1001001110 p"
b101101001001111 3
b101101001001111 J#
b101101001001111 U#
b101101001001111 k#
b101101001001111 O#
1&$
b10101011 ,#
1/
1!#
b10101011 >
b10101011 j"
b10101011 "#
b10101011 t"
b10101011 q"
1b
#340000
0b
#350000
b1110 2
b1110 K#
b1110 l#
0&$
b1011010010011110 3
b1011010010011110 J#
b1011010010011110 U#
b1011010010011110 k#
b1011010010011110 O#
b101 ~"
0/
0!#
b100 w"
1b
#360000
0b
#370000
b11001101 9
b11001101 !"
b11001101 1"
b11001101 L"
b11001101 Y"
b11001101 o"
b11001101 /#
b11001101 3#
b11001101 I#
b11001101 d#
b11001101 0#
b10000 R
b10000 n
b10000 -#
b10000 w
1M#
b1100 2
b1100 K#
b1100 l#
b110 ~"
b10000 [
b10000 v
b10000 i"
b10000 p"
b110100100111100 3
b110100100111100 J#
b110100100111100 U#
b110100100111100 k#
b110100100111100 O#
1b
#380000
0b
#390000
bx 9
bx !"
bx 1"
bx L"
bx Y"
bx o"
bx /#
bx 3#
bx I#
bx d#
bx 0#
b1001 2
b1001 K#
b1001 l#
b1001010000 R
b1001010000 n
b1001010000 -#
b1001010000 w
b1101001001111001 3
b1101001001111001 J#
b1101001001111001 U#
b1101001001111001 k#
b1101001001111001 O#
b111 ~"
b1001010000 [
b1001010000 v
b1001010000 i"
b1001010000 p"
1&$
b11001101 ,#
1/
1!#
b11001101 >
b11001101 j"
b11001101 "#
b11001101 t"
b11001101 q"
1b
#400000
0b
#410000
0&$
0M#
b11 2
b11 K#
b11 l#
b101 ~"
0/
0!#
b1010010011110011 3
b1010010011110011 J#
b1010010011110011 U#
b1010010011110011 k#
b1010010011110011 O#
b101 w"
1b
#420000
0b
#430000
b0 9
b0 !"
b0 1"
b0 L"
b0 Y"
b0 o"
b0 /#
b0 3#
b0 I#
b0 d#
b0 0#
b110 2
b110 K#
b110 l#
b1 R
b1 n
b1 -#
b1 w
b101 ,#
b100100111100110 3
b100100111100110 J#
b100100111100110 U#
b100100111100110 k#
b100100111100110 O#
b1000 ~"
b1 [
b1 v
b1 i"
b1 p"
b101 >
b101 j"
b101 "#
b101 t"
1b
#440000
0b
#450000
bx 9
bx !"
bx 1"
bx L"
bx Y"
bx o"
bx /#
bx 3#
bx I#
bx d#
bx 0#
1&$
b101001000 R
b101001000 n
b101001000 -#
b101001000 w
b1 ,#
b1100 2
b1100 K#
b1100 l#
b1001 ~"
1/
1!#
b101001000 [
b101001000 v
b101001000 i"
b101001000 p"
b1 >
b1 j"
b1 "#
b1 t"
b1001001111001100 3
b1001001111001100 J#
b1001001111001100 U#
b1001001111001100 k#
b1001001111001100 O#
1b
#460000
0b
#470000
b1000 2
b1000 K#
b1000 l#
0&$
b1010 9
b1010 !"
b1010 1"
b1010 L"
b1010 Y"
b1010 o"
b1010 /#
b1010 3#
b1010 I#
b1010 d#
b1010 0#
b10011110011000 3
b10011110011000 J#
b10011110011000 U#
b10011110011000 k#
b10011110011000 O#
b1010 ~"
0/
0!#
b111001000 R
b111001000 n
b111001000 -#
b111001000 w
b111001000 [
b111001000 v
b111001000 i"
b111001000 p"
1b
#480000
0b
#490000
b0 9
b0 !"
b0 1"
b0 L"
b0 Y"
b0 o"
b0 /#
b0 3#
b0 I#
b0 d#
b0 0#
b0 R
b0 n
b0 -#
b0 w
b1 a
b1 o
b1 *#
b1 %$
0&$
b0x ,#
b0 2
b0 K#
b0 l#
b1011 ~"
1H
1u"
1/
1!#
b1010 >
b1010 j"
b1010 "#
b1010 t"
b100111100110000 3
b100111100110000 J#
b100111100110000 U#
b100111100110000 k#
b100111100110000 O#
b1010 s"
1b
#500000
0b
#510000
1M#
b1001111001100000 3
b1001111001100000 J#
b1001111001100000 U#
b1001111001100000 k#
b1001111001100000 O#
0/
0!#
b1 '"
1b
#520000
0b
#530000
0M#
b1 2
b1 K#
b1 l#
b11110011000001 3
b11110011000001 J#
b11110011000001 U#
b11110011000001 k#
b11110011000001 O#
b11 '"
b0 #"
1b
#540000
0b
#550000
1M#
b10 2
b10 K#
b10 l#
b111100110000010 3
b111100110000010 J#
b111100110000010 U#
b111100110000010 k#
b111100110000010 O#
b1 |
1I
1%"
1b
#560000
0b
#570000
0M#
b101 2
b101 K#
b101 l#
b1111001100000101 3
b1111001100000101 J#
b1111001100000101 U#
b1111001100000101 k#
b1111001100000101 O#
b10 |
1@
1{
1b
#580000
0b
#590000
b100 9
b100 !"
b100 1"
b100 L"
b100 Y"
b100 o"
b100 /#
b100 3#
b100 I#
b100 d#
b100 0#
b11010001010 R
b11010001010 n
b11010001010 -#
b11010001010 w
bx ,#
b1010 2
b1010 K#
b1010 l#
b10 a
b10 o
b10 *#
b10 %$
b1110011000001010 3
b1110011000001010 J#
b1110011000001010 U#
b1110011000001010 k#
b1110011000001010 O#
b1 f"
1J
1z
1b
#600000
0b
