testbench.vcd
$date
	Wed Feb 28 12:40:11 2018
$end
$version
	Icarus Verilog
$end
$timescale
	1ps
$end
$scope module testbench $end
$var wire 16 ! addr_0 [15:0] $end
$var wire 16 " addr_2 [15:0] $end
$var wire 16 # addr_4 [15:0] $end
$var wire 16 $ addr_5 [15:0] $end
$var wire 16 % addr_6 [15:0] $end
$var wire 16 & addr_7 [15:0] $end
$var wire 16 ' mem_data_out [15:0] $end
$var wire 1 ( iamForwarding $end
$var wire 1 ) forAggregation2 $end
$var wire 1 * forAggregation1 $end
$var wire 1 + done_neighborSinkInOtherCluster $end
$var wire 1 , done_iamSink $end
$var wire 1 - done_iamForwarding $end
$var wire 16 . address [15:0] $end
$var wire 16 / addr_3 [15:0] $end
$var wire 16 0 addr_1 [15:0] $end
$var reg 16 1 MY_CLUSTER_ID [15:0] $end
$var reg 16 2 MY_NODE_ID [15:0] $end
$var reg 3 3 addr_select [2:0] $end
$var reg 1 4 clock $end
$var reg 16 5 destinationID [15:0] $end
$var reg 1 6 done_learnCost $end
$var reg 16 7 mem_data_in [15:0] $end
$var reg 1 8 nrst $end
$var reg 1 9 wr_en $end
$var integer 32 : i [31:0] $end
$scope module addr_mux $end
$var wire 16 ; in0 [15:0] $end
$var wire 16 < in2 [15:0] $end
$var wire 16 = in4 [15:0] $end
$var wire 16 > in5 [15:0] $end
$var wire 16 ? in6 [15:0] $end
$var wire 16 @ in7 [15:0] $end
$var wire 16 A out [15:0] $end
$var wire 3 B select [2:0] $end
$var wire 16 C in3 [15:0] $end
$var wire 16 D in1 [15:0] $end
$var reg 16 E out_buf [15:0] $end
$upscope $end
$scope module aif1 $end
$var wire 16 F MY_NODE_ID [15:0] $end
$var wire 1 4 clock $end
$var wire 16 G destinationID [15:0] $end
$var wire 1 - done $end
$var wire 1 ( iamForwarding $end
$var wire 1 8 nrst $end
$var wire 1 , start $end
$var reg 1 H done_buf $end
$var reg 1 I iamForwarding_buf $end
$upscope $end
$scope module ais1 $end
$var wire 16 J MY_NODE_ID [15:0] $end
$var wire 16 K address [15:0] $end
$var wire 1 4 clock $end
$var wire 1 , done $end
$var wire 1 * forAggregation $end
$var wire 1 8 nrst $end
$var wire 1 6 start $end
$var wire 16 L data_in [15:0] $end
$var reg 16 M address_count [15:0] $end
$var reg 1 N done_buf $end
$var reg 1 O forAggregation_buf $end
$upscope $end
$scope module mem1 $end
$var wire 16 P address [15:0] $end
$var wire 1 4 clock $end
$var wire 16 Q data_in [15:0] $end
$var wire 16 R data_out [15:0] $end
$var wire 1 9 wr_en $end
$var reg 16 S data_out_buf [15:0] $end
$upscope $end
$scope module nsioc1 $end
$var wire 16 T MY_CLUSTER_ID [15:0] $end
$var wire 16 U address [15:0] $end
$var wire 1 4 clock $end
$var wire 16 V data_in [15:0] $end
$var wire 1 + done $end
$var wire 1 ) forAggregation $end
$var wire 1 8 nrst $end
$var wire 1 - start $end
$var reg 16 W address_count [15:0] $end
$var reg 16 X clusterID [15:0] $end
$var reg 1 Y done_buf $end
$var reg 1 Z forAggregation_buf $end
$var reg 16 [ i [15:0] $end
$var reg 16 \ j [15:0] $end
$var reg 16 ] knownSinks [15:0] $end
$var reg 16 ^ neighborID [15:0] $end
$var reg 2 _ state [1:0] $end
$upscope $end
$upscope $end
$enddefinitions $end
#0
$dumpvars
bx _
bx ^
bx ]
bx \
bx [
xZ
xY
bx X
bx W
bx V
bx U
b1 T
bx S
bx R
bx Q
bx P
xO
xN
bx M
bx L
bx K
b100 J
xI
xH
b11 G
b100 F
bx E
bx D
bx C
bx B
bx A
bz @
bz ?
bz >
bz =
bz <
bz ;
b10110 :
x9
18
bx 7
16
b11 5
04
bx 3
b100 2
b1 1
bx 0
bx /
bx .
x-
x,
x+
x*
x)
x(
bx '
bz &
bz %
bz $
bz #
bz "
bz !
$end
#5000
08
#10000
b10 '
b10 L
b10 R
b10 V
b10 S
b1000 .
b1000 A
b1000 P
b1000 E
b1 3
b1 B
b1000 0
b1000 D
b1000 K
b1000 M
0,
0N
0*
0O
0-
0H
0(
0I
b0 \
b0 [
b0 _
b1001000 /
b1001000 C
b1001000 U
b1001000 W
0+
0Y
0)
0Z
14
#20000
04
#30000
b101 '
b101 L
b101 R
b101 V
b101 S
b1010 .
b1010 A
b1010 P
b1010 E
b1010 0
b1010 D
b1010 K
b1010 M
14
18
#40000
04
#50000
b1010 '
b1010 L
b1010 R
b1010 V
b1010 S
b1100 .
b1100 A
b1100 P
b1100 E
b1100 0
b1100 D
b1100 K
b1100 M
14
#60000
04
#70000
b10101011 '
b10101011 L
b10101011 R
b10101011 V
b10101011 S
b1110 .
b1110 A
b1110 P
b1110 E
b1110 0
b1110 D
b1110 K
b1110 M
14
#80000
04
#90000
b11001101 '
b11001101 L
b11001101 R
b11001101 V
b11001101 S
b10000 .
b10000 A
b10000 P
b10000 E
b10000 0
b10000 D
b10000 K
b10000 M
14
#100000
04
#110000
b11101111 '
b11101111 L
b11101111 R
b11101111 V
b11101111 S
b10010 .
b10010 A
b10010 P
b10010 E
b10010 0
b10010 D
b10010 K
b10010 M
14
#120000
04
#130000
b10011 '
b10011 L
b10011 R
b10011 V
b10011 S
b10100 .
b10100 A
b10100 P
b10100 E
b10100 0
b10100 D
b10100 K
b10100 M
14
#140000
04
#150000
b1111000 '
b1111000 L
b1111000 R
b1111000 V
b1111000 S
b10110 .
b10110 A
b10110 P
b10110 E
b10110 0
b10110 D
b10110 K
b10110 M
14
#160000
04
#170000
b1000010 '
b1000010 L
b1000010 R
b1000010 V
b1000010 S
b11000 .
b11000 A
b11000 P
b11000 E
b11000 0
b11000 D
b11000 K
b11000 M
14
#180000
04
#190000
b100011100 '
b100011100 L
b100011100 R
b100011100 V
b100011100 S
b11010 .
b11010 A
b11010 P
b11010 E
b11010 0
b11010 D
b11010 K
b11010 M
14
#200000
04
#210000
b100010001 '
b100010001 L
b100010001 R
b100010001 V
b100010001 S
b11100 .
b11100 A
b11100 P
b11100 E
b11100 0
b11100 D
b11100 K
b11100 M
14
#220000
04
#230000
b100111 '
b100111 L
b100111 R
b100111 V
b100111 S
b11110 .
b11110 A
b11110 P
b11110 E
b11110 0
b11110 D
b11110 K
b11110 M
14
#240000
04
#250000
b110110 '
b110110 L
b110110 R
b110110 V
b110110 S
b100000 .
b100000 A
b100000 P
b100000 E
b100000 0
b100000 D
b100000 K
b100000 M
14
#260000
04
#270000
b100101 '
b100101 L
b100101 R
b100101 V
b100101 S
b100010 .
b100010 A
b100010 P
b100010 E
b100010 0
b100010 D
b100010 K
b100010 M
14
#280000
04
#290000
b111111 '
b111111 L
b111111 R
b111111 V
b111111 S
b100100 .
b100100 A
b100100 P
b100100 E
b100100 0
b100100 D
b100100 K
b100100 M
14
#300000
04
#310000
b10101100 '
b10101100 L
b10101100 R
b10101100 V
b10101100 S
b100110 .
b100110 A
b100110 P
b100110 E
b100110 0
b100110 D
b100110 K
b100110 M
14
#320000
04
#330000
1,
1N
14
#340000
04
#350000
bx '
bx L
bx R
bx V
bx S
b11001000 .
b11001000 A
b11001000 P
b11001000 E
b11 3
b11 B
08
b11001000 /
b11001000 C
b11001000 U
b11001000 W
b1 _
b10101100 ^
1-
1H
14
#360000
04
#370000
b10 '
b10 L
b10 R
b10 V
b10 S
b1 3
b1 B
b1000 .
b1000 A
b1000 P
b1000 E
b1000 0
b1000 D
b1000 K
b1000 M
0,
0N
0-
0H
b0 _
b1001000 /
b1001000 C
b1001000 U
b1001000 W
14
#375000
18
#380000
04
#390000
b101 '
b101 L
b101 R
b101 V
b101 S
b1010 .
b1010 A
b1010 P
b1010 E
b1010 0
b1010 D
b1010 K
b1010 M
14
#400000
04
#410000
b1010 '
b1010 L
b1010 R
b1010 V
b1010 S
b1100 .
b1100 A
b1100 P
b1100 E
b1100 0
b1100 D
b1100 K
b1100 M
14
#420000
04
#430000
b10101011 '
b10101011 L
b10101011 R
b10101011 V
b10101011 S
b1110 .
b1110 A
b1110 P
b1110 E
b1110 0
b1110 D
b1110 K
b1110 M
14
#440000
04
#450000
b11001101 '
b11001101 L
b11001101 R
b11001101 V
b11001101 S
b10000 .
b10000 A
b10000 P
b10000 E
b10000 0
b10000 D
b10000 K
b10000 M
14
#460000
04
#470000
b11101111 '
b11101111 L
b11101111 R
b11101111 V
b11101111 S
b10010 .
b10010 A
b10010 P
b10010 E
b10010 0
b10010 D
b10010 K
b10010 M
14
#480000
04
#490000
b10011 '
b10011 L
b10011 R
b10011 V
b10011 S
b10100 .
b10100 A
b10100 P
b10100 E
b10100 0
b10100 D
b10100 K
b10100 M
14
#500000
04
#510000
b1111000 '
b1111000 L
b1111000 R
b1111000 V
b1111000 S
b10110 .
b10110 A
b10110 P
b10110 E
b10110 0
b10110 D
b10110 K
b10110 M
14
#520000
04
#530000
b1000010 '
b1000010 L
b1000010 R
b1000010 V
b1000010 S
b11000 .
b11000 A
b11000 P
b11000 E
b11000 0
b11000 D
b11000 K
b11000 M
14
#540000
04
#550000
b100011100 '
b100011100 L
b100011100 R
b100011100 V
b100011100 S
b11010 .
b11010 A
b11010 P
b11010 E
b11010 0
b11010 D
b11010 K
b11010 M
14
#560000
04
#570000
b100010001 '
b100010001 L
b100010001 R
b100010001 V
b100010001 S
b11100 .
b11100 A
b11100 P
b11100 E
b11100 0
b11100 D
b11100 K
b11100 M
14
#580000
04
#590000
b100111 '
b100111 L
b100111 R
b100111 V
b100111 S
b11110 .
b11110 A
b11110 P
b11110 E
b11110 0
b11110 D
b11110 K
b11110 M
14
#600000
04
#610000
b110110 '
b110110 L
b110110 R
b110110 V
b110110 S
b100000 .
b100000 A
b100000 P
b100000 E
b100000 0
b100000 D
b100000 K
b100000 M
14
#620000
04
#630000
b100101 '
b100101 L
b100101 R
b100101 V
b100101 S
b100010 .
b100010 A
b100010 P
b100010 E
b100010 0
b100010 D
b100010 K
b100010 M
14
#640000
04
#650000
b111111 '
b111111 L
b111111 R
b111111 V
b111111 S
b100100 .
b100100 A
b100100 P
b100100 E
b100100 0
b100100 D
b100100 K
b100100 M
14
#660000
04
#670000
b10101100 '
b10101100 L
b10101100 R
b10101100 V
b10101100 S
b100110 .
b100110 A
b100110 P
b100110 E
b100110 0
b100110 D
b100110 K
b100110 M
14
#680000
04
#690000
1,
1N
14
#700000
04
#710000
bx '
bx L
bx R
bx V
bx S
b11001000 .
b11001000 A
b11001000 P
b11001000 E
b11 3
b11 B
08
b11001000 /
b11001000 C
b11001000 U
b11001000 W
b1 _
1-
1H
14
#720000
04
#730000
b10 '
b10 L
b10 R
b10 V
b10 S
b1 3
b1 B
b1000 .
b1000 A
b1000 P
b1000 E
b1000 0
b1000 D
b1000 K
b1000 M
0,
0N
0-
0H
b0 _
b1001000 /
b1001000 C
b1001000 U
b1001000 W
14
#735000
18
#740000
04
#750000
b101 '
b101 L
b101 R
b101 V
b101 S
b1010 .
b1010 A
b1010 P
b1010 E
b1010 0
b1010 D
b1010 K
b1010 M
14
#760000
04
#770000
b1010 '
b1010 L
b1010 R
b1010 V
b1010 S
b1100 .
b1100 A
b1100 P
b1100 E
b1100 0
b1100 D
b1100 K
b1100 M
14
#780000
04
#790000
b10101011 '
b10101011 L
b10101011 R
b10101011 V
b10101011 S
b1110 .
b1110 A
b1110 P
b1110 E
b1110 0
b1110 D
b1110 K
b1110 M
14
#800000
04
#810000
b11001101 '
b11001101 L
b11001101 R
b11001101 V
b11001101 S
b10000 .
b10000 A
b10000 P
b10000 E
b10000 0
b10000 D
b10000 K
b10000 M
14
#820000
04
#830000
b11101111 '
b11101111 L
b11101111 R
b11101111 V
b11101111 S
b10010 .
b10010 A
b10010 P
b10010 E
b10010 0
b10010 D
b10010 K
b10010 M
14
#840000
04
#850000
b10011 '
b10011 L
b10011 R
b10011 V
b10011 S
b10100 .
b10100 A
b10100 P
b10100 E
b10100 0
b10100 D
b10100 K
b10100 M
14
#860000
04
#870000
b1111000 '
b1111000 L
b1111000 R
b1111000 V
b1111000 S
b10110 .
b10110 A
b10110 P
b10110 E
b10110 0
b10110 D
b10110 K
b10110 M
14
#880000
04
#890000
b1000010 '
b1000010 L
b1000010 R
b1000010 V
b1000010 S
b11000 .
b11000 A
b11000 P
b11000 E
b11000 0
b11000 D
b11000 K
b11000 M
14
#900000
04
#910000
b100011100 '
b100011100 L
b100011100 R
b100011100 V
b100011100 S
b11010 .
b11010 A
b11010 P
b11010 E
b11010 0
b11010 D
b11010 K
b11010 M
14
#920000
04
#930000
b100010001 '
b100010001 L
b100010001 R
b100010001 V
b100010001 S
b11100 .
b11100 A
b11100 P
b11100 E
b11100 0
b11100 D
b11100 K
b11100 M
14
#940000
04
#950000
b100111 '
b100111 L
b100111 R
b100111 V
b100111 S
b11110 .
b11110 A
b11110 P
b11110 E
b11110 0
b11110 D
b11110 K
b11110 M
14
#960000
04
#970000
b110110 '
b110110 L
b110110 R
b110110 V
b110110 S
b100000 .
b100000 A
b100000 P
b100000 E
b100000 0
b100000 D
b100000 K
b100000 M
14
#980000
04
#990000
b100101 '
b100101 L
b100101 R
b100101 V
b100101 S
b100010 .
b100010 A
b100010 P
b100010 E
b100010 0
b100010 D
b100010 K
b100010 M
14
#1000000
04
#1010000
b111111 '
b111111 L
b111111 R
b111111 V
b111111 S
b100100 .
b100100 A
b100100 P
b100100 E
b100100 0
b100100 D
b100100 K
b100100 M
14
#1020000
04
#1030000
b10101100 '
b10101100 L
b10101100 R
b10101100 V
b10101100 S
b100110 .
b100110 A
b100110 P
b100110 E
b100110 0
b100110 D
b100110 K
b100110 M
14
#1040000
04
#1050000
1,
1N
14
#1060000
04
#1070000
bx '
bx L
bx R
bx V
bx S
b11001000 .
b11001000 A
b11001000 P
b11001000 E
b11 3
b11 B
08
b11001000 /
b11001000 C
b11001000 U
b11001000 W
b1 _
1-
1H
14
#1080000
04
#1090000
b10 '
b10 L
b10 R
b10 V
b10 S
b1 3
b1 B
b1000 .
b1000 A
b1000 P
b1000 E
b1000 0
b1000 D
b1000 K
b1000 M
0,
0N
0-
0H
b0 _
b1001000 /
b1001000 C
b1001000 U
b1001000 W
14
#1095000
18
#1100000
04
#1110000
b101 '
b101 L
b101 R
b101 V
b101 S
b1010 .
b1010 A
b1010 P
b1010 E
b1010 0
b1010 D
b1010 K
b1010 M
14
#1120000
04
#1130000
b1010 '
b1010 L
b1010 R
b1010 V
b1010 S
b1100 .
b1100 A
b1100 P
b1100 E
b1100 0
b1100 D
b1100 K
b1100 M
14
#1140000
04
#1150000
b10101011 '
b10101011 L
b10101011 R
b10101011 V
b10101011 S
b1110 .
b1110 A
b1110 P
b1110 E
b1110 0
b1110 D
b1110 K
b1110 M
14
#1160000
04
#1170000
b11001101 '
b11001101 L
b11001101 R
b11001101 V
b11001101 S
b10000 .
b10000 A
b10000 P
b10000 E
b10000 0
b10000 D
b10000 K
b10000 M
14
#1180000
04
#1190000
b11101111 '
b11101111 L
b11101111 R
b11101111 V
b11101111 S
b10010 .
b10010 A
b10010 P
b10010 E
b10010 0
b10010 D
b10010 K
b10010 M
14
#1200000
04
#1210000
b10011 '
b10011 L
b10011 R
b10011 V
b10011 S
b10100 .
b10100 A
b10100 P
b10100 E
b10100 0
b10100 D
b10100 K
b10100 M
14
#1220000
04
#1230000
b1111000 '
b1111000 L
b1111000 R
b1111000 V
b1111000 S
b10110 .
b10110 A
b10110 P
b10110 E
b10110 0
b10110 D
b10110 K
b10110 M
14
#1240000
04
#1250000
b1000010 '
b1000010 L
b1000010 R
b1000010 V
b1000010 S
b11000 .
b11000 A
b11000 P
b11000 E
b11000 0
b11000 D
b11000 K
b11000 M
14
#1260000
04
#1270000
b100011100 '
b100011100 L
b100011100 R
b100011100 V
b100011100 S
b11010 .
b11010 A
b11010 P
b11010 E
b11010 0
b11010 D
b11010 K
b11010 M
14
#1280000
04
#1290000
b100010001 '
b100010001 L
b100010001 R
b100010001 V
b100010001 S
b11100 .
b11100 A
b11100 P
b11100 E
b11100 0
b11100 D
b11100 K
b11100 M
14
#1300000
04
#1310000
b100111 '
b100111 L
b100111 R
b100111 V
b100111 S
b11110 .
b11110 A
b11110 P
b11110 E
b11110 0
b11110 D
b11110 K
b11110 M
14
#1320000
04
#1330000
b110110 '
b110110 L
b110110 R
b110110 V
b110110 S
b100000 .
b100000 A
b100000 P
b100000 E
b100000 0
b100000 D
b100000 K
b100000 M
14
#1340000
04
#1350000
b100101 '
b100101 L
b100101 R
b100101 V
b100101 S
b100010 .
b100010 A
b100010 P
b100010 E
b100010 0
b100010 D
b100010 K
b100010 M
14
#1360000
04
#1370000
b111111 '
b111111 L
b111111 R
b111111 V
b111111 S
b100100 .
b100100 A
b100100 P
b100100 E
b100100 0
b100100 D
b100100 K
b100100 M
14
#1380000
04
#1390000
b10101100 '
b10101100 L
b10101100 R
b10101100 V
b10101100 S
b100110 .
b100110 A
b100110 P
b100110 E
b100110 0
b100110 D
b100110 K
b100110 M
14
#1400000
04
#1410000
1,
1N
14
#1420000
04
#1430000
bx '
bx L
bx R
bx V
bx S
b11001000 .
b11001000 A
b11001000 P
b11001000 E
b11 3
b11 B
08
b11001000 /
b11001000 C
b11001000 U
b11001000 W
b1 _
1-
1H
14
#1440000
04
#1450000
b10 '
b10 L
b10 R
b10 V
b10 S
b1 3
b1 B
b1000 .
b1000 A
b1000 P
b1000 E
b1000 0
b1000 D
b1000 K
b1000 M
0,
0N
0-
0H
b0 _
b1001000 /
b1001000 C
b1001000 U
b1001000 W
14
#1455000
18
#1460000
04
#1470000
b101 '
b101 L
b101 R
b101 V
b101 S
b1010 .
b1010 A
b1010 P
b1010 E
b1010 0
b1010 D
b1010 K
b1010 M
14
#1480000
04
#1490000
b1010 '
b1010 L
b1010 R
b1010 V
b1010 S
b1100 .
b1100 A
b1100 P
b1100 E
b1100 0
b1100 D
b1100 K
b1100 M
14
#1500000
04
#1510000
b10101011 '
b10101011 L
b10101011 R
b10101011 V
b10101011 S
b1110 .
b1110 A
b1110 P
b1110 E
b1110 0
b1110 D
b1110 K
b1110 M
14
#1520000
04
#1530000
b11001101 '
b11001101 L
b11001101 R
b11001101 V
b11001101 S
b10000 .
b10000 A
b10000 P
b10000 E
b10000 0
b10000 D
b10000 K
b10000 M
14
#1540000
04
#1550000
b11101111 '
b11101111 L
b11101111 R
b11101111 V
b11101111 S
b10010 .
b10010 A
b10010 P
b10010 E
b10010 0
b10010 D
b10010 K
b10010 M
14
#1560000
04
#1570000
b10011 '
b10011 L
b10011 R
b10011 V
b10011 S
b10100 .
b10100 A
b10100 P
b10100 E
b10100 0
b10100 D
b10100 K
b10100 M
14
#1580000
04
#1590000
b1111000 '
b1111000 L
b1111000 R
b1111000 V
b1111000 S
b10110 .
b10110 A
b10110 P
b10110 E
b10110 0
b10110 D
b10110 K
b10110 M
14
#1600000
04
#1610000
b1000010 '
b1000010 L
b1000010 R
b1000010 V
b1000010 S
b11000 .
b11000 A
b11000 P
b11000 E
b11000 0
b11000 D
b11000 K
b11000 M
14
#1620000
04
#1630000
b100011100 '
b100011100 L
b100011100 R
b100011100 V
b100011100 S
b11010 .
b11010 A
b11010 P
b11010 E
b11010 0
b11010 D
b11010 K
b11010 M
14
#1640000
04
#1650000
b100010001 '
b100010001 L
b100010001 R
b100010001 V
b100010001 S
b11100 .
b11100 A
b11100 P
b11100 E
b11100 0
b11100 D
b11100 K
b11100 M
14
#1660000
04
#1670000
b100111 '
b100111 L
b100111 R
b100111 V
b100111 S
b11110 .
b11110 A
b11110 P
b11110 E
b11110 0
b11110 D
b11110 K
b11110 M
14
#1680000
04
#1690000
b110110 '
b110110 L
b110110 R
b110110 V
b110110 S
b100000 .
b100000 A
b100000 P
b100000 E
b100000 0
b100000 D
b100000 K
b100000 M
14
#1700000
04
#1710000
b100101 '
b100101 L
b100101 R
b100101 V
b100101 S
b100010 .
b100010 A
b100010 P
b100010 E
b100010 0
b100010 D
b100010 K
b100010 M
14
#1720000
04
#1730000
b111111 '
b111111 L
b111111 R
b111111 V
b111111 S
b100100 .
b100100 A
b100100 P
b100100 E
b100100 0
b100100 D
b100100 K
b100100 M
14
#1740000
04
#1750000
b10101100 '
b10101100 L
b10101100 R
b10101100 V
b10101100 S
b100110 .
b100110 A
b100110 P
b100110 E
b100110 0
b100110 D
b100110 K
b100110 M
14
#1760000
04
#1770000
1,
1N
14
#1780000
04
#1790000
bx '
bx L
bx R
bx V
bx S
b11001000 .
b11001000 A
b11001000 P
b11001000 E
b11 3
b11 B
08
b11001000 /
b11001000 C
b11001000 U
b11001000 W
b1 _
1-
1H
14
#1800000
04
#1810000
b10 '
b10 L
b10 R
b10 V
b10 S
b1 3
b1 B
b1000 .
b1000 A
b1000 P
b1000 E
b1000 0
b1000 D
b1000 K
b1000 M
0,
0N
0-
0H
b0 _
b1001000 /
b1001000 C
b1001000 U
b1001000 W
14
#1815000
18
#1820000
04
#1830000
b101 '
b101 L
b101 R
b101 V
b101 S
b1010 .
b1010 A
b1010 P
b1010 E
b1010 0
b1010 D
b1010 K
b1010 M
14
#1840000
04
#1850000
b1010 '
b1010 L
b1010 R
b1010 V
b1010 S
b1100 .
b1100 A
b1100 P
b1100 E
b1100 0
b1100 D
b1100 K
b1100 M
14
#1860000
04
#1870000
b10101011 '
b10101011 L
b10101011 R
b10101011 V
b10101011 S
b1110 .
b1110 A
b1110 P
b1110 E
b1110 0
b1110 D
b1110 K
b1110 M
14
#1880000
04
#1890000
b11001101 '
b11001101 L
b11001101 R
b11001101 V
b11001101 S
b10000 .
b10000 A
b10000 P
b10000 E
b10000 0
b10000 D
b10000 K
b10000 M
14
#1900000
04
#1910000
b11101111 '
b11101111 L
b11101111 R
b11101111 V
b11101111 S
b10010 .
b10010 A
b10010 P
b10010 E
b10010 0
b10010 D
b10010 K
b10010 M
14
#1920000
04
#1930000
b10011 '
b10011 L
b10011 R
b10011 V
b10011 S
b10100 .
b10100 A
b10100 P
b10100 E
b10100 0
b10100 D
b10100 K
b10100 M
14
#1940000
04
#1950000
b1111000 '
b1111000 L
b1111000 R
b1111000 V
b1111000 S
b10110 .
b10110 A
b10110 P
b10110 E
b10110 0
b10110 D
b10110 K
b10110 M
14
#1960000
04
#1970000
b1000010 '
b1000010 L
b1000010 R
b1000010 V
b1000010 S
b11000 .
b11000 A
b11000 P
b11000 E
b11000 0
b11000 D
b11000 K
b11000 M
14
#1980000
04
#1990000
b100011100 '
b100011100 L
b100011100 R
b100011100 V
b100011100 S
b11010 .
b11010 A
b11010 P
b11010 E
b11010 0
b11010 D
b11010 K
b11010 M
14
#2000000
04
#2010000
b100010001 '
b100010001 L
b100010001 R
b100010001 V
b100010001 S
b11100 .
b11100 A
b11100 P
b11100 E
b11100 0
b11100 D
b11100 K
b11100 M
14
#2020000
04
#2030000
b100111 '
b100111 L
b100111 R
b100111 V
b100111 S
b11110 .
b11110 A
b11110 P
b11110 E
b11110 0
b11110 D
b11110 K
b11110 M
14
#2040000
04
#2050000
b110110 '
b110110 L
b110110 R
b110110 V
b110110 S
b100000 .
b100000 A
b100000 P
b100000 E
b100000 0
b100000 D
b100000 K
b100000 M
14
#2060000
04
#2070000
b100101 '
b100101 L
b100101 R
b100101 V
b100101 S
b100010 .
b100010 A
b100010 P
b100010 E
b100010 0
b100010 D
b100010 K
b100010 M
14
#2080000
04
#2090000
b111111 '
b111111 L
b111111 R
b111111 V
b111111 S
b100100 .
b100100 A
b100100 P
b100100 E
b100100 0
b100100 D
b100100 K
b100100 M
14
#2100000
04
#2110000
b10101100 '
b10101100 L
b10101100 R
b10101100 V
b10101100 S
b100110 .
b100110 A
b100110 P
b100110 E
b100110 0
b100110 D
b100110 K
b100110 M
14
#2120000
04
#2130000
1,
1N
14
#2140000
04
#2150000
bx '
bx L
bx R
bx V
bx S
b11001000 .
b11001000 A
b11001000 P
b11001000 E
b11 3
b11 B
08
b11001000 /
b11001000 C
b11001000 U
b11001000 W
b1 _
1-
1H
14
#2160000
04
#2170000
b10 '
b10 L
b10 R
b10 V
b10 S
b1 3
b1 B
b1000 .
b1000 A
b1000 P
b1000 E
b1000 0
b1000 D
b1000 K
b1000 M
0,
0N
0-
0H
b0 _
b1001000 /
b1001000 C
b1001000 U
b1001000 W
14
#2175000
18
#2180000
04
#2190000
b101 '
b101 L
b101 R
b101 V
b101 S
b1010 .
b1010 A
b1010 P
b1010 E
b1010 0
b1010 D
b1010 K
b1010 M
14
#2200000
04
#2210000
b1010 '
b1010 L
b1010 R
b1010 V
b1010 S
b1100 .
b1100 A
b1100 P
b1100 E
b1100 0
b1100 D
b1100 K
b1100 M
14
#2220000
04
#2230000
b10101011 '
b10101011 L
b10101011 R
b10101011 V
b10101011 S
b1110 .
b1110 A
b1110 P
b1110 E
b1110 0
b1110 D
b1110 K
b1110 M
14
#2240000
04
#2250000
b11001101 '
b11001101 L
b11001101 R
b11001101 V
b11001101 S
b10000 .
b10000 A
b10000 P
b10000 E
b10000 0
b10000 D
b10000 K
b10000 M
14
#2260000
04
#2270000
b11101111 '
b11101111 L
b11101111 R
b11101111 V
b11101111 S
b10010 .
b10010 A
b10010 P
b10010 E
b10010 0
b10010 D
b10010 K
b10010 M
14
#2280000
04
#2290000
b10011 '
b10011 L
b10011 R
b10011 V
b10011 S
b10100 .
b10100 A
b10100 P
b10100 E
b10100 0
b10100 D
b10100 K
b10100 M
14
#2300000
04
#2310000
b1111000 '
b1111000 L
b1111000 R
b1111000 V
b1111000 S
b10110 .
b10110 A
b10110 P
b10110 E
b10110 0
b10110 D
b10110 K
b10110 M
14
#2320000
04
#2330000
b1000010 '
b1000010 L
b1000010 R
b1000010 V
b1000010 S
b11000 .
b11000 A
b11000 P
b11000 E
b11000 0
b11000 D
b11000 K
b11000 M
14
#2340000
04
#2350000
b100011100 '
b100011100 L
b100011100 R
b100011100 V
b100011100 S
b11010 .
b11010 A
b11010 P
b11010 E
b11010 0
b11010 D
b11010 K
b11010 M
14
#2360000
04
#2370000
b100010001 '
b100010001 L
b100010001 R
b100010001 V
b100010001 S
b11100 .
b11100 A
b11100 P
b11100 E
b11100 0
b11100 D
b11100 K
b11100 M
14
#2380000
04
#2390000
b100111 '
b100111 L
b100111 R
b100111 V
b100111 S
b11110 .
b11110 A
b11110 P
b11110 E
b11110 0
b11110 D
b11110 K
b11110 M
14
#2400000
04
#2410000
b110110 '
b110110 L
b110110 R
b110110 V
b110110 S
b100000 .
b100000 A
b100000 P
b100000 E
b100000 0
b100000 D
b100000 K
b100000 M
14
#2420000
04
#2430000
b100101 '
b100101 L
b100101 R
b100101 V
b100101 S
b100010 .
b100010 A
b100010 P
b100010 E
b100010 0
b100010 D
b100010 K
b100010 M
14
#2440000
04
#2450000
b111111 '
b111111 L
b111111 R
b111111 V
b111111 S
b100100 .
b100100 A
b100100 P
b100100 E
b100100 0
b100100 D
b100100 K
b100100 M
14
#2460000
04
#2470000
b10101100 '
b10101100 L
b10101100 R
b10101100 V
b10101100 S
b100110 .
b100110 A
b100110 P
b100110 E
b100110 0
b100110 D
b100110 K
b100110 M
14
#2480000
04
#2490000
1,
1N
14
#2500000
04
#2510000
bx '
bx L
bx R
bx V
bx S
b11001000 .
b11001000 A
b11001000 P
b11001000 E
b11 3
b11 B
08
b11001000 /
b11001000 C
b11001000 U
b11001000 W
b1 _
1-
1H
14
#2520000
04
#2530000
b10 '
b10 L
b10 R
b10 V
b10 S
b1 3
b1 B
b1000 .
b1000 A
b1000 P
b1000 E
b1000 0
b1000 D
b1000 K
b1000 M
0,
0N
0-
0H
b0 _
b1001000 /
b1001000 C
b1001000 U
b1001000 W
14
#2535000
18
#2540000
04
#2550000
b101 '
b101 L
b101 R
b101 V
b101 S
b1010 .
b1010 A
b1010 P
b1010 E
b1010 0
b1010 D
b1010 K
b1010 M
14
#2560000
04
#2570000
b1010 '
b1010 L
b1010 R
b1010 V
b1010 S
b1100 .
b1100 A
b1100 P
b1100 E
b1100 0
b1100 D
b1100 K
b1100 M
14
#2580000
04
#2590000
b10101011 '
b10101011 L
b10101011 R
b10101011 V
b10101011 S
b1110 .
b1110 A
b1110 P
b1110 E
b1110 0
b1110 D
b1110 K
b1110 M
14
#2600000
04
#2610000
b11001101 '
b11001101 L
b11001101 R
b11001101 V
b11001101 S
b10000 .
b10000 A
b10000 P
b10000 E
b10000 0
b10000 D
b10000 K
b10000 M
14
#2620000
04
#2630000
b11101111 '
b11101111 L
b11101111 R
b11101111 V
b11101111 S
b10010 .
b10010 A
b10010 P
b10010 E
b10010 0
b10010 D
b10010 K
b10010 M
14
#2640000
04
#2650000
b10011 '
b10011 L
b10011 R
b10011 V
b10011 S
b10100 .
b10100 A
b10100 P
b10100 E
b10100 0
b10100 D
b10100 K
b10100 M
14
#2660000
04
#2670000
b1111000 '
b1111000 L
b1111000 R
b1111000 V
b1111000 S
b10110 .
b10110 A
b10110 P
b10110 E
b10110 0
b10110 D
b10110 K
b10110 M
14
#2680000
04
#2690000
b1000010 '
b1000010 L
b1000010 R
b1000010 V
b1000010 S
b11000 .
b11000 A
b11000 P
b11000 E
b11000 0
b11000 D
b11000 K
b11000 M
14
#2700000
04
#2710000
b100011100 '
b100011100 L
b100011100 R
b100011100 V
b100011100 S
b11010 .
b11010 A
b11010 P
b11010 E
b11010 0
b11010 D
b11010 K
b11010 M
14
#2720000
04
#2730000
b100010001 '
b100010001 L
b100010001 R
b100010001 V
b100010001 S
b11100 .
b11100 A
b11100 P
b11100 E
b11100 0
b11100 D
b11100 K
b11100 M
14
#2740000
04
#2750000
b100111 '
b100111 L
b100111 R
b100111 V
b100111 S
b11110 .
b11110 A
b11110 P
b11110 E
b11110 0
b11110 D
b11110 K
b11110 M
14
#2760000
04
