top-with-enable/tb_top.vcd
$date
	Fri Mar 16 13:39:45 2018
$end
$version
	Icarus Verilog
$end
$timescale
	1ps
$end
$scope module tb_top $end
$var wire 16 ! reward_out [15:0] $end
$var wire 1 " done_reward $end
$var reg 1 # clock $end
$var reg 1 $ en $end
$var reg 16 % fValue [15:0] $end
$var reg 16 & fbatteryStat [15:0] $end
$var reg 16 ' fclusterID [15:0] $end
$var reg 16 ( fdestinationID [15:0] $end
$var reg 16 ) fsourceID [15:0] $end
$var reg 1 * nrst $end
$scope module t1 $end
$var wire 11 + addr_7 [10:0] $end
$var wire 1 # clock $end
$var wire 1 $ en $end
$var wire 16 , fValue [15:0] $end
$var wire 16 - fbatteryStat [15:0] $end
$var wire 16 . fclusterID [15:0] $end
$var wire 16 / fdestinationID [15:0] $end
$var wire 16 0 fsourceID [15:0] $end
$var wire 1 * nrst $end
$var wire 1 1 wren_7 $end
$var wire 1 2 wren_6 $end
$var wire 1 3 wren_5 $end
$var wire 1 4 wren_3 $end
$var wire 1 5 wren_2 $end
$var wire 1 6 wren_1 $end
$var wire 1 7 wren_0 $end
$var wire 1 8 wr_en $end
$var wire 16 9 which [15:0] $end
$var wire 1 : start_rngAddress $end
$var wire 16 ; rng_out_4bit [15:0] $end
$var wire 16 < rng_out [15:0] $end
$var wire 16 = rng_address [15:0] $end
$var wire 16 > reward_out [15:0] $end
$var wire 16 ? nextsinks [15:0] $end
$var wire 16 @ nexthop [15:0] $end
$var wire 16 A mybest [15:0] $end
$var wire 16 B mem_data_out [15:0] $end
$var wire 16 C mem_data_in [15:0] $end
$var wire 16 D mdi_7 [15:0] $end
$var wire 16 E mdi_6 [15:0] $end
$var wire 16 F mdi_5 [15:0] $end
$var wire 16 G mdi_3 [15:0] $end
$var wire 16 H mdi_2 [15:0] $end
$var wire 16 I mdi_1 [15:0] $end
$var wire 16 J mdi_0 [15:0] $end
$var wire 1 K iamDestination $end
$var wire 1 L forAggregation3 $end
$var wire 1 M forAggregation2 $end
$var wire 1 N forAggregation1 $end
$var wire 1 O en_rng $end
$var wire 1 P done_winnerPolicy $end
$var wire 1 Q done_selectMyAction $end
$var wire 1 R done_rngAddress $end
$var wire 1 S done_rng $end
$var wire 1 " done_reward $end
$var wire 1 T done_neighborSinkInOtherCluster $end
$var wire 1 U done_learnCosts $end
$var wire 1 V done_iamSink $end
$var wire 1 W done_iamDestination $end
$var wire 1 X done_fixSinkList $end
$var wire 1 Y done_findMyBest $end
$var wire 1 Z done_betterNeighborsInMyCluster $end
$var wire 16 [ betterNeighborCount [15:0] $end
$var wire 16 \ bestvalue [15:0] $end
$var wire 16 ] bestneighborID [15:0] $end
$var wire 16 ^ besthop [15:0] $end
$var wire 11 _ address [10:0] $end
$var wire 11 ` addr_7_1 [10:0] $end
$var wire 11 a addr_7_0 [10:0] $end
$var wire 11 b addr_6 [10:0] $end
$var wire 11 c addr_5 [10:0] $end
$var wire 11 d addr_4 [10:0] $end
$var wire 11 e addr_3 [10:0] $end
$var wire 11 f addr_2 [10:0] $end
$var wire 11 g addr_1 [10:0] $end
$var wire 11 h addr_0 [10:0] $end
$var wire 16 i action [15:0] $end
$var reg 16 j MY_BATTERY_STAT [15:0] $end
$var reg 16 k MY_CLUSTER_ID [15:0] $end
$var reg 16 l MY_NODE_ID [15:0] $end
$var reg 11 m addr_7_buf [10:0] $end
$var reg 3 n addr_select [2:0] $end
$var reg 16 o epsilon_step [15:0] $end
$var reg 16 p initial_epsilon [15:0] $end
$var reg 16 q mdi_4 [15:0] $end
$var reg 3 r state [2:0] $end
$var reg 3 s wr_select [2:0] $end
$var reg 1 t wren_4 $end
$scope module addr_mux $end
$var wire 11 u in7 [10:0] $end
$var wire 11 v out [10:0] $end
$var wire 3 w select [2:0] $end
$var wire 11 x in6 [10:0] $end
$var wire 11 y in5 [10:0] $end
$var wire 11 z in4 [10:0] $end
$var wire 11 { in3 [10:0] $end
$var wire 11 | in2 [10:0] $end
$var wire 11 } in1 [10:0] $end
$var wire 11 ~ in0 [10:0] $end
$var reg 11 !" out_buf [10:0] $end
$upscope $end
$scope module aif1 $end
$var wire 16 "" MY_NODE_ID [15:0] $end
$var wire 1 # clock $end
$var wire 16 #" destinationID [15:0] $end
$var wire 1 W done $end
$var wire 1 $ en $end
$var wire 1 K iamDestination $end
$var wire 1 * nrst $end
$var wire 1 V start $end
$var reg 1 $" done_buf $end
$var reg 1 %" iamDestination_buf $end
$var reg 3 &" state [2:0] $end
$upscope $end
$scope module ais1 $end
$var wire 11 '" address [10:0] $end
$var wire 1 # clock $end
$var wire 1 V done $end
$var wire 1 $ en $end
$var wire 1 N forAggregation $end
$var wire 1 * nrst $end
$var wire 1 6 wr_en $end
$var wire 1 U start $end
$var wire 16 (" data_out [15:0] $end
$var wire 16 )" data_in [15:0] $end
$var reg 11 *" address_count [10:0] $end
$var reg 16 +" amISink [15:0] $end
$var reg 1 ," data_out_buf $end
$var reg 1 -" done_buf $end
$var reg 1 ." forAggregation_buf $end
$var reg 3 /" state [2:0] $end
$var reg 1 0" wr_en_buf $end
$upscope $end
$scope module bnimc1 $end
$var wire 16 1" MY_CLUSTER_ID [15:0] $end
$var wire 11 2" address [10:0] $end
$var wire 16 3" besthop [15:0] $end
$var wire 16 4" bestneighborID [15:0] $end
$var wire 16 5" bestvalue [15:0] $end
$var wire 1 # clock $end
$var wire 16 6" data_out [15:0] $end
$var wire 1 Z done $end
$var wire 1 $ en $end
$var wire 16 7" nextsinks [15:0] $end
$var wire 1 * nrst $end
$var wire 1 3 wr_en $end
$var wire 1 Y start $end
$var wire 16 8" mybest [15:0] $end
$var wire 16 9" data_in [15:0] $end
$var reg 16 :" BATTERY_THRESHOLD [15:0] $end
$var reg 16 ;" HCM [15:0] $end
$var reg 11 <" address_count [10:0] $end
$var reg 16 =" batteryStat [15:0] $end
$var reg 16 >" besthop_buf [15:0] $end
$var reg 16 ?" bestneighborID_buf [15:0] $end
$var reg 16 @" bestvalue_buf [15:0] $end
$var reg 16 A" betterneighborCount [15:0] $end
$var reg 16 B" betterneighbors [15:0] $end
$var reg 16 C" clusterID [15:0] $end
$var reg 16 D" data_out_buf [15:0] $end
$var reg 1 E" done_buf $end
$var reg 32 F" fpTemp [31:0] $end
$var reg 16 G" i [15:0] $end
$var reg 16 H" j [15:0] $end
$var reg 16 I" k [15:0] $end
$var reg 16 J" knownSinkCount [15:0] $end
$var reg 16 K" knownSinks [15:0] $end
$var reg 16 L" neighborCount [15:0] $end
$var reg 16 M" neighborID [15:0] $end
$var reg 16 N" nextsinks_buf [15:0] $end
$var reg 16 O" qValue [15:0] $end
$var reg 4 P" state [3:0] $end
$var reg 1 Q" wr_en_buf $end
$upscope $end
$scope module fmb1 $end
$var wire 16 R" MY_BATTERY_STAT [15:0] $end
$var wire 11 S" address [10:0] $end
$var wire 1 # clock $end
$var wire 1 Y done $end
$var wire 1 $ en $end
$var wire 16 T" mybest [15:0] $end
$var wire 1 * nrst $end
$var wire 1 T start $end
$var wire 16 U" data_in [15:0] $end
$var reg 16 V" HCM [15:0] $end
$var reg 11 W" address_count [10:0] $end
$var reg 1 X" done_buf $end
$var reg 16 Y" k [15:0] $end
$var reg 32 Z" kTemp [31:0] $end
$var reg 16 [" l [15:0] $end
$var reg 32 \" mybestTemp [31:0] $end
$var reg 16 ]" mybest_buf [15:0] $end
$var reg 16 ^" neighborCount [15:0] $end
$var reg 16 _" qValue [15:0] $end
$var reg 4 `" state [3:0] $end
$upscope $end
$scope module fsl1 $end
$var wire 11 a" address [10:0] $end
$var wire 1 # clock $end
$var wire 16 b" data_out [15:0] $end
$var wire 1 X done $end
$var wire 1 $ en $end
$var wire 1 * nrst $end
$var wire 1 W start $end
$var wire 1 5 wr_en $end
$var wire 16 c" data_in [15:0] $end
$var reg 11 d" address_count [10:0] $end
$var reg 16 e" data_out_buf [15:0] $end
$var reg 1 f" done_buf $end
$var reg 16 g" i [15:0] $end
$var reg 16 h" j [15:0] $end
$var reg 16 i" k [15:0] $end
$var reg 16 j" knownSinkCount [15:0] $end
$var reg 16 k" knownSinks [15:0] $end
$var reg 16 l" neighborCount [15:0] $end
$var reg 16 m" qValue [15:0] $end
$var reg 16 n" sinkIDCount [15:0] $end
$var reg 16 o" sinkIDs [15:0] $end
$var reg 4 p" state [3:0] $end
$var reg 16 q" worstHops [15:0] $end
$var reg 1 r" wr_en_buf $end
$upscope $end
$scope module lc1 $end
$var wire 11 s" address [10:0] $end
$var wire 1 # clock $end
$var wire 16 t" data_out [15:0] $end
$var wire 1 U done $end
$var wire 1 $ en $end
$var wire 16 u" fValue [15:0] $end
$var wire 16 v" fbatteryStat [15:0] $end
$var wire 16 w" fclusterID [15:0] $end
$var wire 16 x" fsourceID [15:0] $end
$var wire 16 y" initial_epsilon [15:0] $end
$var wire 1 * nrst $end
$var wire 1 7 wr_en $end
$var wire 16 z" data_in [15:0] $end
$var reg 11 {" address_count [10:0] $end
$var reg 16 |" cur_knownSink [15:0] $end
$var reg 16 }" cur_nID [15:0] $end
$var reg 16 ~" cur_qValue [15:0] $end
$var reg 16 !# data_out_buf [15:0] $end
$var reg 1 "# done_buf $end
$var reg 1 ## found $end
$var reg 16 $# k [15:0] $end
$var reg 16 %# knownSinkCount [15:0] $end
$var reg 16 &# n [15:0] $end
$var reg 16 '# neighborCount [15:0] $end
$var reg 1 (# reinit $end
$var reg 16 )# sinkID_address_buf [15:0] $end
$var reg 5 *# state [4:0] $end
$var reg 1 +# wr_en_buf $end
$upscope $end
$scope module mdi_mux $end
$var wire 16 ,# in0 [15:0] $end
$var wire 16 -# in1 [15:0] $end
$var wire 16 .# in2 [15:0] $end
$var wire 16 /# in4 [15:0] $end
$var wire 16 0# in5 [15:0] $end
$var wire 16 1# out [15:0] $end
$var wire 3 2# select [2:0] $end
$var wire 16 3# in7 [15:0] $end
$var wire 16 4# in6 [15:0] $end
$var wire 16 5# in3 [15:0] $end
$var reg 16 6# out_buf [15:0] $end
$upscope $end
$scope module mem1 $end
$var wire 11 7# address [10:0] $end
$var wire 1 # clock $end
$var wire 16 8# data_in [15:0] $end
$var wire 16 9# data_out [15:0] $end
$var wire 1 8 wr_en $end
$var reg 16 :# data_out_buf [15:0] $end
$upscope $end
$scope module nsioc1 $end
$var wire 16 ;# MY_CLUSTER_ID [15:0] $end
$var wire 11 <# address [10:0] $end
$var wire 1 # clock $end
$var wire 16 =# data_in [15:0] $end
$var wire 16 ># data_out [15:0] $end
$var wire 1 T done $end
$var wire 1 $ en $end
$var wire 1 M forAggregation $end
$var wire 1 * nrst $end
$var wire 1 X start $end
$var wire 1 4 wr_en $end
$var reg 11 ?# address_count [10:0] $end
$var reg 16 @# clusterID [15:0] $end
$var reg 16 A# data_out_buf [15:0] $end
$var reg 1 B# done_buf $end
$var reg 1 C# forAggregation_buf $end
$var reg 16 D# i [15:0] $end
$var reg 16 E# j [15:0] $end
$var reg 16 F# knownSinkCount [15:0] $end
$var reg 16 G# knownSinks [15:0] $end
$var reg 16 H# neighborCount [15:0] $end
$var reg 16 I# neighborID [15:0] $end
$var reg 4 J# state [3:0] $end
$var reg 1 K# wr_en_buf $end
$upscope $end
$scope module r1 $end
$var wire 16 L# MY_CLUSTER_ID [15:0] $end
$var wire 16 M# MY_NODE_ID [15:0] $end
$var wire 11 N# address [10:0] $end
$var wire 16 O# besthop [15:0] $end
$var wire 1 # clock $end
$var wire 16 P# data_in [15:0] $end
$var wire 16 Q# data_out [15:0] $end
$var wire 1 " done $end
$var wire 1 $ en $end
$var wire 1 * nrst $end
$var wire 1 Q start $end
$var wire 16 R# action [15:0] $end
$var reg 11 S# address_count [10:0] $end
$var reg 16 T# data_out_buf [15:0] $end
$var reg 1 U# done_buf $end
$var reg 4 V# state [3:0] $end
$upscope $end
$scope module rad1 $end
$var wire 1 # clock $end
$var wire 1 R done_rng_address $end
$var wire 1 * nrst $end
$var wire 16 W# rng_address [15:0] $end
$var wire 16 X# which [15:0] $end
$var wire 1 Y# state_out $end
$var wire 1 : start_rng_address $end
$var wire 16 Z# betterNeighborCount [15:0] $end
$var reg 1 [# done_rng_address_buf $end
$var reg 16 \# rng_address_buf [15:0] $end
$var reg 3 ]# state [2:0] $end
$upscope $end
$scope module rng1 $end
$var wire 1 # clock $end
$var wire 1 S done $end
$var wire 1 * nrst $end
$var wire 16 ^# rng_out [15:0] $end
$var wire 1 _# state_out $end
$var wire 16 `# rng_out_4bit [15:0] $end
$var wire 1 O en_rng $end
$var reg 1 a# done_buf $end
$var reg 1 b# feedback $end
$var reg 16 c# rng_out_buf [15:0] $end
$var reg 3 d# state [2:0] $end
$upscope $end
$scope module sma1 $end
$var wire 16 e# action [15:0] $end
$var wire 11 f# address [10:0] $end
$var wire 1 # clock $end
$var wire 16 g# data_out [15:0] $end
$var wire 1 Q done $end
$var wire 1 $ en $end
$var wire 1 L forAggregation $end
$var wire 16 h# nextsinks [15:0] $end
$var wire 1 * nrst $end
$var wire 1 1 wr_en $end
$var wire 1 P start $end
$var wire 16 i# nexthop [15:0] $end
$var reg 16 j# action_buf [15:0] $end
$var reg 11 k# address_count [10:0] $end
$var reg 16 l# data_out_buf [15:0] $end
$var reg 1 m# done_buf $end
$var reg 1 n# forAggregation_buf $end
$var reg 3 o# state [2:0] $end
$var reg 1 p# wr_en_buf $end
$upscope $end
$scope module wp1 $end
$var wire 16 q# MY_NODE_ID [15:0] $end
$var wire 11 r# address [10:0] $end
$var wire 16 s# besthop [15:0] $end
$var wire 16 t# bestneighborID [15:0] $end
$var wire 16 u# bestvalue [15:0] $end
$var wire 16 v# betterNeighborCount [15:0] $end
$var wire 1 # clock $end
$var wire 16 w# data_in [15:0] $end
$var wire 16 x# data_out [15:0] $end
$var wire 1 R done_rng_address $end
$var wire 1 P done_winnerPolicy $end
$var wire 1 $ en $end
$var wire 1 O en_rng $end
$var wire 16 y# epsilon_step [15:0] $end
$var wire 16 z# mybest [15:0] $end
$var wire 16 {# nexthop [15:0] $end
$var wire 1 * nrst $end
$var wire 16 |# rng_address [15:0] $end
$var wire 16 }# rng_out [15:0] $end
$var wire 16 ~# rng_out_4bit [15:0] $end
$var wire 1 : start_rngAddress $end
$var wire 1 Z start_winnerPolicy $end
$var wire 16 !$ which [15:0] $end
$var wire 1 2 wr_en $end
$var reg 32 "$ _left [31:0] $end
$var reg 32 #$ _right [31:0] $end
$var reg 32 $$ _right2 [31:0] $end
$var reg 32 %$ _right3 [31:0] $end
$var reg 11 &$ address_count [10:0] $end
$var reg 16 '$ betterNeighborCount_buf [15:0] $end
$var reg 16 ($ data_out_buf [15:0] $end
$var reg 1 )$ done_winnerPolicy_buf $end
$var reg 1 *$ en_rng_buf $end
$var reg 16 +$ epsilon_buf [15:0] $end
$var reg 16 ,$ explore_constant [15:0] $end
$var reg 32 -$ mybest_shifted [31:0] $end
$var reg 16 .$ nexthop_buf [15:0] $end
$var reg 1 /$ one $end
$var reg 16 0$ rng_address_temp [15:0] $end
$var reg 1 1$ start_rngAddress_buf $end
$var reg 4 2$ state [3:0] $end
$var reg 1 3$ three $end
$var reg 1 4$ two $end
$var reg 16 5$ which_buf [15:0] $end
$var reg 1 6$ wr_en_buf $end
$upscope $end
$scope module wren_mux $end
$var wire 1 7 in0 $end
$var wire 1 6 in1 $end
$var wire 1 5 in2 $end
$var wire 1 4 in3 $end
$var wire 1 t in4 $end
$var wire 1 3 in5 $end
$var wire 1 2 in6 $end
$var wire 1 1 in7 $end
$var wire 1 8 out $end
$var wire 3 7$ select [2:0] $end
$var reg 1 8$ out_buf $end
$upscope $end
$upscope $end
$upscope $end
$enddefinitions $end
#0
$dumpvars
x8$
bx 7$
x6$
bx 5$
x4$
x3$
bx 2$
x1$
bx 0$
x/$
bx .$
bx -$
bx ,$
bx +$
x*$
x)$
bx ($
bx '$
bx &$
bx %$
bx $$
bx #$
bx "$
bx !$
b0xxxx ~#
bx }#
bx |#
bx {#
bx z#
bx y#
bx x#
bx w#
bx v#
bx u#
bx t#
bx s#
bx r#
bx q#
xp#
bx o#
xn#
xm#
bx l#
bx k#
bx j#
bx i#
bx h#
bx g#
bx f#
bx e#
bx d#
bx c#
xb#
xa#
b0xxxx `#
x_#
bx ^#
bx ]#
bx \#
x[#
bx Z#
xY#
bx X#
bx W#
bx V#
xU#
bx T#
bx S#
bx R#
bx Q#
bx P#
bx O#
bx N#
bx M#
bx L#
xK#
bx J#
bx I#
bx H#
bx G#
bx F#
bx E#
bx D#
xC#
xB#
bx A#
bx @#
bx ?#
bx >#
bx =#
bx <#
bx ;#
bx :#
bx 9#
bx 8#
bx 7#
bx 6#
bx 5#
bx 4#
bx 3#
bx 2#
bx 1#
bx 0#
bx /#
bx .#
b0x -#
bx ,#
x+#
bx *#
bx )#
x(#
bx '#
bx &#
bx %#
bx $#
x##
x"#
bx !#
bx ~"
bx }"
bx |"
bx {"
bx z"
bx y"
b1111 x"
b10 w"
b100000000000000 v"
b11010000000 u"
bx t"
bx s"
xr"
bx q"
bx p"
bx o"
bx n"
bx m"
bx l"
bx k"
bx j"
bx i"
bx h"
bx g"
xf"
bx e"
bx d"
bx c"
bx b"
bx a"
bx `"
bx _"
bx ^"
bx ]"
bx \"
bx ["
bx Z"
bx Y"
xX"
bx W"
bx V"
bx U"
bx T"
bx S"
bx R"
xQ"
bx P"
bx O"
bx N"
bx M"
bx L"
bx K"
bx J"
bx I"
bx H"
bx G"
bx F"
xE"
bx D"
bx C"
bx B"
bx A"
bx @"
bx ?"
bx >"
bx ="
bx <"
bx ;"
bx :"
bx 9"
bx 8"
bx 7"
bx 6"
bx 5"
bx 4"
bx 3"
bx 2"
bx 1"
x0"
bx /"
x."
x-"
x,"
bx +"
bx *"
bx )"
b0x ("
bx '"
bx &"
x%"
x$"
b11 #"
bx ""
bx !"
bx ~
bx }
bx |
bx {
bx z
bx y
bx x
bx w
bx v
bx u
xt
bx s
bx r
bx q
bx p
bx o
bx n
bx m
bx l
bx k
bx j
bx i
bx h
bx g
bx f
bx e
bx d
bx c
bx b
bx a
bx `
bx _
bx ^
bx ]
bx \
bx [
xZ
xY
xX
xW
xV
xU
xT
xS
xR
xQ
xP
xO
xN
xM
xL
xK
bx J
b0x I
bx H
bx G
bx F
bx E
bx D
bx C
bx B
bx A
bx @
bx ?
bx >
bx =
bx <
b0xxxx ;
x:
bx 9
x8
x7
x6
x5
x4
x3
x2
x1
b1111 0
b11 /
b10 .
b100000000000000 -
b11010000000 ,
bx +
1*
b1111 )
b11 (
b10 '
b100000000000000 &
b11010000000 %
0$
0#
x"
bx !
$end
#5000
0*
#10000
b0 B
b0 )"
b0 9"
b0 U"
b0 c"
b0 z"
b0 9#
b0 =#
b0 P#
b0 w#
b0 :#
08
08$
b0 _
b0 v
b0 7#
b0 !"
b0 C
b0 1#
b0 8#
b0 6#
b0 s
b0 7$
b0 n
b0 w
b0 2#
b0 %#
b0 '#
b0 h
b0 ~
b0 s"
b0 {"
0(#
0##
07
0+#
b10110 *#
0U
0"#
b1000 `"
b11010001010 d
b11010001010 z
b11010001010 S"
b11010001010 W"
03$
04$
0/$
b0 E
b0 4#
b0 x#
b0 ($
b0 +$
b0 ,$
b0 9
b0 X#
b0 !$
b0 5$
b0 [
b0 Z#
b0 v#
b0 '$
b0 b
b0 x
b0 r#
b0 &$
0:
01$
b1000001 @
b1000001 i#
b1000001 {#
b1000001 .$
0P
0)$
0O
0*$
02
06$
b1011 2$
b0 r
b1 k
b1 1"
b1 ;#
b1 L#
b11 l
b11 ""
b11 M#
b11 q#
b1000000000000000 j
b1000000000000000 R"
b0 q
b0 /#
0t
0_#
b101 ;
b101 `#
b101 ~#
0Y#
b0 +
b0 u
b0 m
b0 )#
b0 ~"
b1000001 |"
b1000001 }"
b0 J
b0 t"
b0 ,#
b0 !#
b0 $#
b0 &#
b100 /"
b0 I
b0 ("
b0 -#
0,"
b0 g
b0 }
b0 '"
b0 *"
06
00"
0V
0-"
0N
0."
b11 &"
0W
0$"
0K
0%"
b0 i"
b0 h"
b0 g"
b1100 p"
b0 H
b0 b"
b0 .#
b0 e"
b11010001010 f
b11010001010 |
b11010001010 a"
b11010001010 d"
05
0r"
0X
0f"
b0 E#
b0 D#
b1000 J#
b0 G
b0 5#
b0 >#
b0 A#
b11010001000 e
b11010001000 {
b11010001000 <#
b11010001000 ?#
04
0K#
0T
0B#
0M
0C#
b0 \"
b0 Z"
b0 ["
b0 Y"
b1111111111111110 A
b1111111111111110 8"
b1111111111111110 T"
b1111111111111110 z#
b1111111111111110 ]"
0Y
0X"
b0 I"
b0 H"
b0 G"
b1111 P"
b111111111110 ]
b111111111110 4"
b111111111110 t#
b111111111110 ?"
b1000001 ?
b1000001 7"
b1000001 h#
b1000001 N"
b101001000 :"
b1111111111111110 \
b1111111111111110 5"
b1111111111111110 u#
b1111111111111110 @"
b1000001 ^
b1000001 3"
b1000001 O#
b1000001 s#
b1000001 >"
b0 A"
b0 B"
b0 F
b0 6"
b0 0#
b0 D"
b11010001000 c
b11010001000 y
b11010001000 2"
b11010001000 <"
03
0Q"
0Z
0E"
0S
0a#
0b#
b0 d#
b101 <
b101 ^#
b101 }#
b101 c#
0R
0[#
b0 ]#
b0 =
b0 W#
b0 |#
b0 \#
b0 -$
b0 #$
b0 "$
b0 $$
b0 %$
b0 0$
b0 D
b0 3#
b0 g#
b0 l#
b1000001 i
b1000001 R#
b1000001 e#
b1000001 j#
b0 a
b0 f#
b0 k#
b101 o#
0L
0n#
01
0p#
0Q
0m#
b0 !
b0 >
b0 Q#
b0 T#
b0 `
b0 N#
b0 S#
0"
0U#
b0 V#
b1 o
b1 y#
b111 p
b111 y"
1#
#20000
0#
#30000
1#
1*
#35000
1$
#40000
0#
#50000
b0 *#
b0 `"
b0 2$
b1 r
b101100110011001 j
b101100110011001 R"
b0 /"
b0 &"
b0 p"
b0 J#
b0 P"
b0 o#
b1 V#
1#
#55000
0$
#60000
0#
#70000
b100 B
b100 )"
b100 9"
b100 U"
b100 c"
b100 z"
b100 9#
b100 =#
b100 P#
b100 w#
b100 :#
b11010001010 _
b11010001010 v
b11010001010 7#
b11010001010 !"
b11010001010 h
b11010001010 ~
b11010001010 s"
b11010001010 {"
b1 *#
1#
#80000
0#
#90000
b101 B
b101 )"
b101 9"
b101 U"
b101 c"
b101 z"
b101 9#
b101 =#
b101 P#
b101 w#
b101 :#
b11010001000 _
b11010001000 v
b11010001000 7#
b11010001000 !"
b11010001000 h
b11010001000 ~
b11010001000 s"
b11010001000 {"
b10 *#
b100 '#
1#
#100000
0#
#110000
b11 *#
b101 %#
1#
#120000
0#
#130000
b1 B
b1 )"
b1 9"
b1 U"
b1 c"
b1 z"
b1 9#
b1 =#
b1 P#
b1 w#
b1 :#
b1001000 _
b1001000 v
b1001000 7#
b1001000 !"
b100 *#
b1001000 h
b1001000 ~
b1001000 s"
b1001000 {"
1#
#140000
0#
#150000
b11 *#
b1 &#
b1 }"
1#
#160000
0#
#170000
b11 B
b11 )"
b11 9"
b11 U"
b11 c"
b11 z"
b11 9#
b11 =#
b11 P#
b11 w#
b11 :#
b1001010 _
b1001010 v
b1001010 7#
b1001010 !"
b100 *#
b1001010 h
b1001010 ~
b1001010 s"
b1001010 {"
1#
#180000
0#
#190000
b11 *#
b10 &#
b11 }"
1#
#200000
0#
#210000
b100 B
b100 )"
b100 9"
b100 U"
b100 c"
b100 z"
b100 9#
b100 =#
b100 P#
b100 w#
b100 :#
b1001100 _
b1001100 v
b1001100 7#
b1001100 !"
b100 *#
b1001100 h
b1001100 ~
b1001100 s"
b1001100 {"
1#
#220000
0#
#230000
b11 *#
b11 &#
b100 }"
1#
#240000
0#
#250000
b110 B
b110 )"
b110 9"
b110 U"
b110 c"
b110 z"
b110 9#
b110 =#
b110 P#
b110 w#
b110 :#
b1001110 _
b1001110 v
b1001110 7#
b1001110 !"
b100 *#
b1001110 h
b1001110 ~
b1001110 s"
b1001110 {"
1#
#260000
0#
#270000
b11 *#
b100 &#
b110 }"
1#
#280000
0#
#290000
b1100 *#
1#
#300000
0#
#310000
b0 B
b0 )"
b0 9"
b0 U"
b0 c"
b0 z"
b0 9#
b0 =#
b0 P#
b0 w#
b0 :#
18
18$
b1010000 _
b1010000 v
b1010000 7#
b1010000 !"
b1101 *#
17
1+#
b1010000 h
b1010000 ~
b1010000 s"
b1010000 {"
b1111 C
b1111 1#
b1111 8#
b1111 6#
b1111 J
b1111 t"
b1111 ,#
b1111 !#
1#
#320000
0#
#330000
b101010000 _
b101010000 v
b101010000 7#
b101010000 !"
b1110 *#
b101010000 h
b101010000 ~
b101010000 s"
b101010000 {"
b100000000000000 C
b100000000000000 1#
b100000000000000 8#
b100000000000000 6#
b100000000000000 J
b100000000000000 t"
b100000000000000 ,#
b100000000000000 !#
1#
#340000
0#
#350000
b0 B
b0 )"
b0 9"
b0 U"
b0 c"
b0 z"
b0 9#
b0 =#
b0 P#
b0 w#
b0 :#
b111010000 _
b111010000 v
b111010000 7#
b111010000 !"
b1111 *#
b111010000 h
b111010000 ~
b111010000 s"
b111010000 {"
b11010000000 C
b11010000000 1#
b11010000000 8#
b11010000000 6#
b11010000000 J
b11010000000 t"
b11010000000 ,#
b11010000000 !#
1#
#360000
0#
#370000
b11010000 _
b11010000 v
b11010000 7#
b11010000 !"
b10000 *#
b11010000 h
b11010000 ~
b11010000 s"
b11010000 {"
b10 C
b10 1#
b10 8#
b10 6#
b1010001000 )#
b10 J
b10 t"
b10 ,#
b10 !#
1#
#380000
0#
#390000
b10 B
b10 )"
b10 9"
b10 U"
b10 c"
b10 z"
b10 9#
b10 =#
b10 P#
b10 w#
b10 :#
b1000 _
b1000 v
b1000 7#
b1000 !"
b10001 *#
b1000 h
b1000 ~
b1000 s"
b1000 {"
1#
#400000
0#
#410000
b0 B
b0 )"
b0 9"
b0 U"
b0 c"
b0 z"
b0 9#
b0 =#
b0 P#
b0 w#
b0 :#
b1010001000 _
b1010001000 v
b1010001000 7#
b1010001000 !"
b10010 *#
b1010001000 h
b1010001000 ~
b1010001000 s"
b1010001000 {"
b10 |"
1#
#420000
0#
#430000
b10 B
b10 )"
b10 9"
b10 U"
b10 c"
b10 z"
b10 9#
b10 =#
b10 P#
b10 w#
b10 :#
08
08$
b10000 *#
07
0+#
b1 $#
1#
#440000
0#
#450000
b101 B
b101 )"
b101 9"
b101 U"
b101 c"
b101 z"
b101 9#
b101 =#
b101 P#
b101 w#
b101 :#
b1010 _
b1010 v
b1010 7#
b1010 !"
b10001 *#
b1010 h
b1010 ~
b1010 s"
b1010 {"
1#
#460000
0#
#470000
b0 B
b0 )"
b0 9"
b0 U"
b0 c"
b0 z"
b0 9#
b0 =#
b0 P#
b0 w#
b0 :#
18
18$
b1010001010 _
b1010001010 v
b1010001010 7#
b1010001010 !"
b10010 *#
17
1+#
b1010001010 h
b1010001010 ~
b1010001010 s"
b1010001010 {"
b101 C
b101 1#
b101 8#
b101 6#
b101 J
b101 t"
b101 ,#
b101 !#
b101 |"
1#
#480000
0#
#490000
b101 B
b101 )"
b101 9"
b101 U"
b101 c"
b101 z"
b101 9#
b101 =#
b101 P#
b101 w#
b101 :#
08
08$
b10000 *#
07
0+#
b10 $#
1#
#500000
0#
#510000
b1010 B
b1010 )"
b1010 9"
b1010 U"
b1010 c"
b1010 z"
b1010 9#
b1010 =#
b1010 P#
b1010 w#
b1010 :#
b1100 _
b1100 v
b1100 7#
b1100 !"
b10001 *#
b1100 h
b1100 ~
b1100 s"
b1100 {"
1#
#520000
0#
#530000
b0 B
b0 )"
b0 9"
b0 U"
b0 c"
b0 z"
b0 9#
b0 =#
b0 P#
b0 w#
b0 :#
18
18$
b1010001100 _
b1010001100 v
b1010001100 7#
b1010001100 !"
b10010 *#
17
1+#
b1010001100 h
b1010001100 ~
b1010001100 s"
b1010001100 {"
b1010 C
b1010 1#
b1010 8#
b1010 6#
b1010 J
b1010 t"
b1010 ,#
b1010 !#
b1010 |"
1#
#540000
0#
#550000
b1010 B
b1010 )"
b1010 9"
b1010 U"
b1010 c"
b1010 z"
b1010 9#
b1010 =#
b1010 P#
b1010 w#
b1010 :#
08
08$
b10000 *#
07
0+#
b11 $#
1#
#560000
0#
#570000
b10101011 B
b10101011 )"
b10101011 9"
b10101011 U"
b10101011 c"
b10101011 z"
b10101011 9#
b10101011 =#
b10101011 P#
b10101011 w#
b10101011 :#
b1110 _
b1110 v
b1110 7#
b1110 !"
b10001 *#
b1110 h
b1110 ~
b1110 s"
b1110 {"
1#
#580000
0#
#590000
b0 B
b0 )"
b0 9"
b0 U"
b0 c"
b0 z"
b0 9#
b0 =#
b0 P#
b0 w#
b0 :#
18
18$
b1010001110 _
b1010001110 v
b1010001110 7#
b1010001110 !"
b10010 *#
17
1+#
b1010001110 h
b1010001110 ~
b1010001110 s"
b1010001110 {"
b10101011 C
b10101011 1#
b10101011 8#
b10101011 6#
b10101011 J
b10101011 t"
b10101011 ,#
b10101011 !#
b10101011 |"
1#
#600000
0#
#610000
b10101011 B
b10101011 )"
b10101011 9"
b10101011 U"
b10101011 c"
b10101011 z"
b10101011 9#
b10101011 =#
b10101011 P#
b10101011 w#
b10101011 :#
08
08$
b10000 *#
07
0+#
b100 $#
1#
#620000
0#
#630000
b11001101 B
b11001101 )"
b11001101 9"
b11001101 U"
b11001101 c"
b11001101 z"
b11001101 9#
b11001101 =#
b11001101 P#
b11001101 w#
b11001101 :#
b10000 _
b10000 v
b10000 7#
b10000 !"
b10001 *#
b10000 h
b10000 ~
b10000 s"
b10000 {"
1#
#640000
0#
