top-with-enable/tb_top.vcd
$date
	Tue Mar 13 20:49:59 2018
$end
$version
	Icarus Verilog
$end
$timescale
	1ps
$end
$scope module tb_top $end
$var reg 1 ! clock $end
$var reg 1 " en $end
$var reg 1 # nrst $end
$var integer 32 $ i [31:0] $end
$scope module t1 $end
$var wire 1 ! clock $end
$var wire 1 " en $end
$var wire 1 # nrst $end
$var wire 1 % wren_7 $end
$var wire 1 & wren_6 $end
$var wire 1 ' wren_5 $end
$var wire 1 ( wren_3 $end
$var wire 1 ) wren_2 $end
$var wire 1 * wren_1 $end
$var wire 1 + wren_0 $end
$var wire 1 , wr_en $end
$var wire 16 - which [15:0] $end
$var wire 1 . start_rngAddress $end
$var wire 16 / rng_out_4bit [15:0] $end
$var wire 16 0 rng_out [15:0] $end
$var wire 16 1 rng_address [15:0] $end
$var wire 16 2 nextsinks [15:0] $end
$var wire 16 3 nexthop [15:0] $end
$var wire 16 4 mybest [15:0] $end
$var wire 16 5 mem_data_out [15:0] $end
$var wire 16 6 mem_data_in [15:0] $end
$var wire 16 7 mdi_7 [15:0] $end
$var wire 16 8 mdi_6 [15:0] $end
$var wire 16 9 mdi_5 [15:0] $end
$var wire 16 : mdi_3 [15:0] $end
$var wire 16 ; mdi_2 [15:0] $end
$var wire 16 < mdi_1 [15:0] $end
$var wire 16 = mdi_0 [15:0] $end
$var wire 1 > iamDestination $end
$var wire 1 ? forAggregation3 $end
$var wire 1 @ forAggregation2 $end
$var wire 1 A forAggregation1 $end
$var wire 1 B en_rng $end
$var wire 1 C done_winnerPolicy $end
$var wire 1 D done_selectMyAction $end
$var wire 1 E done_rngAddress $end
$var wire 1 F done_rng $end
$var wire 1 G done_neighborSinkInOtherCluster $end
$var wire 1 H done_learnCosts $end
$var wire 1 I done_iamSink $end
$var wire 1 J done_iamDestination $end
$var wire 1 K done_fixSinkList $end
$var wire 1 L done_findMyBest $end
$var wire 1 M done_betterNeighborsInMyCluster $end
$var wire 16 N betterNeighborCount [15:0] $end
$var wire 16 O bestvalue [15:0] $end
$var wire 16 P bestneighborID [15:0] $end
$var wire 16 Q besthop [15:0] $end
$var wire 11 R address [10:0] $end
$var wire 11 S addr_7 [10:0] $end
$var wire 11 T addr_6 [10:0] $end
$var wire 11 U addr_5 [10:0] $end
$var wire 11 V addr_4 [10:0] $end
$var wire 11 W addr_3 [10:0] $end
$var wire 11 X addr_2 [10:0] $end
$var wire 11 Y addr_1 [10:0] $end
$var wire 11 Z addr_0 [10:0] $end
$var wire 16 [ action [15:0] $end
$var reg 16 \ MY_BATTERY_STAT [15:0] $end
$var reg 16 ] MY_CLUSTER_ID [15:0] $end
$var reg 16 ^ MY_NODE_ID [15:0] $end
$var reg 3 _ addr_select [2:0] $end
$var reg 16 ` epsilon [15:0] $end
$var reg 16 a epsilon_step [15:0] $end
$var reg 16 b fValue [15:0] $end
$var reg 16 c fbatteryStat [15:0] $end
$var reg 16 d fclusterID [15:0] $end
$var reg 16 e fdestinationID [15:0] $end
$var reg 16 f fsourceID [15:0] $end
$var reg 16 g initial_epsilon [15:0] $end
$var reg 16 h mdi_4 [15:0] $end
$var reg 3 i wr_select [2:0] $end
$var reg 1 j wren_4 $end
$scope module addr_mux $end
$var wire 11 k out [10:0] $end
$var wire 3 l select [2:0] $end
$var wire 11 m in7 [10:0] $end
$var wire 11 n in6 [10:0] $end
$var wire 11 o in5 [10:0] $end
$var wire 11 p in4 [10:0] $end
$var wire 11 q in3 [10:0] $end
$var wire 11 r in2 [10:0] $end
$var wire 11 s in1 [10:0] $end
$var wire 11 t in0 [10:0] $end
$var reg 11 u out_buf [10:0] $end
$upscope $end
$scope module aif1 $end
$var wire 16 v MY_NODE_ID [15:0] $end
$var wire 1 ! clock $end
$var wire 16 w destinationID [15:0] $end
$var wire 1 J done $end
$var wire 1 " en $end
$var wire 1 > iamDestination $end
$var wire 1 # nrst $end
$var wire 1 I start $end
$var reg 1 x done_buf $end
$var reg 1 y iamDestination_buf $end
$var reg 3 z state [2:0] $end
$upscope $end
$scope module ais1 $end
$var wire 11 { address [10:0] $end
$var wire 1 ! clock $end
$var wire 1 I done $end
$var wire 1 " en $end
$var wire 1 A forAggregation $end
$var wire 1 # nrst $end
$var wire 1 * wr_en $end
$var wire 1 H start $end
$var wire 16 | data_out [15:0] $end
$var wire 16 } data_in [15:0] $end
$var reg 11 ~ address_count [10:0] $end
$var reg 16 !" amISink [15:0] $end
$var reg 1 "" data_out_buf $end
$var reg 1 #" done_buf $end
$var reg 1 $" forAggregation_buf $end
$var reg 3 %" state [2:0] $end
$var reg 1 &" wr_en_buf $end
$upscope $end
$scope module bnimc1 $end
$var wire 16 '" MY_CLUSTER_ID [15:0] $end
$var wire 11 (" address [10:0] $end
$var wire 16 )" besthop [15:0] $end
$var wire 16 *" bestneighborID [15:0] $end
$var wire 16 +" bestvalue [15:0] $end
$var wire 1 ! clock $end
$var wire 16 ," data_out [15:0] $end
$var wire 1 M done $end
$var wire 1 " en $end
$var wire 16 -" nextsinks [15:0] $end
$var wire 1 # nrst $end
$var wire 1 ' wr_en $end
$var wire 1 L start $end
$var wire 16 ." mybest [15:0] $end
$var wire 16 /" data_in [15:0] $end
$var reg 16 0" BATTERY_THRESHOLD [15:0] $end
$var reg 16 1" HCM [15:0] $end
$var reg 11 2" address_count [10:0] $end
$var reg 16 3" batteryStat [15:0] $end
$var reg 16 4" besthop_buf [15:0] $end
$var reg 16 5" bestneighborID_buf [15:0] $end
$var reg 16 6" bestvalue_buf [15:0] $end
$var reg 16 7" betterneighborCount [15:0] $end
$var reg 16 8" betterneighbors [15:0] $end
$var reg 16 9" clusterID [15:0] $end
$var reg 16 :" data_out_buf [15:0] $end
$var reg 1 ;" done_buf $end
$var reg 32 <" fpTemp [31:0] $end
$var reg 16 =" i [15:0] $end
$var reg 16 >" j [15:0] $end
$var reg 16 ?" k [15:0] $end
$var reg 16 @" knownSinkCount [15:0] $end
$var reg 16 A" knownSinks [15:0] $end
$var reg 16 B" neighborCount [15:0] $end
$var reg 16 C" neighborID [15:0] $end
$var reg 16 D" nextsinks_buf [15:0] $end
$var reg 16 E" qValue [15:0] $end
$var reg 5 F" state [4:0] $end
$var reg 1 G" wr_en_buf $end
$upscope $end
$scope module fmb1 $end
$var wire 16 H" MY_BATTERY_STAT [15:0] $end
$var wire 11 I" address [10:0] $end
$var wire 1 ! clock $end
$var wire 1 L done $end
$var wire 1 " en $end
$var wire 16 J" mybest [15:0] $end
$var wire 1 # nrst $end
$var wire 1 G start $end
$var wire 16 K" data_in [15:0] $end
$var reg 16 L" HCM [15:0] $end
$var reg 11 M" address_count [10:0] $end
$var reg 1 N" done_buf $end
$var reg 16 O" k [15:0] $end
$var reg 32 P" kTemp [31:0] $end
$var reg 16 Q" l [15:0] $end
$var reg 32 R" mybestTemp [31:0] $end
$var reg 16 S" mybest_buf [15:0] $end
$var reg 16 T" neighborCount [15:0] $end
$var reg 16 U" qValue [15:0] $end
$var reg 4 V" state [3:0] $end
$upscope $end
$scope module fsl1 $end
$var wire 11 W" address [10:0] $end
$var wire 1 ! clock $end
$var wire 16 X" data_out [15:0] $end
$var wire 1 K done $end
$var wire 1 " en $end
$var wire 1 # nrst $end
$var wire 1 J start $end
$var wire 1 ) wr_en $end
$var wire 16 Y" data_in [15:0] $end
$var reg 11 Z" address_count [10:0] $end
$var reg 16 [" data_out_buf [15:0] $end
$var reg 1 \" done_buf $end
$var reg 16 ]" i [15:0] $end
$var reg 16 ^" j [15:0] $end
$var reg 16 _" k [15:0] $end
$var reg 16 `" knownSinkCount [15:0] $end
$var reg 16 a" knownSinks [15:0] $end
$var reg 16 b" neighborCount [15:0] $end
$var reg 16 c" qValue [15:0] $end
$var reg 16 d" sinkIDCount [15:0] $end
$var reg 16 e" sinkIDs [15:0] $end
$var reg 4 f" state [3:0] $end
$var reg 16 g" worstHops [15:0] $end
$var reg 1 h" wr_en_buf $end
$upscope $end
$scope module lc1 $end
$var wire 11 i" address [10:0] $end
$var wire 1 ! clock $end
$var wire 16 j" data_out [15:0] $end
$var wire 1 H done $end
$var wire 1 " en $end
$var wire 16 k" fValue [15:0] $end
$var wire 16 l" fbatteryStat [15:0] $end
$var wire 16 m" fclusterID [15:0] $end
$var wire 16 n" fsourceID [15:0] $end
$var wire 16 o" initial_epsilon [15:0] $end
$var wire 1 # nrst $end
$var wire 1 + wr_en $end
$var wire 16 p" data_in [15:0] $end
$var reg 11 q" address_count [10:0] $end
$var reg 16 r" cur_knownSink [15:0] $end
$var reg 16 s" cur_nID [15:0] $end
$var reg 16 t" cur_qValue [15:0] $end
$var reg 16 u" data_out_buf [15:0] $end
$var reg 1 v" done_buf $end
$var reg 1 w" found $end
$var reg 16 x" k [15:0] $end
$var reg 16 y" knownSinkCount [15:0] $end
$var reg 16 z" n [15:0] $end
$var reg 16 {" neighborCount [15:0] $end
$var reg 1 |" reinit $end
$var reg 16 }" sinkID_address_buf [15:0] $end
$var reg 5 ~" state [4:0] $end
$var reg 1 !# wr_en_buf $end
$upscope $end
$scope module mdi_mux $end
$var wire 16 "# in0 [15:0] $end
$var wire 16 ## in1 [15:0] $end
$var wire 16 $# in2 [15:0] $end
$var wire 16 %# in4 [15:0] $end
$var wire 16 &# in5 [15:0] $end
$var wire 16 '# out [15:0] $end
$var wire 3 (# select [2:0] $end
$var wire 16 )# in7 [15:0] $end
$var wire 16 *# in6 [15:0] $end
$var wire 16 +# in3 [15:0] $end
$var reg 16 ,# out_buf [15:0] $end
$upscope $end
$scope module mem1 $end
$var wire 11 -# address [10:0] $end
$var wire 1 ! clock $end
$var wire 16 .# data_in [15:0] $end
$var wire 16 /# data_out [15:0] $end
$var wire 1 , wr_en $end
$var reg 16 0# data_out_buf [15:0] $end
$upscope $end
$scope module nsioc1 $end
$var wire 16 1# MY_CLUSTER_ID [15:0] $end
$var wire 11 2# address [10:0] $end
$var wire 1 ! clock $end
$var wire 16 3# data_in [15:0] $end
$var wire 16 4# data_out [15:0] $end
$var wire 1 G done $end
$var wire 1 " en $end
$var wire 1 @ forAggregation $end
$var wire 1 # nrst $end
$var wire 1 K start $end
$var wire 1 ( wr_en $end
$var reg 11 5# address_count [10:0] $end
$var reg 16 6# clusterID [15:0] $end
$var reg 16 7# data_out_buf [15:0] $end
$var reg 1 8# done_buf $end
$var reg 1 9# forAggregation_buf $end
$var reg 16 :# i [15:0] $end
$var reg 16 ;# j [15:0] $end
$var reg 16 <# knownSinkCount [15:0] $end
$var reg 16 =# knownSinks [15:0] $end
$var reg 16 ># neighborCount [15:0] $end
$var reg 16 ?# neighborID [15:0] $end
$var reg 4 @# state [3:0] $end
$var reg 1 A# wr_en_buf $end
$upscope $end
$scope module rad1 $end
$var wire 1 ! clock $end
$var wire 1 E done_rng_address $end
$var wire 1 # nrst $end
$var wire 16 B# rng_address [15:0] $end
$var wire 16 C# which [15:0] $end
$var wire 1 . start_rng_address $end
$var wire 16 D# betterNeighborCount [15:0] $end
$var reg 1 E# done_rng_address_buf $end
$var reg 16 F# rng_address_buf [15:0] $end
$var reg 3 G# state [2:0] $end
$upscope $end
$scope module rng1 $end
$var wire 1 ! clock $end
$var wire 1 F done $end
$var wire 1 # nrst $end
$var wire 16 H# rng_out [15:0] $end
$var wire 16 I# rng_out_4bit [15:0] $end
$var wire 1 B en_rng $end
$var reg 1 J# done_buf $end
$var reg 1 K# feedback $end
$var reg 16 L# rng_out_buf [15:0] $end
$var reg 3 M# state [2:0] $end
$upscope $end
$scope module sma1 $end
$var wire 16 N# action [15:0] $end
$var wire 11 O# address [10:0] $end
$var wire 1 ! clock $end
$var wire 16 P# data_out [15:0] $end
$var wire 1 D done $end
$var wire 1 " en $end
$var wire 1 ? forAggregation $end
$var wire 16 Q# nextsinks [15:0] $end
$var wire 1 # nrst $end
$var wire 1 % wr_en $end
$var wire 1 C start $end
$var wire 16 R# nexthop [15:0] $end
$var reg 16 S# action_buf [15:0] $end
$var reg 11 T# address_count [10:0] $end
$var reg 16 U# data_out_buf [15:0] $end
$var reg 1 V# done_buf $end
$var reg 1 W# forAggregation_buf $end
$var reg 3 X# state [2:0] $end
$var reg 1 Y# wr_en_buf $end
$upscope $end
$scope module wp1 $end
$var wire 16 Z# MY_NODE_ID [15:0] $end
$var wire 11 [# address [10:0] $end
$var wire 16 \# besthop [15:0] $end
$var wire 16 ]# bestneighborID [15:0] $end
$var wire 16 ^# bestvalue [15:0] $end
$var wire 16 _# betterNeighborCount [15:0] $end
$var wire 1 ! clock $end
$var wire 16 `# data_in [15:0] $end
$var wire 16 a# data_out [15:0] $end
$var wire 1 E done_rng_address $end
$var wire 1 C done_winnerPolicy $end
$var wire 1 " en $end
$var wire 1 B en_rng $end
$var wire 16 b# epsilon_step [15:0] $end
$var wire 16 c# mybest [15:0] $end
$var wire 16 d# nexthop [15:0] $end
$var wire 1 # nrst $end
$var wire 16 e# rng_address [15:0] $end
$var wire 16 f# rng_out [15:0] $end
$var wire 16 g# rng_out_4bit [15:0] $end
$var wire 1 . start_rngAddress $end
$var wire 1 M start_winnerPolicy $end
$var wire 16 h# which [15:0] $end
$var wire 1 & wr_en $end
$var reg 32 i# _left [31:0] $end
$var reg 32 j# _right [31:0] $end
$var reg 32 k# _right2 [31:0] $end
$var reg 32 l# _right3 [31:0] $end
$var reg 11 m# address_count [10:0] $end
$var reg 16 n# betterNeighborCount_buf [15:0] $end
$var reg 16 o# data_out_buf [15:0] $end
$var reg 1 p# done_winnerPolicy_buf $end
$var reg 1 q# en_rng_buf $end
$var reg 16 r# epsilon_buf [15:0] $end
$var reg 16 s# explore_constant [15:0] $end
$var reg 32 t# mybest_shifted [31:0] $end
$var reg 16 u# nexthop_buf [15:0] $end
$var reg 16 v# nineninenine [15:0] $end
$var reg 1 w# one $end
$var reg 16 x# onezerozeroone [15:0] $end
$var reg 16 y# rng_address_temp [15:0] $end
$var reg 1 z# start_rngAddress_buf $end
$var reg 5 {# state [4:0] $end
$var reg 1 |# three $end
$var reg 1 }# two $end
$var reg 16 ~# which_buf [15:0] $end
$var reg 1 !$ wr_en_buf $end
$upscope $end
$scope module wren_mux $end
$var wire 1 + in0 $end
$var wire 1 * in1 $end
$var wire 1 ) in2 $end
$var wire 1 ( in3 $end
$var wire 1 j in4 $end
$var wire 1 ' in5 $end
$var wire 1 & in6 $end
$var wire 1 % in7 $end
$var wire 1 , out $end
$var wire 3 "$ select [2:0] $end
$var reg 1 #$ out_buf $end
$upscope $end
$upscope $end
$upscope $end
$enddefinitions $end
#0
$dumpvars
x#$
bx "$
x!$
bx ~#
x}#
x|#
bx {#
xz#
bx y#
bx x#
xw#
bx v#
bx u#
bx t#
bx s#
bx r#
xq#
xp#
bx o#
bx n#
bx m#
bx l#
bx k#
bx j#
bx i#
bx h#
b0xxxx g#
bx f#
bx e#
bx d#
bx c#
b1 b#
bx a#
bx `#
bx _#
bx ^#
bx ]#
bx \#
bx [#
b11 Z#
xY#
bx X#
xW#
xV#
bx U#
bx T#
bx S#
bx R#
bx Q#
bx P#
bx O#
bx N#
bx M#
bx L#
xK#
xJ#
b0xxxx I#
bx H#
bx G#
bx F#
xE#
bx D#
bx C#
bx B#
xA#
bx @#
bx ?#
bx >#
bx =#
bx <#
bx ;#
bx :#
x9#
x8#
bx 7#
bx 6#
bx 5#
bx 4#
bx 3#
bx 2#
b1 1#
bx 0#
bx /#
bx .#
bx -#
bx ,#
bx +#
bx *#
bx )#
bx (#
bx '#
bx &#
b0 %#
bx $#
b0x ##
bx "#
x!#
bx ~"
bx }"
x|"
bx {"
bx z"
bx y"
bx x"
xw"
xv"
bx u"
bx t"
bx s"
bx r"
bx q"
bx p"
bx o"
b1 n"
b1 m"
b1 l"
b1010 k"
bx j"
bx i"
xh"
bx g"
bx f"
bx e"
bx d"
bx c"
bx b"
bx a"
bx `"
bx _"
bx ^"
bx ]"
x\"
bx ["
bx Z"
bx Y"
bx X"
bx W"
bx V"
bx U"
bx T"
bx S"
bx R"
bx Q"
bx P"
bx O"
xN"
bx M"
bx L"
bx K"
bx J"
bx I"
b1000000000000000 H"
xG"
bx F"
bx E"
bx D"
bx C"
bx B"
bx A"
bx @"
bx ?"
bx >"
bx ="
bx <"
x;"
bx :"
bx 9"
bx 8"
bx 7"
bx 6"
bx 5"
bx 4"
bx 3"
bx 2"
bx 1"
bx 0"
bx /"
bx ."
bx -"
bx ,"
bx +"
bx *"
bx )"
bx ("
b1 '"
x&"
bx %"
x$"
x#"
x""
bx !"
bx ~
bx }
b0x |
bx {
bx z
xy
xx
b11 w
b11 v
bx u
bx t
bx s
bx r
bx q
bx p
bx o
bx n
bx m
bx l
bx k
0j
bx i
b0 h
bx g
b1 f
b11 e
b1 d
b1 c
b1010 b
b1 a
b10 `
bx _
b11 ^
b1 ]
b1000000000000000 \
bx [
bx Z
bx Y
bx X
bx W
bx V
bx U
bx T
bx S
bx R
bx Q
bx P
bx O
bx N
xM
xL
xK
xJ
xI
xH
xG
xF
xE
xD
xC
xB
xA
x@
x?
x>
bx =
b0x <
bx ;
bx :
bx 9
bx 8
bx 7
bx 6
bx 5
bx 4
bx 3
bx 2
bx 1
bx 0
b0xxxx /
x.
bx -
x,
x+
x*
x)
x(
x'
x&
x%
b10110 $
1#
x"
0!
$end
#5000
0#
#10000
0,
0#$
b0 i
b0 "$
b0 _
b0 l
b0 (#
1K#
b101 /
b101 I#
b101 g#
b0 x"
b0 z"
0|"
0w"
0+
0!#
b10110 ~"
0H
0v"
b11010001010 X
b11010001010 r
b11010001010 W"
b11010001010 Z"
0)
0h"
b0 M#
b101 0
b101 H#
b101 f#
b101 L#
0E
0E#
b0 G#
b0 1
b0 B#
b0 e#
b0 F#
b1000000000100000 x#
b1111111110111110 v#
0.
0z#
b1100100 3
b1100100 R#
b1100100 d#
b1100100 u#
0C
0p#
0B
0q#
0&
0!$
b1011 {#
b100 %"
b0 Y
b0 s
b0 {
b0 ~
0*
0&"
0I
0#"
0A
0$"
b11 z
0J
0x
0>
0y
b0 _"
b0 ^"
b0 ]"
b1100 f"
0K
0\"
b0 ;#
b0 :#
b1000 @#
b11010001000 W
b11010001000 q
b11010001000 2#
b11010001000 5#
0(
0A#
0G
08#
0@
09#
b0 Q"
b0 O"
b1000 V"
b1111111111111110 4
b1111111111111110 ."
b1111111111111110 J"
b1111111111111110 c#
b1111111111111110 S"
b11010001010 V
b11010001010 p
b11010001010 I"
b11010001010 M"
0L
0N"
b0 ?"
b0 >"
b0 ="
b0 F"
b1000001 2
b1000001 -"
b1000001 Q#
b1000001 D"
b101001000 0"
b1111111111111110 O
b1111111111111110 +"
b1111111111111110 ^#
b1111111111111110 6"
b1000001 Q
b1000001 )"
b1000001 \#
b1000001 4"
b0 7"
b0 8"
b11010001000 U
b11010001000 o
b11010001000 ("
b11010001000 2"
0'
0G"
0M
0;"
b101 X#
0?
0W#
0%
0Y#
0D
0V#
1!
#20000
0!
#30000
1!
1#
#35000
1"
#40000
0!
#50000
b0 ~"
b100101101 3
b100101101 R#
b100101101 d#
b100101101 u#
b0 {#
b0 %"
b0 z
b0 f"
b0 @#
b0 V"
b0 X#
1!
#55000
0"
#60000
0!
#70000
b100 5
b100 }
b100 /"
b100 K"
b100 Y"
b100 p"
b100 /#
b100 3#
b100 `#
b100 0#
b11010001010 R
b11010001010 k
b11010001010 -#
b11010001010 u
b11010001010 Z
b11010001010 t
b11010001010 i"
b11010001010 q"
b1 ~"
1!
#80000
0!
#90000
b101 5
b101 }
b101 /"
b101 K"
b101 Y"
b101 p"
b101 /#
b101 3#
b101 `#
b101 0#
b11010001000 R
b11010001000 k
b11010001000 -#
b11010001000 u
b11010001000 Z
b11010001000 t
b11010001000 i"
b11010001000 q"
b10 ~"
b100 {"
1!
#100000
0!
#110000
b11 ~"
b101 y"
1!
#120000
0!
#130000
b1 5
b1 }
b1 /"
b1 K"
b1 Y"
b1 p"
b1 /#
b1 3#
b1 `#
b1 0#
b1001000 R
b1001000 k
b1001000 -#
b1001000 u
b100 ~"
b1001000 Z
b1001000 t
b1001000 i"
b1001000 q"
1!
#140000
0!
#150000
b1001001000 }"
b101 ~"
1w"
b1 s"
1!
#160000
0!
#170000
b10 5
b10 }
b10 /"
b10 K"
b10 Y"
b10 p"
b10 /#
b10 3#
b10 `#
b10 0#
b1000 R
b1000 k
b1000 -#
b1000 u
b110 ~"
b1000 Z
b1000 t
b1000 i"
b1000 q"
1!
#180000
0!
#190000
b1010 5
b1010 }
b1010 /"
b1010 K"
b1010 Y"
b1010 p"
b1010 /#
b1010 3#
b1010 `#
b1010 0#
b1001001000 R
b1001001000 k
b1001001000 -#
b1001001000 u
b111 ~"
b1001001000 Z
b1001001000 t
b1001001000 i"
b1001001000 q"
1,
1#$
b10 6
b10 '#
b10 .#
b10 ,#
1+
1!#
b10 =
b10 j"
b10 "#
b10 u"
b10 r"
1!
#200000
0!
#210000
b10 5
b10 }
b10 /"
b10 K"
b10 Y"
b10 p"
b10 /#
b10 3#
b10 `#
b10 0#
0,
0#$
b101 ~"
0+
0!#
b1 x"
1!
#220000
0!
#230000
b101 5
b101 }
b101 /"
b101 K"
b101 Y"
b101 p"
b101 /#
b101 3#
b101 `#
b101 0#
b1010 R
b1010 k
b1010 -#
b1010 u
b110 ~"
b1010 Z
b1010 t
b1010 i"
b1010 q"
1!
#240000
0!
#250000
b10101011 5
b10101011 }
b10101011 /"
b10101011 K"
b10101011 Y"
b10101011 p"
b10101011 /#
b10101011 3#
b10101011 `#
b10101011 0#
b1001001010 R
b1001001010 k
b1001001010 -#
b1001001010 u
b111 ~"
b1001001010 Z
b1001001010 t
b1001001010 i"
b1001001010 q"
1,
1#$
b101 6
b101 '#
b101 .#
b101 ,#
1+
1!#
b101 =
b101 j"
b101 "#
b101 u"
b101 r"
1!
#260000
0!
#270000
b101 5
b101 }
b101 /"
b101 K"
b101 Y"
b101 p"
b101 /#
b101 3#
b101 `#
b101 0#
0,
0#$
b101 ~"
0+
0!#
b10 x"
1!
#280000
0!
#290000
b1010 5
b1010 }
b1010 /"
b1010 K"
b1010 Y"
b1010 p"
b1010 /#
b1010 3#
b1010 `#
b1010 0#
b1100 R
b1100 k
b1100 -#
b1100 u
b110 ~"
b1100 Z
b1100 t
b1100 i"
b1100 q"
1!
#300000
0!
#310000
b11001101 5
b11001101 }
b11001101 /"
b11001101 K"
b11001101 Y"
b11001101 p"
b11001101 /#
b11001101 3#
b11001101 `#
b11001101 0#
b1001001100 R
b1001001100 k
b1001001100 -#
b1001001100 u
b111 ~"
b1001001100 Z
b1001001100 t
b1001001100 i"
b1001001100 q"
1,
1#$
b1010 6
b1010 '#
b1010 .#
b1010 ,#
1+
1!#
b1010 =
b1010 j"
b1010 "#
b1010 u"
b1010 r"
1!
#320000
0!
#330000
b1010 5
b1010 }
b1010 /"
b1010 K"
b1010 Y"
b1010 p"
b1010 /#
b1010 3#
b1010 `#
b1010 0#
0,
0#$
b101 ~"
0+
0!#
b11 x"
1!
#340000
0!
#350000
b10101011 5
b10101011 }
b10101011 /"
b10101011 K"
b10101011 Y"
b10101011 p"
b10101011 /#
b10101011 3#
b10101011 `#
b10101011 0#
b1110 R
b1110 k
b1110 -#
b1110 u
b110 ~"
b1110 Z
b1110 t
b1110 i"
b1110 q"
1!
#360000
0!
#370000
bx 5
bx }
bx /"
bx K"
bx Y"
bx p"
bx /#
bx 3#
bx `#
bx 0#
b1001001110 R
b1001001110 k
b1001001110 -#
b1001001110 u
b111 ~"
b1001001110 Z
b1001001110 t
b1001001110 i"
b1001001110 q"
1,
1#$
b10101011 6
b10101011 '#
b10101011 .#
b10101011 ,#
1+
1!#
b10101011 =
b10101011 j"
b10101011 "#
b10101011 u"
b10101011 r"
1!
#380000
0!
#390000
b10101011 5
b10101011 }
b10101011 /"
b10101011 K"
b10101011 Y"
b10101011 p"
b10101011 /#
b10101011 3#
b10101011 `#
b10101011 0#
0,
0#$
b101 ~"
0+
0!#
b100 x"
1!
#400000
0!
#410000
b11001101 5
b11001101 }
b11001101 /"
b11001101 K"
b11001101 Y"
b11001101 p"
b11001101 /#
b11001101 3#
b11001101 `#
b11001101 0#
b10000 R
b10000 k
b10000 -#
b10000 u
b110 ~"
b10000 Z
b10000 t
b10000 i"
b10000 q"
1!
#420000
0!
#430000
bx 5
bx }
bx /"
bx K"
bx Y"
bx p"
bx /#
bx 3#
bx `#
bx 0#
b1001010000 R
b1001010000 k
b1001010000 -#
b1001010000 u
b111 ~"
b1001010000 Z
b1001010000 t
b1001010000 i"
b1001010000 q"
1,
1#$
b11001101 6
b11001101 '#
b11001101 .#
b11001101 ,#
1+
1!#
b11001101 =
b11001101 j"
b11001101 "#
b11001101 u"
b11001101 r"
1!
#440000
0!
#450000
b11001101 5
b11001101 }
b11001101 /"
b11001101 K"
b11001101 Y"
b11001101 p"
b11001101 /#
b11001101 3#
b11001101 `#
b11001101 0#
0,
0#$
b101 ~"
0+
0!#
b101 x"
1!
#460000
0!
#470000
bx 5
bx }
bx /"
bx K"
bx Y"
bx p"
bx /#
bx 3#
bx `#
bx 0#
1,
1#$
b11010011000 R
b11010011000 k
b11010011000 -#
b11010011000 u
b1000 ~"
1+
1!#
b11010011000 Z
b11010011000 t
b11010011000 i"
b11010011000 q"
b101 6
b101 '#
b101 .#
b101 ,#
b101 =
b101 j"
b101 "#
b101 u"
1!
#480000
0!
#490000
b101001000 R
b101001000 k
b101001000 -#
b101001000 u
b1001 ~"
b101001000 Z
b101001000 t
b101001000 i"
b101001000 q"
b1 6
b1 '#
b1 .#
b1 ,#
b1 =
b1 j"
b1 "#
b1 u"
1!
#500000
0!
#510000
0,
0#$
b101000000 5
b101000000 }
b101000000 /"
b101000000 K"
b101000000 Y"
b101000000 p"
b101000000 /#
b101000000 3#
b101000000 `#
b101000000 0#
b1010 ~"
0+
0!#
b111001000 R
b111001000 k
b111001000 -#
b111001000 u
b111001000 Z
b111001000 t
b111001000 i"
b111001000 q"
1!
#520000
0!
#530000
1,
1#$
b1011 ~"
1+
1!#
b101000000 6
b101000000 '#
b101000000 .#
b101000000 ,#
b101000000 =
b101000000 j"
b101000000 "#
b101000000 u"
b101000000 t"
1!
#540000
0!
#550000
b10101 ~"
1!
#560000
0!
#570000
b0 5
b0 }
b0 /"
b0 K"
b0 Y"
b0 p"
b0 /#
b0 3#
b0 `#
b0 0#
0,
0#$
b0 R
b0 k
b0 -#
b0 u
b0x 6
b0x '#
b0x .#
b0x ,#
b1 i
b1 "$
b1 _
b1 l
b1 (#
b10110 ~"
1H
1v"
1!
#580000
0!
#590000
b1 %"
1!
#600000
0!
#610000
b11 %"
b0 !"
1!
#620000
0!
#630000
b1 z
b100 %"
1I
1#"
1!
#640000
0!
#650000
b10 z
1>
1y
1!
#660000
0!
#670000
b100 5
b100 }
b100 /"
b100 K"
b100 Y"
b100 p"
b100 /#
b100 3#
b100 `#
b100 0#
b11010001010 R
b11010001010 k
b11010001010 -#
b11010001010 u
bx 6
bx '#
bx .#
bx ,#
b10 i
b10 "$
b10 _
b10 l
b10 (#
b1 f"
b11 z
1J
1x
1!
#680000
0!
#690000
b101 5
b101 }
b101 /"
b101 K"
b101 Y"
b101 p"
b101 /#
b101 3#
b101 `#
b101 0#
b11010001000 R
b11010001000 k
b11010001000 -#
b11010001000 u
b11010001000 X
b11010001000 r
b11010001000 W"
b11010001000 Z"
b10 f"
b100 b"
1!
#700000
0!
#710000
b10 5
b10 }
b10 /"
b10 K"
b10 Y"
b10 p"
b10 /#
b10 3#
b10 `#
b10 0#
b1000 R
b1000 k
b1000 -#
b1000 u
b1000 X
b1000 r
b1000 W"
b1000 Z"
b11 f"
b101 `"
1!
#720000
0!
#730000
b11 5
b11 }
b11 /"
b11 K"
b11 Y"
b11 p"
b11 /#
b11 3#
b11 `#
b11 0#
b11010001110 R
b11010001110 k
b11010001110 -#
b11010001110 u
b11010001110 X
b11010001110 r
b11010001110 W"
b11010001110 Z"
b100 f"
b10 a"
1!
#740000
0!
#750000
b10 5
b10 }
b10 /"
b10 K"
b10 Y"
b10 p"
b10 /#
b10 3#
b10 `#
b10 0#
b1001001000 R
b1001001000 k
b1001001000 -#
b1001001000 u
b1001001000 X
b1001001000 r
b1001001000 W"
b1001001000 Z"
b101 f"
b11 d"
1!
#760000
0!
#770000
b101 5
b101 }
b101 /"
b101 K"
b101 Y"
b101 p"
b101 /#
b101 3#
b101 `#
b101 0#
b11010010000 R
b11010010000 k
b11010010000 -#
b11010010000 u
b11010010000 X
b11010010000 r
b11010010000 W"
b11010010000 Z"
b100 f"
b1 ]"
b10 e"
1!
#780000
0!
#790000
b10 5
b10 }
b10 /"
b10 K"
b10 Y"
b10 p"
b10 /#
b10 3#
b10 `#
b10 0#
b1001011000 R
b1001011000 k
b1001011000 -#
b1001011000 u
b1001011000 X
b1001011000 r
b1001011000 W"
b1001011000 Z"
b101 f"
b101 d"
1!
#800000
0!
#810000
b11 5
b11 }
b11 /"
b11 K"
b11 Y"
b11 p"
b11 /#
b11 3#
b11 `#
b11 0#
b11010010010 R
b11010010010 k
b11010010010 -#
b11010010010 u
b11010010010 X
b11010010010 r
b11010010010 W"
b11010010010 Z"
b100 f"
b10 ]"
1!
#820000
0!
#830000
b10 5
b10 }
b10 /"
b10 K"
b10 Y"
b10 p"
b10 /#
b10 3#
b10 `#
b10 0#
b1001101000 R
b1001101000 k
b1001101000 -#
b1001101000 u
b1001101000 X
b1001101000 r
b1001101000 W"
b1001101000 Z"
b101 f"
b11 d"
1!
#840000
0!
